<svg width="21" height="35" viewBox="0 0 21 35" fill="none" xmlns="http://www.w3.org/2000/svg">
<path d="M15.0029 15H20.0029V20H15.0029V15Z" fill="#184A9C"/>
<path d="M10.0029 10H15.0029V15H10.0029V10Z" fill="#184A9C"/>
<path d="M5.00293 5H10.0029V10H5.00293V5Z" fill="#184A9C"/>
<path d="M0.00292969 0H5.00293V5H0.00292969V0Z" fill="#184A9C"/>
<path d="M10.0029 20H15.0029V25H10.0029V20Z" fill="#184A9C"/>
<path d="M5.00293 25H10.0029V30H5.00293V25Z" fill="#184A9C"/>
<path d="M0.00292969 30H5.00293V35H0.00292969V30Z" fill="#184A9C"/>
</svg>
