<svg width="260" height="60" viewBox="0 0 260 60" fill="none" xmlns="http://www.w3.org/2000/svg">
<path d="M20 0H250V60H20V0Z" fill="#FAF11A"/>
<rect y="30" width="10" height="10" fill="#FAF11A"/>
<rect x="10" width="10" height="10" fill="#FAF11A"/>
<rect x="10" y="40" width="10" height="10" fill="#FAF11A"/>
<rect x="10" y="30" width="10" height="10" fill="#FAF11A"/>
<rect x="10" y="20" width="10" height="10" fill="#FAF11A"/>
<rect x="250" width="10" height="10" fill="#FAF11A"/>
<rect x="250" y="40" width="10" height="10" fill="#FAF11A"/>
<rect x="250" y="20" width="10" height="10" fill="#FAF11A"/>
<path d="M72.7424 17.9792H73.1344C73.8064 17.9792 74.1144 17.7552 74.1144 16.9432C74.1144 15.4592 74.1424 15.3192 73.1064 15.3192H70.2504H69.4944C69.4664 15.3192 69.4384 15.1792 69.4384 15.0392V13.6952L69.4944 10.0832C69.8304 10.1112 70.3064 10.1112 70.8384 10.1112C73.6944 10.1112 74.9824 10.1672 74.9824 9.27123C74.9824 8.87923 74.9544 8.48723 74.9544 7.59123C74.9544 7.19923 74.6464 7.05923 73.9464 7.05923C73.6944 7.05923 72.7424 7.08722 71.9864 7.08722C71.5104 7.08722 71.0904 7.05923 70.9504 7.05923H70.6424C69.9984 7.05923 68.9904 7.05923 68.3184 7.08722H68.4024C67.0584 7.08722 65.9664 7.05923 65.9664 7.92723C65.9664 8.23523 66.0224 8.65523 66.0224 8.90723V11.5112V16.3832C66.0224 16.6352 65.9944 16.9712 65.9944 17.2792C65.9944 17.9792 66.0224 18.7072 66.0224 19.6032V20.2472C66.0504 21.0872 65.9944 22.0112 65.9944 22.9912V25.5392C65.9944 26.4912 66.5824 26.4072 67.8704 26.4072C68.5424 26.4072 69.3824 26.3792 70.3624 26.3792C71.0344 26.3792 71.7624 26.4072 72.5744 26.4072H73.3584C73.5264 26.4352 73.7224 26.4352 73.8904 26.4352C75.0664 26.4352 75.1224 26.2112 75.1224 24.8392V24.4472C75.1224 23.5792 75.0384 23.2992 74.3664 23.2992C74.1704 23.2992 73.9744 23.3272 73.7224 23.3272H73.4704C72.6024 23.3272 71.6224 23.4112 69.4664 23.4672C69.4664 23.2432 69.4384 23.0192 69.4384 22.7952C69.4384 22.3192 69.4664 21.8432 69.4664 21.5072C69.4384 20.6672 69.4384 19.8832 69.4384 19.0152C69.4384 18.6792 69.4664 18.3712 69.4664 18.0352C70.1944 18.0072 72.0144 17.9792 72.7424 17.9792ZM84.4248 18.1752C84.4248 18.8752 84.4248 19.5752 84.3968 20.2752V22.8232C84.3968 23.3552 84.4248 23.9152 84.4528 24.4752C84.4528 24.6432 84.4248 24.7552 84.4248 24.8672C84.4248 24.8952 84.4528 24.9232 84.4528 24.9792C84.4528 25.1472 84.4248 25.3712 84.4248 25.6512C84.4248 26.3232 84.7608 26.4352 85.0408 26.4632L87.0008 26.5192C87.3368 26.4912 87.6448 26.3232 87.6448 25.7072V24.8112C87.6448 23.5512 87.7008 21.7872 87.7008 20.2752V18.1472C88.5688 18.1472 89.4368 19.0712 89.6328 20.4992L89.6888 21.1992C90.0248 25.4272 91.8168 26.8832 94.7848 26.8832C95.4008 26.8832 95.7088 26.7152 95.7088 26.2952V24.5032C95.6808 24.2232 95.5408 24.1672 95.1488 24.1672C93.4968 24.1672 93.3288 21.7592 93.3008 20.5832C93.1608 17.3072 91.0048 16.7472 90.4448 16.5512C90.2208 16.4392 90.0248 16.3832 90.0248 16.3552C90.1928 16.3272 92.6288 15.9352 93.1608 11.9312C93.4128 10.4192 93.3008 9.55122 94.5888 9.55122C94.8688 9.55122 94.9248 9.38323 94.9248 9.24323C94.9248 8.79523 94.9528 7.70323 94.9528 7.22722C94.9528 6.91923 94.3368 6.94723 93.5248 6.94723C90.9208 6.94723 89.8568 8.29123 89.4088 12.3792C89.2408 13.8352 88.3728 14.8992 87.6448 14.9552C87.6448 12.7152 87.7848 10.7832 87.7848 8.43123C87.7848 7.84323 87.7568 7.19923 87.2248 7.11523H86.3848C86.3288 7.11523 86.1888 7.11523 86.0488 7.14323C85.9368 7.11523 85.7968 7.11523 85.7408 7.11523H84.8728C84.2568 7.22722 84.3408 7.84323 84.3408 8.54323V9.38323C84.3408 11.2872 84.4248 13.1632 84.4248 14.9832C83.8088 14.9272 82.5488 14.0872 82.5488 12.4072C82.0728 8.37523 80.7568 6.97523 78.2648 6.97523C77.3128 6.97523 77.0328 7.00323 77.0328 7.36723V9.27123C77.0328 9.46723 77.1168 9.57923 77.4808 9.57923C78.6008 9.57923 78.5728 10.5872 78.7688 11.9592C79.3568 15.9632 82.1288 16.3552 82.3528 16.3832C82.3248 16.4112 82.4088 16.4672 82.1848 16.5792C81.6528 16.7752 78.7408 17.3352 78.6288 20.6112C78.5728 21.9272 78.4328 24.1952 76.6688 24.1952C76.3608 24.1952 76.2488 24.3072 76.2488 24.5312V26.4632C76.2488 26.9392 76.8648 26.9112 77.5928 26.9112C80.4208 26.9112 81.9328 25.3432 82.2688 21.2272C82.2688 19.4072 83.4448 18.1752 84.4248 18.1752ZM104.16 17.9792H104.552C105.224 17.9792 105.532 17.7552 105.532 16.9432C105.532 15.4592 105.56 15.3192 104.524 15.3192H101.668H100.912C100.884 15.3192 100.856 15.1792 100.856 15.0392V13.6952L100.912 10.0832C101.248 10.1112 101.724 10.1112 102.256 10.1112C105.112 10.1112 106.4 10.1672 106.4 9.27123C106.4 8.87923 106.372 8.48723 106.372 7.59123C106.372 7.19923 106.064 7.05923 105.364 7.05923C105.112 7.05923 104.16 7.08722 103.404 7.08722C102.928 7.08722 102.508 7.05923 102.368 7.05923H102.06C101.416 7.05923 100.408 7.05923 99.7364 7.08722H99.8204C98.4764 7.08722 97.3844 7.05923 97.3844 7.92723C97.3844 8.23523 97.4404 8.65523 97.4404 8.90723V11.5112V16.3832C97.4404 16.6352 97.4124 16.9712 97.4124 17.2792C97.4124 17.9792 97.4404 18.7072 97.4404 19.6032V20.2472C97.4684 21.0872 97.4124 22.0112 97.4124 22.9912V25.5392C97.4124 26.4912 98.0004 26.4072 99.2884 26.4072C99.9604 26.4072 100.8 26.3792 101.78 26.3792C102.452 26.3792 103.18 26.4072 103.992 26.4072H104.776C104.944 26.4352 105.14 26.4352 105.308 26.4352C106.484 26.4352 106.54 26.2112 106.54 24.8392V24.4472C106.54 23.5792 106.456 23.2992 105.784 23.2992C105.588 23.2992 105.392 23.3272 105.14 23.3272H104.888C104.02 23.3272 103.04 23.4112 100.884 23.4672C100.884 23.2432 100.856 23.0192 100.856 22.7952C100.856 22.3192 100.884 21.8432 100.884 21.5072C100.856 20.6672 100.856 19.8832 100.856 19.0152C100.856 18.6792 100.884 18.3712 100.884 18.0352C101.612 18.0072 103.432 17.9792 104.16 17.9792ZM120.883 26.4352C120.883 26.0152 120.855 25.5392 120.855 25.0912C120.855 24.8392 120.883 24.6152 120.883 24.3912C120.883 23.6632 120.211 23.8032 120.239 23.7752H119.455V23.0752C119.455 22.9912 119.483 22.8512 119.483 22.7392C119.455 22.3752 119.427 21.9832 119.427 21.5912L119.567 11.5952C119.595 11.2592 119.595 10.8952 119.595 10.5592C119.595 10.1952 119.595 9.85923 119.595 9.46723V8.87923C119.595 7.08722 119.175 7.11523 118.531 7.11523C118.363 7.11523 118.223 7.11523 118.055 7.11523C117.187 7.11523 115.899 7.05923 115.255 7.05923C115.115 7.08722 115.171 7.08722 114.975 7.08722C114.947 7.08722 114.947 7.05923 114.891 7.05923C114.667 7.05923 114.219 7.08722 113.827 7.08722C113.631 7.08722 113.463 7.05923 113.351 7.05923C112.931 7.05923 112.539 7.08722 112.203 7.08722H111.391C110.915 7.08722 110.523 7.31123 110.467 7.81523V8.34723C110.355 9.63523 110.215 11.5112 109.739 18.0912C109.487 21.5912 109.039 23.2992 108.171 23.8872C107.247 23.8872 107.135 24.2512 107.135 24.9792C107.135 25.2032 107.135 25.3712 107.135 25.5392C107.135 26.1832 107.107 26.3232 107.107 26.7992V28.3392C107.107 29.6832 108.647 29.2912 109.851 29.3472C110.187 29.3192 110.495 29.1232 110.495 28.5352V26.4352H110.915C111.839 26.4352 112.539 26.4072 113.547 26.4072H114.135C114.975 26.3792 115.703 26.4352 116.487 26.4352H117.467C117.523 27.4152 117.579 26.7712 117.579 28.5352C117.579 29.5152 118.559 29.3472 118.755 29.3472H119.623C120.071 29.3472 120.855 29.3752 120.855 28.5072V27.8632C120.855 27.5832 120.883 27.3872 120.883 26.4352ZM112.231 22.9912C112.623 21.7592 113.491 14.5352 113.631 9.77523C114.443 9.77523 115.227 9.77523 116.039 9.74723C116.067 9.85923 116.067 9.94323 116.067 10.0552V10.5032C116.067 12.2672 116.011 16.3552 116.039 18.8752C116.067 19.1272 116.067 19.3792 116.067 19.5752V21.1152C116.067 21.9832 116.123 22.9632 116.123 23.8032H111.951C112.063 23.5512 112.147 23.2712 112.231 22.9912ZM126.012 8.29123C125.984 7.42323 125.676 7.08722 125.34 7.08722C124.136 7.08722 122.568 6.77923 122.568 7.92723C122.568 8.20723 122.596 8.45923 122.596 8.65523C122.596 8.79523 122.568 8.90723 122.568 9.04723L122.624 10.8952C122.652 11.7072 122.736 12.4912 122.708 13.2472V20.2752C122.736 20.6112 122.736 20.9752 122.736 21.3112C122.736 22.1512 122.708 23.0192 122.708 23.8592C122.708 24.2232 122.736 24.5312 122.736 24.8952C122.736 25.0352 122.708 25.2032 122.708 25.3712C122.708 26.8552 123.8 26.3792 124.78 26.4352H125.648C125.9 26.4072 126.264 26.3232 126.292 25.8472V25.6232C126.292 24.6712 126.376 24.1672 126.376 22.0392C126.376 21.0032 126.376 19.7712 126.292 18.2312C127.496 18.2312 128.7 18.2312 129.904 18.2032C129.932 18.2872 129.932 18.3432 129.932 18.4272C129.904 18.9032 129.904 19.0432 129.904 19.5192V19.7992C129.96 20.7232 129.96 21.7312 129.96 22.6832V23.1872C129.96 23.9152 129.988 24.5312 129.988 25.5952C129.988 26.2112 130.436 26.3512 130.632 26.4072H132.144C132.284 26.4072 132.452 26.4352 132.62 26.4352C132.844 26.4352 133.264 26.3512 133.264 25.7072C133.264 25.6232 133.236 25.5112 133.236 25.3712C133.236 25.2032 133.264 24.9792 133.264 24.8112C133.236 24.4752 133.236 24.0832 133.236 23.8032V23.1592C133.264 22.8512 133.264 22.5152 133.264 22.1792V19.7432L133.18 18.9872C133.096 18.3712 133.152 17.8112 133.124 17.2792C133.124 14.8152 133.32 14.3672 133.32 13.2752L133.404 11.7352V10.6992C133.376 10.2512 133.376 9.77523 133.376 9.29923V7.73123C133.376 7.11523 132.928 7.08722 132.788 7.08722H131.808C131.304 7.08722 130.016 6.77923 130.016 7.89923V10.1392C129.932 11.5672 129.876 13.5552 129.876 15.0952C129.792 15.1232 129.736 15.1232 129.68 15.1232C128.476 15.1232 126.488 15.0952 126.068 15.0392V14.5072C126.04 14.3672 126.04 14.2272 126.04 14.0592V13.4992C126.012 13.1912 126.012 12.8552 126.012 12.5472V11.8472C126.012 11.3712 125.984 10.8112 125.984 10.2232C125.984 9.60723 125.984 8.96323 126.012 8.29123ZM142.989 17.9792H143.381C144.053 17.9792 144.361 17.7552 144.361 16.9432C144.361 15.4592 144.389 15.3192 143.353 15.3192H140.497H139.741C139.713 15.3192 139.685 15.1792 139.685 15.0392V13.6952L139.741 10.0832C140.077 10.1112 140.553 10.1112 141.085 10.1112C143.941 10.1112 145.229 10.1672 145.229 9.27123C145.229 8.87923 145.201 8.48723 145.201 7.59123C145.201 7.19923 144.893 7.05923 144.193 7.05923C143.941 7.05923 142.989 7.08722 142.233 7.08722C141.757 7.08722 141.337 7.05923 141.197 7.05923H140.889C140.245 7.05923 139.237 7.05923 138.565 7.08722H138.649C137.305 7.08722 136.213 7.05923 136.213 7.92723C136.213 8.23523 136.269 8.65523 136.269 8.90723V11.5112V16.3832C136.269 16.6352 136.241 16.9712 136.241 17.2792C136.241 17.9792 136.269 18.7072 136.269 19.6032V20.2472C136.297 21.0872 136.241 22.0112 136.241 22.9912V25.5392C136.241 26.4912 136.829 26.4072 138.117 26.4072C138.789 26.4072 139.629 26.3792 140.609 26.3792C141.281 26.3792 142.008 26.4072 142.821 26.4072H143.605C143.773 26.4352 143.969 26.4352 144.137 26.4352C145.313 26.4352 145.369 26.2112 145.369 24.8392V24.4472C145.369 23.5792 145.285 23.2992 144.613 23.2992C144.417 23.2992 144.221 23.3272 143.969 23.3272H143.717C142.849 23.3272 141.869 23.4112 139.713 23.4672C139.713 23.2432 139.685 23.0192 139.685 22.7952C139.685 22.3192 139.713 21.8432 139.713 21.5072C139.685 20.6672 139.685 19.8832 139.685 19.0152C139.685 18.6792 139.713 18.3712 139.713 18.0352C140.441 18.0072 142.261 17.9792 142.989 17.9792ZM147.643 24.5032C147.643 25.6512 148.091 26.4072 149.799 26.4072C153.747 26.4072 157.219 24.8392 157.219 19.9392C157.219 17.5312 155.875 15.2632 153.971 15.1512C155.175 14.7872 155.987 13.3592 155.987 11.8472C155.987 8.48723 153.411 7.31123 151.003 6.80723L150.219 6.63923C149.883 6.58323 149.659 6.55523 149.463 6.55523C148.679 6.55523 147.643 6.66723 147.643 8.62723C147.643 8.76723 147.671 8.99123 147.671 9.21523V9.94323C147.671 10.0832 147.643 10.1952 147.643 10.3072C147.643 10.7272 147.643 11.2592 147.671 11.6232C147.671 12.0152 147.699 12.3232 147.699 12.7152C147.699 12.8832 147.671 13.0792 147.671 13.2192V15.3472C147.615 15.5712 147.643 15.6552 147.643 15.7672V24.5032ZM153.831 20.1352C153.831 20.9192 153.075 22.6832 151.087 23.1032V17.3632C152.235 17.5592 153.831 18.0352 153.831 20.1352ZM152.655 11.8752C152.683 12.3232 152.347 13.4432 151.171 13.7512C151.171 13.7232 151.143 13.7512 151.087 13.7512L151.031 9.85923C151.647 9.91523 152.599 10.2232 152.655 11.8752ZM162.625 8.29123C162.597 7.42323 162.289 7.08722 161.953 7.08722C160.749 7.08722 159.181 6.77923 159.181 7.92723C159.181 8.20723 159.209 8.45923 159.209 8.65523C159.209 8.79523 159.181 8.90723 159.181 9.04723L159.237 10.8952C159.265 11.7072 159.349 12.4912 159.321 13.2472V20.2752C159.349 20.6112 159.349 20.9752 159.349 21.3112C159.349 22.1512 159.321 23.0192 159.321 23.8592C159.321 24.2232 159.349 24.5312 159.349 24.8952C159.349 25.0352 159.321 25.2032 159.321 25.3712C159.321 26.8552 160.413 26.3792 161.393 26.4352H162.261C162.513 26.4072 162.877 26.3232 162.905 25.8472V25.6232C162.905 24.6712 162.989 24.1672 162.989 22.0392C162.989 21.0032 162.989 19.7712 162.905 18.2312C164.109 18.2312 165.313 18.2312 166.517 18.2032C166.545 18.2872 166.545 18.3432 166.545 18.4272C166.517 18.9032 166.517 19.0432 166.517 19.5192V19.7992C166.573 20.7232 166.573 21.7312 166.573 22.6832V23.1872C166.573 23.9152 166.601 24.5312 166.601 25.5952C166.601 26.2112 167.049 26.3512 167.245 26.4072H168.757C168.897 26.4072 169.065 26.4352 169.233 26.4352C169.457 26.4352 169.877 26.3512 169.877 25.7072C169.877 25.6232 169.849 25.5112 169.849 25.3712C169.849 25.2032 169.877 24.9792 169.877 24.8112C169.849 24.4752 169.849 24.0832 169.849 23.8032V23.1592C169.877 22.8512 169.877 22.5152 169.877 22.1792V19.7432L169.793 18.9872C169.709 18.3712 169.765 17.8112 169.737 17.2792C169.737 14.8152 169.933 14.3672 169.933 13.2752L170.017 11.7352V10.6992C169.989 10.2512 169.989 9.77523 169.989 9.29923V7.73123C169.989 7.11523 169.541 7.08722 169.401 7.08722H168.421C167.917 7.08722 166.629 6.77923 166.629 7.89923V10.1392C166.545 11.5672 166.489 13.5552 166.489 15.0952C166.405 15.1232 166.349 15.1232 166.293 15.1232C165.089 15.1232 163.101 15.0952 162.681 15.0392V14.5072C162.653 14.3672 162.653 14.2272 162.653 14.0592V13.4992C162.625 13.1912 162.625 12.8552 162.625 12.5472V11.8472C162.625 11.3712 162.597 10.8112 162.597 10.2232C162.597 9.60723 162.597 8.96323 162.625 8.29123ZM175.906 16.0192C178.566 16.0192 178.93 18.4832 178.93 19.8832C178.93 22.4312 177.166 23.8312 176.046 23.8872C175.962 21.0872 175.962 18.8192 175.906 16.0192ZM172.938 25.3152C172.938 26.4072 173.386 26.7992 175.038 26.7992C178.314 26.7992 182.29 24.8112 182.29 19.8832C182.29 15.8232 179.938 13.5832 176.242 13.3312V9.10323C176.242 8.73923 176.214 8.31923 176.214 8.03923V7.89923C176.214 7.11523 175.57 7.17123 175.346 7.17123H173.75C173.414 7.17123 172.826 7.25523 172.826 7.98323V9.18723L172.938 25.3152ZM183.914 22.4872C183.914 23.0472 183.942 23.5792 183.942 24.1112C183.942 24.6432 183.914 25.1752 183.914 25.7352C183.914 26.3792 184.362 26.4072 184.502 26.4072H186.77C187.134 26.4072 187.358 26.3792 187.358 24.9792C187.386 22.9352 187.19 21.0312 187.19 14.9272V13.4992V11.3152C187.19 10.5872 187.162 9.74723 187.162 8.93523C187.162 8.51522 187.19 8.12322 187.19 7.75923C187.19 7.11523 186.77 7.08722 186.63 7.08722H184.306C184.166 7.08722 183.718 7.11523 183.718 7.73123C183.746 7.98323 183.746 8.31923 183.746 8.48723C183.746 8.90723 183.69 9.29923 183.718 9.69123L183.774 11.0912C183.858 13.4712 183.886 15.2912 183.886 17.0272C183.886 18.0632 183.886 19.0992 183.886 20.1912C183.886 20.8912 183.942 21.6472 183.914 22.4872ZM196.965 17.9792H197.357C198.029 17.9792 198.337 17.7552 198.337 16.9432C198.337 15.4592 198.365 15.3192 197.329 15.3192H194.473H193.717C193.689 15.3192 193.661 15.1792 193.661 15.0392V13.6952L193.717 10.0832C194.053 10.1112 194.529 10.1112 195.061 10.1112C197.917 10.1112 199.205 10.1672 199.205 9.27123C199.205 8.87923 199.177 8.48723 199.177 7.59123C199.177 7.19923 198.869 7.05923 198.169 7.05923C197.917 7.05923 196.965 7.08722 196.209 7.08722C195.733 7.08722 195.313 7.05923 195.173 7.05923H194.865C194.221 7.05923 193.213 7.05923 192.541 7.08722H192.625C191.281 7.08722 190.189 7.05923 190.189 7.92723C190.189 8.23523 190.245 8.65523 190.245 8.90723V11.5112V16.3832C190.245 16.6352 190.217 16.9712 190.217 17.2792C190.217 17.9792 190.245 18.7072 190.245 19.6032V20.2472C190.273 21.0872 190.217 22.0112 190.217 22.9912V25.5392C190.217 26.4912 190.805 26.4072 192.093 26.4072C192.765 26.4072 193.605 26.3792 194.585 26.3792C195.257 26.3792 195.985 26.4072 196.797 26.4072H197.581C197.749 26.4352 197.945 26.4352 198.113 26.4352C199.289 26.4352 199.345 26.2112 199.345 24.8392V24.4472C199.345 23.5792 199.261 23.2992 198.589 23.2992C198.393 23.2992 198.197 23.3272 197.945 23.3272H197.693C196.825 23.3272 195.845 23.4112 193.689 23.4672C193.689 23.2432 193.661 23.0192 193.661 22.7952C193.661 22.3192 193.689 21.8432 193.689 21.5072C193.661 20.6672 193.661 19.8832 193.661 19.0152C193.661 18.6792 193.689 18.3712 193.689 18.0352C194.417 18.0072 196.237 17.9792 196.965 17.9792ZM108.558 35.9512C108.558 35.4752 108.502 34.9992 108.502 34.4672V34.1032C108.502 33.7112 108.53 33.2072 108.53 32.7312C108.53 32.1152 108.054 32.1152 107.914 32.1152H107.018C106.122 32.1152 104.918 32.0872 104.078 32.0872C104.022 32.0872 103.994 32.1152 103.994 32.1152C103.63 32.1432 101.922 32.0592 101.502 32.0592H100.858C100.466 32.0592 100.018 32.0592 99.5416 32.0592C99.1216 32.0592 97.9176 31.8912 97.9176 32.7592C97.9176 33.0952 97.9736 33.3752 97.9736 33.4872C97.9456 33.7952 97.9176 34.2432 97.9176 34.5512L98.0576 38.2472V45.2752C98.0576 45.4712 98.0576 45.6672 98.0576 45.8632C98.0576 46.8432 98.0296 47.7952 98.0296 48.7752C98.0296 49.1392 98.0016 49.5032 98.0576 49.8952C98.0576 50.0632 98.0296 50.2592 98.0296 50.5392C98.0296 51.2672 98.3936 51.3792 98.7296 51.4072H100.97C101.306 51.4072 101.614 51.2112 101.614 50.6232V49.8672C101.614 48.1872 101.698 47.9912 101.698 40.7112C101.698 38.4432 101.67 36.2872 101.586 34.7752C102.734 34.7752 103.882 34.7752 105.03 34.7472C105.058 34.8032 105.058 34.8592 105.058 34.9152V35.0272C105.03 36.3152 105.03 42.7272 105.03 44.0152L105.142 48.3272C105.142 48.9992 105.17 49.5592 105.17 50.5672C105.17 51.3232 105.702 51.4072 106.038 51.4072H107.578C107.802 51.4072 108.446 51.4632 108.446 50.6792C108.418 50.5952 108.418 50.4552 108.418 50.2592V48.0752L108.558 35.9512ZM114.507 34.5792C115.543 34.6352 117.447 36.0632 117.447 39.5912C117.447 41.2712 116.971 43.8192 114.367 43.8192C114.423 40.9352 114.451 38.2472 114.479 35.3632C114.479 35.2512 114.451 35.1672 114.451 35.0832C114.451 34.9152 114.479 34.7472 114.507 34.5792ZM114.703 50.7912C114.703 49.4192 114.731 47.5712 114.731 46.2272C115.179 46.2272 117.027 46.1432 118.119 45.4712C119.911 44.3512 120.947 42.0272 120.947 39.0872C120.947 34.1872 117.027 31.8072 113.219 31.8072C112.267 31.8072 111.399 32.1432 111.399 33.3472C111.399 38.9472 111.371 44.5752 111.371 50.2032V50.5112C111.371 51.3792 111.875 51.4632 112.211 51.4632H113.779C114.003 51.4632 114.703 51.5472 114.703 50.7912ZM133.578 49.1952V47.4872C133.578 44.5472 133.634 41.2992 133.634 38.2472C133.69 36.5112 133.718 35.1112 133.718 33.1792C133.718 32.5912 133.914 32.0592 133.046 32.0592H131.506C131.114 32.0592 130.946 32.0032 130.722 32.5352L126.466 42.8392C126.466 39.9552 126.27 35.7272 126.27 33.6552V33.6832C126.27 33.4872 126.298 33.0952 126.298 32.7872C126.298 31.9472 126.046 31.9752 124.338 31.9752H124.226C123.19 31.9752 122.994 32.1152 122.938 32.7872V34.2432C122.91 35.0272 122.966 35.8392 122.966 36.6232V38.6392C122.994 38.9752 123.022 39.3112 123.022 39.6472L123.106 40.4312C123.078 41.0472 123.19 41.7192 123.162 42.3352L123.078 45.3032C123.05 46.3672 123.05 47.0672 123.05 47.6272C123.05 48.1872 123.05 48.6072 123.05 49.0832V50.4832C123.05 50.5392 123.05 50.5952 123.05 50.6512C123.05 51.2392 123.302 51.4352 123.806 51.4352C124.646 51.4352 125.99 51.7712 126.354 50.8752C127.25 48.7192 128.538 45.4432 130.162 41.0752L130.05 50.2032C130.05 50.8472 129.966 51.4072 131.87 51.4072C132.85 51.4072 133.466 51.5752 133.55 50.5392V49.7552C133.55 49.5872 133.578 49.3912 133.578 49.1952ZM137.338 35.1952C139.97 33.4872 141.426 35.3912 141.426 36.7072C141.426 38.9192 139.774 39.6472 138.934 39.5912C137.982 39.5352 137.982 39.9832 137.982 40.1232C137.982 41.8872 137.926 42.3352 139.158 42.3352C140.278 42.3352 141.594 42.5312 141.902 44.3792C142.014 44.6312 142.098 44.9672 142.098 45.3872C142.098 48.1032 140.67 48.6912 139.494 48.6912C138.234 48.6912 137.366 47.9632 136.946 47.9632C136.862 47.9352 136.806 47.9352 136.722 47.9352C136.162 47.9352 135.462 48.7752 135.182 49.6992C134.958 50.4272 137.226 51.6872 139.69 51.6872C143.47 51.6872 145.57 48.9432 145.57 45.5272C145.57 40.8512 141.986 40.4312 141.93 40.4592C141.846 40.4592 144.646 39.7312 144.646 36.0912C144.646 34.3552 144.058 33.2912 143.106 32.4512C142.21 31.7792 140.642 31.5552 139.802 31.5552C137.31 31.6672 135.546 32.7312 135.546 33.5992C135.546 34.9712 136.358 35.8392 137.338 35.1952ZM150.599 41.0192C153.259 41.0192 153.623 43.4832 153.623 44.8832C153.623 47.4312 151.859 48.8312 150.739 48.8872C150.655 46.0872 150.655 43.8192 150.599 41.0192ZM147.631 50.3152C147.631 51.4072 148.079 51.7992 149.731 51.7992C153.007 51.7992 156.983 49.8112 156.983 44.8832C156.983 40.8232 154.631 38.5832 150.935 38.3312V34.1032C150.935 33.7392 150.907 33.3192 150.907 33.0392V32.8992C150.907 32.1152 150.263 32.1712 150.039 32.1712H148.443C148.107 32.1712 147.519 32.2552 147.519 32.9832V34.1872L147.631 50.3152ZM158.607 47.4872C158.607 48.0472 158.635 48.5792 158.635 49.1112C158.635 49.6432 158.607 50.1752 158.607 50.7352C158.607 51.3792 159.055 51.4072 159.195 51.4072H161.463C161.827 51.4072 162.051 51.3792 162.051 49.9792C162.079 47.9352 161.883 46.0312 161.883 39.9272V38.4992V36.3152C161.883 35.5872 161.855 34.7472 161.855 33.9352C161.855 33.5152 161.883 33.1232 161.883 32.7592C161.883 32.1152 161.463 32.0872 161.323 32.0872H158.999C158.859 32.0872 158.411 32.1152 158.411 32.7312C158.439 32.9832 158.439 33.3192 158.439 33.4872C158.439 33.9072 158.383 34.2992 158.411 34.6912L158.467 36.0912C158.551 38.4712 158.579 40.2912 158.579 42.0272C158.579 43.0632 158.579 44.0992 158.579 45.1912C158.579 45.8912 158.635 46.6472 158.607 47.4872Z" fill="#184A9C"/>
</svg>
