<svg width="240" height="137" viewBox="0 0 240 137" fill="none" xmlns="http://www.w3.org/2000/svg">
<path d="M138 30.0581L208 30.0581L213 35.0498H133L138 30.0581Z" fill="#184A9C"/>
<path d="M133 35.0498H168V40.0415H133V35.0498Z" fill="#184A9C"/>
<path d="M133 40.0415H163V45.0332H133V40.0415Z" fill="#184A9C"/>
<path d="M133 45.0332H158V50.0249H133V45.0332Z" fill="#184A9C"/>
<path d="M133 50.0249H153V55.0165H133V50.0249Z" fill="#184A9C"/>
<path d="M133 55.0165H148V60.0082H133V55.0165Z" fill="#184A9C"/>
<path d="M133 60.0082H143V64.9999H133V60.0082Z" fill="#184A9C"/>
<path d="M213 35.0498H178V40.0415H213V35.0498Z" fill="#184A9C"/>
<path d="M213 40.0415H183V45.0332H213V40.0415Z" fill="#184A9C"/>
<path d="M213 45.0332H188V50.0249L213 50.0249V45.0332Z" fill="#184A9C"/>
<path d="M213 50.0249L193 50.0249V55.0165L213 55.0165V50.0249Z" fill="#184A9C"/>
<path d="M213 55.0165H198V60.0082H213V55.0165Z" fill="#184A9C"/>
<path d="M213 60.0082H203V64.9999H213V60.0082Z" fill="#184A9C"/>
<path d="M138 25.0665L208 25.0665V30.0581L138 30.0581V25.0665Z" fill="#184A9C"/>
<path d="M138 20.0748L208 20.0748V25.0665L138 25.0665V20.0748Z" fill="#184A9C"/>
<path d="M143 15.0831L163 15.0831V20.0748H143V15.0831Z" fill="#184A9C"/>
<path d="M183 15.0831H203V20.0748H183V15.0831Z" fill="#184A9C"/>
<path d="M138 25.0664L208 25.0664L213 30.0581L133 30.0581L138 25.0664Z" fill="#D4D4D4"/>
<path d="M133 30.0581L168 30.0581V35.0498H133V30.0581Z" fill="#D4D4D4"/>
<path d="M133 35.0498H163V40.0415H133V35.0498Z" fill="#D4D4D4"/>
<path d="M133 40.0415H158V45.0332H133V40.0415Z" fill="#D4D4D4"/>
<path d="M133 45.0332H153V50.0248H133V45.0332Z" fill="#D4D4D4"/>
<path d="M133 50.0248H148V55.0165H133V50.0248Z" fill="#D4D4D4"/>
<path d="M133 55.0165H143V60.0082H133V55.0165Z" fill="#D4D4D4"/>
<path d="M213 30.0581H178V35.0498H213V30.0581Z" fill="#D4D4D4"/>
<path d="M213 35.0498H183V40.0415H213V35.0498Z" fill="#D4D4D4"/>
<path d="M213 40.0415H188V45.0332L213 45.0332V40.0415Z" fill="#D4D4D4"/>
<path d="M213 45.0332L193 45.0332V50.0248L213 50.0248V45.0332Z" fill="#D4D4D4"/>
<path d="M213 50.0248H198V55.0165H213V50.0248Z" fill="#D4D4D4"/>
<path d="M213 55.0165H203V60.0082H213V55.0165Z" fill="#D4D4D4"/>
<path d="M138 20.0748L208 20.0748V25.0664L138 25.0664V20.0748Z" fill="#D4D4D4"/>
<path d="M138 15.0831L208 15.0831V20.0748L138 20.0748V15.0831Z" fill="#D4D4D4"/>
<path d="M143 10.0914L163 10.0914V15.0831L143 15.0831V10.0914Z" fill="#D4D4D4"/>
<path d="M183 10.0914H203V15.0831H183V10.0914Z" fill="#D4D4D4"/>
<path d="M128 19.975H218V24.9667L128 24.9667V19.975Z" fill="white"/>
<path d="M128 24.9667H168V29.9584H128V24.9667Z" fill="white"/>
<path d="M128 29.9584H163V34.9501H128V29.9584Z" fill="white"/>
<path d="M128 34.9501H158V39.9418H128V34.9501Z" fill="white"/>
<path d="M128 39.9418H153V44.9334H128V39.9418Z" fill="white"/>
<path d="M128 44.9334H148V49.9251H128V44.9334Z" fill="white"/>
<path d="M128 49.9251H143V54.9168H128V49.9251Z" fill="white"/>
<path d="M218 24.9667L178 24.9667V29.9584L218 29.9584V24.9667Z" fill="white"/>
<path d="M218 29.9584L183 29.9584V34.9501H218V29.9584Z" fill="white"/>
<path d="M218 34.9501H188V39.9418H218V34.9501Z" fill="white"/>
<path d="M218 39.9418H193V44.9334H218V39.9418Z" fill="white"/>
<path d="M218 44.9334H198V49.9251H218V44.9334Z" fill="white"/>
<path d="M218 49.9251H203V54.9168H218V49.9251Z" fill="white"/>
<path d="M133 14.9834L213 14.9834V19.975H133V14.9834Z" fill="white"/>
<path d="M138 9.99168L208 9.99168V14.9834L138 14.9834V9.99168Z" fill="white"/>
<path d="M143 5L163 5V9.99168H143V5Z" fill="white"/>
<path d="M183 5H203V9.99168H183V5Z" fill="white"/>
<path d="M143 19.9752H148V24.9668H143V19.9752Z" fill="#FFF201"/>
<path d="M143 24.9668H148V29.9585H143V24.9668Z" fill="#FFF201"/>
<path d="M138 24.9668H143V29.9585H138V24.9668Z" fill="#FFF201"/>
<path d="M148 24.9668H153V29.9585H148V24.9668Z" fill="#FFF201"/>
<path d="M143 29.9585H148V34.9502H143V29.9585Z" fill="#FFF201"/>
<rect x="203" y="19.9752" width="5" height="4.99168" fill="#FFF201"/>
<rect x="193" y="19.9752" width="5" height="4.99168" fill="#184A9C"/>
<rect x="203" y="29.9584" width="5" height="4.99168" fill="#27C2EE"/>
<rect x="193" y="29.9585" width="5" height="4.99168" fill="#E21283"/>
<path d="M13.6904 55.0891L53.7968 7.29208L66.8323 18.2302L26.7259 66.0272L13.6904 55.0891Z" fill="#0D3981"/>
<path d="M12.9912 47.0979L49.4516 3.64604L53.7968 7.29208L17.3364 50.7439L12.9912 47.0979Z" fill="#0D3981"/>
<path d="M12.2921 39.1066L41.4604 4.34518L45.8056 7.99122L16.6373 42.7527L12.2921 39.1066Z" fill="#0D3981"/>
<path d="M30.3719 61.682L63.1863 22.5754L67.5315 26.2214L34.7171 65.3281L30.3719 61.682Z" fill="#0D3981"/>
<path d="M48.3358 22.1467L50.3867 19.7026L50.8755 20.1128L51.2857 19.6239L54.7075 22.4952L54.2973 22.984L54.7862 23.3942L53.5556 24.8607L56.4886 27.3218L55.6683 28.2994L48.3358 22.1467ZM50.1338 21.9894L52.578 24.0403L53.3983 23.0627L50.9542 21.0118L50.1338 21.9894Z" fill="#FFEB03"/>
<path d="M27.0221 32.6929L29.0136 34.364L25.6714 38.347L28.6587 40.8537L30.3298 38.8622L31.3256 39.6977L32.1611 38.7019L33.1569 39.5375L33.9925 38.5417L39.9671 43.555L39.1315 44.5508L40.1273 45.3863L39.2918 46.3821L40.2875 47.2177L37.7809 50.205L36.7851 49.3694L35.9495 50.3652L33.958 48.6941L35.6291 46.7025L36.6249 47.5381L37.4604 46.5423L36.4647 45.7068L37.3002 44.711L33.3171 41.3688L32.4816 42.3646L31.4858 41.529L28.9792 44.5163L22.0088 38.6675L27.0221 32.6929Z" fill="#FFEB03"/>
<path d="M29.6889 31.5369L28.6932 30.7013L32.0354 26.7182L33.0311 27.5538L33.8667 26.558L46.8117 37.4202L45.9762 38.4159L46.9719 39.2515L43.6297 43.2346L42.634 42.399L41.7984 43.3948L28.8534 32.5326L29.6889 31.5369ZM31.5203 31.3766L42.4737 40.5677L44.1448 38.5762L33.1914 29.3851L31.5203 31.3766Z" fill="#FFEB03"/>
<path d="M35.5378 24.5665L34.542 23.7309L37.8842 19.7478L38.88 20.5834L39.7155 19.5876L52.6606 30.4498L51.825 31.4455L52.8208 32.2811L49.4786 36.2642L48.4828 35.4286L47.6473 36.4244L34.7022 25.5622L35.5378 24.5665ZM37.3691 24.4063L48.3226 33.5973L49.9937 31.6058L39.0402 22.4147L37.3691 24.4063Z" fill="#FFEB03"/>
<path d="M42.2843 50.6604L90.0813 10.554L101.019 23.5895L53.2224 63.6959L42.2843 50.6604Z" fill="#103F8B"/>
<path d="M42.9834 42.6692L86.4352 6.20877L90.0813 10.554L46.6294 47.0144L42.9834 42.6692Z" fill="#103F8B"/>
<path d="M43.6826 34.678L78.444 5.50963L82.09 9.85481L47.3286 39.0231L43.6826 34.678Z" fill="#103F8B"/>
<path d="M57.5676 60.0499L96.6742 27.2355L100.32 31.5807L61.2136 64.3951L57.5676 60.0499Z" fill="#103F8B"/>
<path d="M53.3913 35.8796L64.2534 48.8246L65.2492 47.9891L66.9203 49.9806L62.9372 53.3228L61.2661 51.3313L62.2619 50.4957L53.0708 39.5423L52.0751 40.3778L50.404 38.3863L53.3913 35.8796Z" fill="#88CAF6"/>
<path d="M57.2141 34.3687L56.3786 33.373L60.3617 30.0308L61.1972 31.0265L62.193 30.191L73.0551 43.136L72.0594 43.9715L72.8949 44.9673L68.9118 48.3095L68.0763 47.3137L67.0805 48.1493L56.2184 35.2043L57.2141 34.3687ZM59.0455 34.5289L68.2365 45.4824L70.2281 43.8113L61.037 32.8578L59.0455 34.5289Z" fill="#88CAF6"/>
<path d="M64.1845 28.5199L63.349 27.5241L67.3321 24.1819L68.1676 25.1777L69.1634 24.3421L80.0255 37.2871L79.0298 38.1227L79.8653 39.1185L75.8822 42.4607L75.0467 41.4649L74.0509 42.3004L63.1888 29.3554L64.1845 28.5199ZM66.0159 28.6801L75.2069 39.6336L77.1985 37.9625L68.0074 27.009L66.0159 28.6801Z" fill="#88CAF6"/>
<path d="M71.1549 22.671L70.3194 21.6752L74.3025 18.333L75.138 19.3288L76.1338 18.4933L86.9959 31.4383L86.0002 32.2738L86.8357 33.2696L82.8526 36.6118L82.0171 35.616L81.0213 36.4516L70.1592 23.5066L71.1549 22.671ZM72.9862 22.8312L82.1773 33.7847L84.1688 32.1136L74.9778 21.1601L72.9862 22.8312Z" fill="#88CAF6"/>
<path d="M84.7308 22.0471L87.175 19.9962L87.5852 20.485L88.074 20.0748L90.9453 23.4967L90.4564 23.9068L90.8666 24.3957L89.4001 25.6262L91.8612 28.5592L90.8835 29.3796L84.7308 22.0471ZM86.5289 22.2044L88.5798 24.6486L89.5574 23.8282L87.5065 21.384L86.5289 22.2044Z" fill="#88CAF6"/>
<path d="M72.5067 52.9294L126.542 21.7321L135.05 36.469L81.0151 67.6663L72.5067 52.9294Z" fill="#184A9C"/>
<path d="M74.5829 45.181L123.706 16.8198L126.542 21.7321L77.419 50.0933L74.5829 45.181Z" fill="#184A9C"/>
<path d="M76.6591 37.4326L115.957 14.7436L118.794 19.6559L79.4952 42.3449L76.6591 37.4326Z" fill="#184A9C"/>
<path d="M85.9273 64.8302L130.138 39.3051L132.974 44.2174L88.7635 69.7425L85.9273 64.8302Z" fill="#184A9C"/>
<path d="M83.0134 43.0973L82.3635 41.9716L86.8664 39.3718L87.5163 40.4975L88.6421 39.8476L91.8918 45.4763L90.7661 46.1262L91.416 47.2519L92.5417 46.602L97.0913 54.4821L95.9656 55.1321L96.6156 56.2578L92.1126 58.8576L91.4627 57.7319L90.3369 58.3818L89.037 56.1303L91.2885 54.8304L91.9385 55.9562L94.1899 54.6563L90.9402 49.0276L88.6887 50.3275L87.3889 48.076L89.6403 46.7762L87.0406 42.2732L84.7891 43.5731L85.439 44.6988L83.1876 45.9987L81.8877 43.7473L83.0134 43.0973Z" fill="white"/>
<path d="M90.8936 38.5477L90.2436 37.422L94.7465 34.8222L95.3965 35.9479L96.5222 35.298L104.971 49.9325L103.846 50.5825L104.496 51.7082L99.9928 54.308L99.3428 53.1823L98.2171 53.8322L89.7678 39.1977L90.8936 38.5477ZM92.6692 39.0235L99.8186 51.4066L102.07 50.1067L94.9207 37.7236L92.6692 39.0235Z" fill="white"/>
<path d="M98.7737 33.9981L98.1238 32.8724L102.627 30.2726L103.277 31.3983L104.402 30.7484L112.852 45.3829L111.726 46.0329L112.376 47.1586L107.873 49.7584L107.223 48.6327L106.097 49.2826L97.648 34.6481L98.7737 33.9981ZM100.549 34.4739L107.699 46.857L109.95 45.5571L102.801 33.174L100.549 34.4739Z" fill="white"/>
<path d="M106.654 29.4485L106.004 28.3228L110.507 25.723L111.157 26.8487L112.283 26.1988L120.732 40.8333L119.606 41.4833L120.256 42.609L115.753 45.2088L115.103 44.0831L113.977 44.733L105.528 30.0984L106.654 29.4485ZM108.43 29.9243L115.579 42.3074L117.83 41.0075L110.681 28.6244L108.43 29.9243Z" fill="white"/>
<path d="M119.594 31.9383L122.358 30.343L122.677 30.8956L123.229 30.5766L125.463 34.445L124.91 34.7641L125.229 35.3167L123.571 36.2739L125.486 39.5897L124.38 40.2278L119.594 31.9383ZM121.338 32.4055L122.933 35.1686L124.038 34.5305L122.443 31.7673L121.338 32.4055Z" fill="white"/>
<rect x="33.1082" y="59.5166" width="180" height="30" fill="#FFEB03"/>
<path d="M56.8514 67.8916V72.3916H59.1014V74.6416H56.8514V80.2666H60.2264V82.5166H54.6014V65.6416H60.2264V67.8916H56.8514ZM68.1014 71.2666H69.2264V70.1416H70.3514V65.6416H72.6014V71.2666H71.4764V72.3916H70.3514V74.6416H71.4764V75.7666H72.6014V82.5166H70.3514V76.8916H69.2264V75.7666H68.1014V82.5166H65.8514V75.7666H64.7264V76.8916H63.6014V82.5166H61.3514V75.7666H62.4764V74.6416H63.6014V72.3916H62.4764V71.2666H61.3514V65.6416H63.6014V70.1416H64.7264V71.2666H65.8514V65.6416H68.1014V71.2666ZM75.9764 67.8916V72.3916H78.2264V74.6416H75.9764V80.2666H79.3514V82.5166H73.7264V65.6416H79.3514V67.8916H75.9764ZM86.0926 80.2666V67.8916H83.8426V80.2666H86.0926ZM88.3426 80.2666H89.45V84.749H87.2V82.5166H82.7352V84.749H80.4852V82.5166L80.4676 80.2666H81.5926V66.7666H82.7176V65.6416H87.2264L87.2176 66.793L88.3426 66.8018V80.2666ZM92.9041 72.3916H95.1541V65.6416H97.4041V82.5166H95.1541V74.6416H92.9041V82.5166H90.6541V65.6416H92.9041V72.3916ZM100.779 67.8916V72.3916H103.029V74.6416H100.779V80.2666H104.154V82.5166H98.5291V65.6416H104.154V67.8916H100.779ZM107.529 67.8916V72.3916H109.779V67.8916H107.529ZM110.904 66.7666H112.029V72.3916H110.904V73.5166H112.029V81.3916H110.904V82.5166H105.279V65.6416H110.904V66.7666ZM107.529 74.6416V80.2666H109.779V74.6416H107.529ZM115.404 72.3916H117.654V65.6416H119.904V82.5166H117.654V74.6416H115.404V82.5166H113.154V65.6416H115.404V72.3916ZM121.029 65.6416H123.279V72.3916H126.654V73.5166H127.779V81.3916H126.654V82.5166H121.029V65.6416ZM125.529 80.2666V74.6416H123.279V80.2666H125.529ZM131.154 82.5166H128.904V65.6416H131.154V82.5166ZM134.635 67.8916V72.3916H136.885V74.6416H134.635V80.2666H138.01V82.5166H132.385V65.6416H138.01V67.8916H134.635ZM150.385 65.6416V82.5166H148.135V67.8916H145.885V82.5166H143.635V65.6416H150.385ZM151.51 65.6416H157.135V66.7666H158.26V74.6416H157.135V75.7666H153.76V82.5166H151.51V65.6416ZM153.76 67.8916V73.5166H156.01V67.8916H153.76ZM167.26 82.5166H165.01V72.3916H163.885V75.7666H162.76V79.1416H161.635V82.5166H159.385V65.6416H161.635V74.6416H162.76V71.2666H163.885V67.8916H165.01V65.6416H167.26V82.5166ZM169.51 66.7666V65.6416H174.01V66.7666H175.135V72.3916H174.01V73.5166H175.135V81.3916H174.01V82.5166H169.51V81.3916H168.385V79.1416H170.635V80.2666H172.885V74.6416H170.635V72.3916H172.885V67.8916H170.635V69.0166H168.385V66.7666H169.51ZM176.26 65.6416H178.51V72.3916H181.885V73.5166H183.01V81.3916H181.885V82.5166H176.26V65.6416ZM180.76 80.2666V74.6416H178.51V80.2666H180.76ZM186.385 82.5166H184.135V65.6416H186.385V82.5166Z" fill="#184A9C"/>
<path d="M18.2172 107.32C18.2172 109.52 19.1972 111.38 21.7372 111.38C22.9572 111.34 23.5972 110.98 23.5972 110.66C23.5972 110.54 23.5572 109.84 23.2572 109.84C22.9972 109.84 22.7972 110.14 21.9972 110.14C20.2772 110.14 19.6772 108.4 19.6772 107.2C19.6772 105.72 20.4772 104.18 22.1772 104.18C22.4972 104.18 22.6772 104.26 22.8772 104.26C23.2372 104.26 23.1972 103.74 23.1972 103.5C23.1972 103.14 22.5372 102.76 21.6372 102.76H21.4972C20.3172 102.76 19.4772 103.54 19.1172 104.1L19.0372 104.2C18.4772 105.04 18.2172 106.2 18.2172 107.32ZM29.3091 107.48C29.3691 107.48 29.5891 107.52 29.8491 107.52C30.8891 107.52 30.6091 106.84 30.6691 106.22C30.6691 104.22 29.6491 102.78 27.5491 102.78C25.4091 102.78 24.3891 105.18 24.3891 106.88C24.3891 108.34 24.7491 111.4 28.0291 111.4C30.0491 111.4 30.4091 110.34 30.4091 110.28C30.4091 109.92 30.1091 109.42 29.8291 109.42C29.4291 109.42 29.6291 110.16 28.0291 110.16C26.4891 110.16 25.9291 108.6 25.9291 107.48C26.6891 107.48 27.4091 107.44 28.1491 107.44C28.5291 107.44 28.9091 107.46 29.3091 107.48ZM26.0291 106.24H25.9491C26.0091 105.16 26.5491 104.04 27.7691 104.04C28.9691 104.04 29.3491 105.06 29.3891 106.24H26.0291ZM33.7095 116.18C33.7095 114.42 33.7495 112.82 33.7495 111.68C33.7495 111.26 33.6895 110.68 33.6895 110.26C33.9295 110.64 34.4495 111.12 35.5695 111.12C37.5295 111 38.3495 109.04 38.3495 107.22C38.3495 105.5 38.1695 102.78 35.5895 102.78C34.5495 102.78 33.8695 103.72 33.6495 104.16C33.6495 104.02 33.6895 103.76 33.6895 103.52C33.6895 103.06 33.4695 103.1 33.1095 103.1C32.1695 103.1 32.0695 102.98 32.0695 104C32.0695 108.06 32.2495 112.64 32.2495 115.96C32.2495 116.94 32.7095 116.84 33.2495 116.84C33.4295 116.84 33.7095 116.8 33.7095 116.18ZM35.4495 109.8C34.3895 109.8 34.0095 109.34 33.7895 108.78C33.7895 107.52 33.7895 106.04 33.7695 105.16C33.9095 104.76 34.3895 104.04 35.2895 104.04C36.6295 104.04 36.9895 105.5 36.9895 106.82C36.9895 108.38 36.4895 109.76 35.4495 109.8ZM43.8253 103.1C43.4653 103.1 42.9453 103.12 42.4853 103.12C42.1453 103.12 41.4653 103.1 41.0853 103.1H40.2253C40.1053 103.1 39.9653 103.08 39.8453 103.08C38.9253 103.08 39.1853 103.58 39.1853 103.88C39.1853 104.18 39.2053 104.34 39.3853 104.34C40.0653 104.34 40.5053 104.38 41.5653 104.38C41.5853 105.26 41.5853 105.38 41.5853 105.38V105.36C41.5853 105.36 41.5853 105.5 41.5853 106.52C41.5853 107.3 41.6053 108.6 41.6053 110.8C41.6053 111.12 41.8053 111.1 41.9053 111.1H42.6653C42.7453 111.1 42.9653 111.12 42.9653 110.74C42.9653 109.52 42.9253 108.4 42.9453 107.3L42.9253 104.34L43.6653 104.3C43.7853 104.3 43.6253 104.36 44.6853 104.36C45.3453 104.36 45.4853 104.3 45.4853 103.7C45.4853 103.36 45.5453 103.08 45.1653 103.08C45.0653 103.08 45.0253 103.08 45.0053 103.08C44.9653 103.08 45.0053 103.08 44.8653 103.08C44.7253 103.08 44.4453 103.08 43.8253 103.1ZM48.1631 108.1V107.82C48.1631 107.62 48.1431 107.44 48.1431 107.24V107C48.1431 106.42 48.0831 104.66 48.0831 104.18C48.0831 104.04 48.0831 103.92 48.0831 103.8C48.0831 103.24 48.0031 103.22 47.1631 103.22C46.5431 103.22 46.5031 103.42 46.5231 104.28L46.5631 108.46C46.5831 109.2 46.6031 108.86 46.6031 110.34C46.6031 111.14 47.6631 111 47.5231 111C47.7231 111 48.0431 110.92 48.3631 110.26C48.9631 109.02 50.0631 107.38 50.9031 105.54C50.9631 105.78 50.9831 106.18 50.9831 106.62C50.9831 107.06 50.9631 107.54 50.9631 107.94C50.9631 108.46 51.0031 109.26 51.0031 110.06C51.0031 110.24 51.0031 110.4 51.0031 110.54C51.0031 110.82 51.0231 111 51.2431 111C52.1831 110.9 52.4431 111.1 52.4431 110.34C52.4431 110.22 52.4431 110.08 52.4431 109.94C52.4431 109.86 52.4431 109.82 52.4431 109.76C52.4431 109.4 52.3831 107.88 52.3831 107.28V106.54C52.3831 106.44 52.4031 106.3 52.4031 106.2C52.4031 106.1 52.3831 106.02 52.3831 105.92C52.3831 105.54 52.4031 104.98 52.4031 104.48C52.4031 103.48 52.5431 103.3 51.8031 103.26L51.4231 103.24C51.3831 103.24 51.3431 103.24 51.3031 103.24C51.1031 103.24 50.8031 103.32 50.5631 103.76L48.1631 108.1ZM58.1822 103.72C57.9022 103.26 57.3822 102.82 56.4222 102.82C54.5622 102.96 53.9022 104.58 53.8422 106.36V106.78C53.8422 109.46 54.7822 111.2 56.4422 111.2H56.6022C57.5422 111.16 57.8022 110.78 58.1022 110.44C58.1022 111.22 58.1222 112.02 58.1222 112.82V114.98C58.1222 115.22 58.1022 115.32 58.1022 115.42C58.1022 115.48 58.1222 115.52 58.1222 115.6C58.1222 115.74 58.1022 115.9 58.1022 116.04C58.1022 116.82 58.4222 116.66 59.3022 116.74C59.6622 116.7 59.7022 116.5 59.7022 116.16C59.7022 116.18 59.6422 111.64 59.6422 110.34C59.8622 110.66 60.2422 110.92 60.9422 110.92C61.0222 110.96 61.1022 111.02 61.2622 111.02C63.6022 111.02 63.9622 108.76 63.9622 106.84C63.9622 103.9 62.8422 102.76 61.2622 102.76C60.2822 102.76 59.9422 103.12 59.6222 103.62L59.6622 97.82C59.6622 97.72 59.6422 97.58 59.6422 97.44C59.6422 97.36 59.6622 97.3 59.6622 97.24C59.6622 96.66 59.1422 96.78 58.9222 96.78C58.5622 96.78 58.1622 96.86 58.1422 97.38L58.1822 103.72ZM60.9422 103.96C62.0622 103.96 62.6022 105.24 62.6022 106.82C62.6022 108.32 62.0822 109.72 60.9622 109.76C60.3222 109.74 59.9022 109.36 59.7022 109.02C59.7022 108 59.7222 106.74 59.7222 105.56C59.8622 104.9 60.0222 103.96 60.9422 103.96ZM58.0622 109.22C57.8822 109.52 57.4422 109.94 56.8222 109.94C55.6822 109.94 55.2022 108.5 55.2022 106.96C55.2022 105.52 55.6822 104.1 56.9022 104.1C57.8422 104.1 57.9622 104.96 58.1222 105.52C58.0822 106.78 58.0822 108.36 58.0622 109.22ZM67.0303 108.1V107.82C67.0303 107.62 67.0103 107.44 67.0103 107.24V107C67.0103 106.42 66.9503 104.66 66.9503 104.18C66.9503 104.04 66.9503 103.92 66.9503 103.8C66.9503 103.24 66.8703 103.22 66.0303 103.22C65.4103 103.22 65.3703 103.42 65.3903 104.28L65.4303 108.46C65.4503 109.2 65.4703 108.86 65.4703 110.34C65.4703 111.14 66.5303 111 66.3903 111C66.5903 111 66.9103 110.92 67.2303 110.26C67.8303 109.02 68.9303 107.38 69.7703 105.54C69.8303 105.78 69.8503 106.18 69.8503 106.62C69.8503 107.06 69.8303 107.54 69.8303 107.94C69.8303 108.46 69.8703 109.26 69.8703 110.06C69.8703 110.24 69.8703 110.4 69.8703 110.54C69.8703 110.82 69.8903 111 70.1103 111C71.0503 110.9 71.3103 111.1 71.3103 110.34C71.3103 110.22 71.3103 110.08 71.3103 109.94C71.3103 109.86 71.3103 109.82 71.3103 109.76C71.3103 109.4 71.2503 107.88 71.2503 107.28V106.54C71.2503 106.44 71.2703 106.3 71.2703 106.2C71.2703 106.1 71.2503 106.02 71.2503 105.92C71.2503 105.54 71.2703 104.98 71.2703 104.48C71.2703 103.48 71.4103 103.3 70.6703 103.26L70.2903 103.24C70.2503 103.24 70.2103 103.24 70.1703 103.24C69.9703 103.24 69.6703 103.32 69.4303 103.76L67.0303 108.1ZM74.4094 107.38C74.4094 107.38 74.4894 107.36 74.6094 107.36C75.1894 107.36 76.7294 107.56 76.7294 109.48C76.9494 110.76 77.7694 111.24 78.7094 111.24C79.2894 111.24 79.3294 110.62 79.3294 110.48C79.3294 110.32 78.0294 110.2 77.9894 108.66C77.9494 107 76.8694 106.8 75.8694 106.68C75.9294 106.68 77.3694 106.68 77.5894 105.18C77.6494 104.74 77.7094 103.88 78.4494 103.88C78.7294 103.88 78.8294 103.74 78.8294 103.56C78.8294 102.98 78.5694 102.8 78.3094 102.8C77.6694 102.8 76.3894 102.98 76.2894 104.44C76.1694 106.2 74.8494 106.1 74.7094 106.1C74.5694 106.1 74.4294 106.08 74.3494 106.08C74.3294 105.06 74.3294 104.46 74.3294 104.14C74.3294 103.86 74.3294 103.78 74.3494 103.78C74.3494 103.78 74.3494 104.04 74.3694 104.04C74.3694 104.04 74.3694 103.98 74.3694 103.82V103.26C74.3294 102.76 74.1894 102.8 73.3294 102.8C73.0694 102.8 72.9094 102.92 72.9094 103.2C72.9094 104.82 72.9494 106 72.9494 106.96C72.9494 108.4 72.9294 109.26 72.9294 110.14C72.9294 111.12 73.4294 111.02 73.9894 111.02C74.1494 111.02 74.4294 110.98 74.4294 110.48C74.4294 109.88 74.4094 108.02 74.4094 107.38ZM83.8759 106.16H83.0359C80.9559 106.24 79.7359 107.38 79.7359 109.06C79.7359 110.52 81.0759 111.38 82.3559 111.38C83.9359 111.38 84.5559 110.28 84.5559 110.24C84.5559 110.24 84.9759 111.24 86.0159 111.24C86.6159 111.24 86.6359 110.86 86.6359 110.58C86.6359 110.32 86.4959 110.24 86.3159 110.22C85.5559 110.12 85.3759 109.18 85.3759 108.12C85.3759 107.34 85.4759 106.48 85.4759 105.88C85.4759 104.14 84.9559 102.9 82.8359 102.9C82.0159 102.9 80.7159 103.2 79.9759 104.22C79.9359 104.26 79.9159 104.32 79.9159 104.38C79.9159 104.74 80.4559 105.24 80.6559 105.24C80.6959 105.24 80.7359 105.22 80.7759 105.18C81.1359 104.8 82.0359 104.28 82.7559 104.28C83.5559 104.28 83.8759 104.66 83.8759 105.44V106.16ZM84.0159 107.4C84.0159 107.92 84.0759 108.6 84.1159 109.14C84.1159 109.28 83.5759 109.9 82.3159 109.9C81.7159 109.9 81.1559 109.68 81.1559 108.9C81.1559 107.52 82.3159 107.4 83.0759 107.4H84.0159ZM91.7159 103.1C91.3559 103.1 90.8359 103.12 90.3759 103.12C90.0359 103.12 89.3559 103.1 88.9759 103.1H88.1159C87.9959 103.1 87.8559 103.08 87.7359 103.08C86.8159 103.08 87.0759 103.58 87.0759 103.88C87.0759 104.18 87.0959 104.34 87.2759 104.34C87.9559 104.34 88.3959 104.38 89.4559 104.38C89.4759 105.26 89.4759 105.38 89.4759 105.38V105.36C89.4759 105.36 89.4759 105.5 89.4759 106.52C89.4759 107.3 89.4959 108.6 89.4959 110.8C89.4959 111.12 89.6959 111.1 89.7959 111.1H90.5559C90.6359 111.1 90.8559 111.12 90.8559 110.74C90.8559 109.52 90.8159 108.4 90.8359 107.3L90.8159 104.34L91.5559 104.3C91.6759 104.3 91.5159 104.36 92.5759 104.36C93.2359 104.36 93.3759 104.3 93.3759 103.7C93.3759 103.36 93.4359 103.08 93.0559 103.08C92.9559 103.08 92.9159 103.08 92.8959 103.08C92.8559 103.08 92.8959 103.08 92.7559 103.08C92.6159 103.08 92.3359 103.08 91.7159 103.1ZM100.914 110.4C100.934 110.92 101.254 111 101.554 111C101.754 111 102.274 111.12 102.274 110.54C102.274 110.48 102.254 110.42 102.254 110.34C102.254 110.22 102.274 110.06 102.274 109.96L102.254 103.68C102.254 103.3 102.094 103.22 101.834 103.22C100.874 103.22 100.814 103.26 100.814 103.74C100.834 103.88 100.834 104.14 100.834 104.18C100.814 104.42 100.814 104.64 100.814 104.86C100.814 105.68 100.834 106.48 100.834 107.3L100.914 110.4ZM96.0338 106.9L96.8938 106.88C98.4538 106.84 98.6938 107.82 98.6938 108.5C98.6938 109.78 97.5338 110 96.6738 110C96.3938 110 96.1538 109.98 95.9738 109.96L96.0338 106.9ZM96.5738 111.2C98.0738 111.08 99.9938 110.94 99.9938 108.4C99.9938 106.34 98.7337 105.74 97.0538 105.66H96.0338L96.0738 104.34C96.0738 104.1 96.0738 103.9 96.0738 103.72C96.0738 103.38 96.0338 103.18 95.6738 103.14C94.7938 103.22 94.4738 103.06 94.4738 103.86C94.4738 104 94.4938 104.14 94.4938 104.28C94.4938 104.36 94.4738 104.42 94.4738 104.46C94.4738 104.56 94.4938 104.62 94.4938 104.76L94.4138 110.38C94.3938 111.36 95.2938 111.14 96.5738 111.2ZM108.71 116.18C108.71 114.42 108.75 112.82 108.75 111.68C108.75 111.26 108.69 110.68 108.69 110.26C108.93 110.64 109.45 111.12 110.57 111.12C112.53 111 113.35 109.04 113.35 107.22C113.35 105.5 113.17 102.78 110.59 102.78C109.55 102.78 108.87 103.72 108.65 104.16C108.65 104.02 108.69 103.76 108.69 103.52C108.69 103.06 108.47 103.1 108.11 103.1C107.17 103.1 107.07 102.98 107.07 104C107.07 108.06 107.25 112.64 107.25 115.96C107.25 116.94 107.71 116.84 108.25 116.84C108.43 116.84 108.71 116.8 108.71 116.18ZM110.45 109.8C109.39 109.8 109.01 109.34 108.79 108.78C108.79 107.52 108.79 106.04 108.77 105.16C108.91 104.76 109.39 104.04 110.29 104.04C111.63 104.04 111.99 105.5 111.99 106.82C111.99 108.38 111.49 109.76 110.45 109.8ZM118.485 106.16H117.645C115.565 106.24 114.345 107.38 114.345 109.06C114.345 110.52 115.685 111.38 116.965 111.38C118.545 111.38 119.165 110.28 119.165 110.24C119.165 110.24 119.585 111.24 120.625 111.24C121.225 111.24 121.245 110.86 121.245 110.58C121.245 110.32 121.105 110.24 120.925 110.22C120.165 110.12 119.985 109.18 119.985 108.12C119.985 107.34 120.085 106.48 120.085 105.88C120.085 104.14 119.565 102.9 117.445 102.9C116.625 102.9 115.325 103.2 114.585 104.22C114.545 104.26 114.525 104.32 114.525 104.38C114.525 104.74 115.065 105.24 115.265 105.24C115.305 105.24 115.345 105.22 115.385 105.18C115.745 104.8 116.645 104.28 117.365 104.28C118.165 104.28 118.485 104.66 118.485 105.44V106.16ZM118.625 107.4C118.625 107.92 118.685 108.6 118.725 109.14C118.725 109.28 118.185 109.9 116.925 109.9C116.325 109.9 115.765 109.68 115.765 108.9C115.765 107.52 116.925 107.4 117.685 107.4H118.625ZM124.125 110.16C123.205 110.14 122.245 109.36 122.245 109.3C121.965 109.3 121.445 109.68 121.445 110.08C121.445 110.2 121.825 111.16 124.165 111.24C125.725 111.24 127.205 110.46 127.205 108.64C127.205 106.96 125.545 106.62 125.465 106.62C125.485 106.6 126.685 106.2 126.685 104.56C126.625 103.2 125.385 102.7 124.185 102.66C122.485 102.66 121.625 103.42 121.625 103.74C121.625 104.18 121.965 104.4 122.125 104.4C122.325 104.4 123.045 103.92 123.845 103.92H123.785C124.305 103.92 125.285 104 125.285 104.88C125.285 105.82 124.485 105.94 123.825 105.94C123.565 105.94 123.325 105.92 123.145 105.92C122.765 105.98 122.785 106.68 122.785 106.88C122.805 107.34 123.325 107.24 123.605 107.24C123.945 107.24 125.625 107.48 125.645 108.7C125.605 110.2 124.225 110.16 124.125 110.16ZM134.098 109.98C134.098 109.42 134.038 107.86 134.038 107.34V106.58C134.038 106.5 134.058 106.4 134.058 106.3V105.98C134.058 105.5 134.038 104.66 134.038 104.16C134.038 104.04 134.038 103.7 134.058 103.46C134.058 103.1 133.798 103.12 133.698 103.12H133.018C132.918 103.12 132.478 103.12 132.478 103.7C132.478 103.96 132.498 104.44 132.498 104.92C132.498 105.06 132.498 105.18 132.498 105.3L132.518 106.58H131.438C130.898 106.58 130.318 106.56 129.938 106.56C129.938 106.44 129.918 106.32 129.918 106.2C129.918 104.76 129.958 103.2 129.438 103.2C128.618 103.2 128.398 103.24 128.398 103.78C128.398 103.98 128.418 104.18 128.418 104.36C128.418 104.42 128.398 104.48 128.398 104.54C128.398 104.64 128.418 104.74 128.418 104.88L128.458 105.78L128.418 109.38C128.418 109.52 128.398 109.6 128.398 109.68C128.398 109.74 128.418 109.78 128.418 109.86C128.418 110 128.398 110.16 128.398 110.3C128.398 111.08 128.718 110.92 129.598 111C129.958 110.96 129.998 110.76 129.998 110.42C129.998 110.06 130.018 109.24 129.978 107.82H132.498C132.518 107.82 132.518 107.82 132.518 107.84C132.518 108.02 132.498 108.18 132.498 108.34C132.498 108.42 132.518 108.5 132.518 108.58L132.578 110.42C132.598 110.94 132.998 111.02 133.358 111.02C133.578 111.02 134.098 111.14 134.098 110.56C134.098 110.5 134.078 110.44 134.078 110.36C134.078 110.24 134.098 110.08 134.098 109.98ZM142.222 110.4C142.242 110.92 142.562 111 142.862 111C143.062 111 143.582 111.12 143.582 110.54C143.582 110.48 143.562 110.42 143.562 110.34C143.562 110.22 143.582 110.06 143.582 109.96L143.562 103.68C143.562 103.3 143.402 103.22 143.142 103.22C142.182 103.22 142.122 103.26 142.122 103.74C142.142 103.88 142.142 104.14 142.142 104.18C142.122 104.42 142.122 104.64 142.122 104.86C142.122 105.68 142.142 106.48 142.142 107.3L142.222 110.4ZM137.342 106.9L138.202 106.88C139.762 106.84 140.002 107.82 140.002 108.5C140.002 109.78 138.842 110 137.982 110C137.702 110 137.462 109.98 137.282 109.96L137.342 106.9ZM137.882 111.2C139.382 111.08 141.302 110.94 141.302 108.4C141.302 106.34 140.042 105.74 138.362 105.66H137.342L137.382 104.34C137.382 104.1 137.382 103.9 137.382 103.72C137.382 103.38 137.342 103.18 136.982 103.14C136.102 103.22 135.782 103.06 135.782 103.86C135.782 104 135.802 104.14 135.802 104.28C135.802 104.36 135.782 104.42 135.782 104.46C135.782 104.56 135.802 104.62 135.802 104.76L135.722 110.38C135.702 111.36 136.602 111.14 137.882 111.2ZM148.835 110.64C149.095 111.26 149.195 111.2 149.515 111.2C150.335 111.2 150.535 110.98 150.535 110.74C150.535 110.54 150.355 110.3 150.315 110.2C149.555 108.62 148.675 106.94 148.655 106.88L149.795 104.66C149.955 104.36 150.535 103.54 150.535 103.28C150.535 103.18 150.235 102.74 149.515 102.74C149.335 102.74 149.175 102.8 149.055 102.98C148.575 103.8 147.955 105.22 147.595 105.78C147.595 105.74 146.895 104.46 146.535 103.52C146.275 102.9 146.155 102.96 145.855 102.96C145.435 102.96 144.775 102.9 144.775 103.24C144.775 103.5 144.955 103.86 144.975 103.92C145.435 104.68 146.015 105.84 146.615 106.88C146.055 108 145.595 109.06 145.015 110.18C145.015 110.22 144.815 110.56 144.815 110.82C144.815 111.2 145.455 111.18 145.955 111.18C146.175 111.18 146.255 111.14 146.495 110.62L147.695 108.06L148.835 110.64ZM160.641 109.98C160.641 109.42 160.581 107.86 160.581 107.34V106.58C160.581 106.5 160.601 106.4 160.601 106.3V105.98C160.601 105.5 160.581 104.66 160.581 104.16C160.581 104.04 160.581 103.7 160.601 103.46C160.601 103.1 160.341 103.12 160.241 103.12H159.561C159.461 103.12 159.021 103.12 159.021 103.7C159.021 103.96 159.041 104.44 159.041 104.92C159.041 105.06 159.041 105.18 159.041 105.3L159.061 106.58H157.981C157.441 106.58 156.861 106.56 156.481 106.56C156.481 106.44 156.461 106.32 156.461 106.2C156.461 104.76 156.501 103.2 155.981 103.2C155.161 103.2 154.941 103.24 154.941 103.78C154.941 103.98 154.961 104.18 154.961 104.36C154.961 104.42 154.941 104.48 154.941 104.54C154.941 104.64 154.961 104.74 154.961 104.88L155.001 105.78L154.961 109.38C154.961 109.52 154.941 109.6 154.941 109.68C154.941 109.74 154.961 109.78 154.961 109.86C154.961 110 154.941 110.16 154.941 110.3C154.941 111.08 155.261 110.92 156.141 111C156.501 110.96 156.541 110.76 156.541 110.42C156.541 110.06 156.561 109.24 156.521 107.82H159.041C159.061 107.82 159.061 107.82 159.061 107.84C159.061 108.02 159.041 108.18 159.041 108.34C159.041 108.42 159.061 108.5 159.061 108.58L159.121 110.42C159.141 110.94 159.541 111.02 159.901 111.02C160.121 111.02 160.641 111.14 160.641 110.56C160.641 110.5 160.621 110.44 160.621 110.36C160.621 110.24 160.641 110.08 160.641 109.98ZM165.285 111.36C168.225 111.32 168.365 107.92 168.365 106.9C168.225 105.16 167.625 102.8 165.225 102.8C163.105 102.8 162.045 104.78 162.045 107.08C162.045 108.74 162.645 111.36 165.285 111.36ZM165.285 109.92C163.765 109.92 163.465 107.58 163.465 107.08C163.465 105.92 163.865 104.24 165.325 104.24C166.705 104.24 166.925 106.48 166.925 106.94C166.925 107.98 166.765 109.92 165.285 109.92ZM175.605 103.9C175.105 104.86 174.045 106.56 173.545 107.54L171.445 103.66C171.205 103.14 170.765 103.26 170.505 103.26C169.965 103.26 169.765 103.48 169.765 104.04C169.765 104.28 169.785 104.52 169.805 104.68C169.805 104.7 169.805 104.76 169.805 104.86C169.805 106.98 169.905 109.06 169.885 108.9V109.26C169.885 109.36 169.905 109.5 169.905 109.62V110.22C169.905 110.92 170.065 111.02 170.525 111.02C171.425 111.02 171.425 110.74 171.425 109.98C171.425 108.82 171.405 107.8 171.385 106.5V106.26C171.385 106.26 171.385 106.26 171.405 106.26L172.945 109.12C173.005 109.3 173.225 109.56 173.545 109.56C174.025 109.56 175.085 107.32 175.745 106.14L175.725 108.68C175.725 109.12 175.725 109.88 175.705 109.9C175.705 109.94 175.725 110 175.725 110.06C175.725 110.18 175.705 110.32 175.705 110.46C175.705 111.12 175.825 110.92 176.845 111.04C177.305 111.04 177.285 110.6 177.285 110C177.285 109.38 177.245 107.92 177.245 107.32V107C177.265 106.84 177.245 106.7 177.265 106.58V106.26C177.265 106.12 177.285 106 177.285 105.88L177.225 104.64C177.225 104.46 177.245 104.2 177.245 103.96C177.245 103.58 177.185 103.22 176.885 103.22H176.265C175.965 103.22 175.765 103.54 175.605 103.9ZM180.565 108.1V107.82C180.565 107.62 180.545 107.44 180.545 107.24V107C180.545 106.42 180.485 104.66 180.485 104.18C180.485 104.04 180.485 103.92 180.485 103.8C180.485 103.24 180.405 103.22 179.565 103.22C178.945 103.22 178.905 103.42 178.925 104.28L178.965 108.46C178.985 109.2 179.005 108.86 179.005 110.34C179.005 111.14 180.065 111 179.925 111C180.125 111 180.445 110.92 180.765 110.26C181.365 109.02 182.465 107.38 183.305 105.54C183.365 105.78 183.385 106.18 183.385 106.62C183.385 107.06 183.365 107.54 183.365 107.94C183.365 108.46 183.405 109.26 183.405 110.06C183.405 110.24 183.405 110.4 183.405 110.54C183.405 110.82 183.425 111 183.645 111C184.585 110.9 184.845 111.1 184.845 110.34C184.845 110.22 184.845 110.08 184.845 109.94C184.845 109.86 184.845 109.82 184.845 109.76C184.845 109.4 184.785 107.88 184.785 107.28V106.54C184.785 106.44 184.805 106.3 184.805 106.2C184.805 106.1 184.785 106.02 184.785 105.92C184.785 105.54 184.805 104.98 184.805 104.48C184.805 103.48 184.945 103.3 184.205 103.26L183.825 103.24C183.785 103.24 183.745 103.24 183.705 103.24C183.505 103.24 183.205 103.32 182.965 103.76L180.565 108.1ZM192.145 109.98C192.145 109.42 192.085 107.86 192.085 107.34V106.58C192.085 106.5 192.105 106.4 192.105 106.3V105.98C192.105 105.5 192.085 104.66 192.085 104.16C192.085 104.04 192.085 103.7 192.105 103.46C192.105 103.1 191.845 103.12 191.745 103.12H191.065C190.965 103.12 190.525 103.12 190.525 103.7C190.525 103.96 190.545 104.44 190.545 104.92C190.545 105.06 190.545 105.18 190.545 105.3L190.565 106.58H189.485C188.945 106.58 188.365 106.56 187.985 106.56C187.985 106.44 187.965 106.32 187.965 106.2C187.965 104.76 188.005 103.2 187.485 103.2C186.665 103.2 186.445 103.24 186.445 103.78C186.445 103.98 186.465 104.18 186.465 104.36C186.465 104.42 186.445 104.48 186.445 104.54C186.445 104.64 186.465 104.74 186.465 104.88L186.505 105.78L186.465 109.38C186.465 109.52 186.445 109.6 186.445 109.68C186.445 109.74 186.465 109.78 186.465 109.86C186.465 110 186.445 110.16 186.445 110.3C186.445 111.08 186.765 110.92 187.645 111C188.005 110.96 188.045 110.76 188.045 110.42C188.045 110.06 188.065 109.24 188.025 107.82H190.545C190.565 107.82 190.565 107.82 190.565 107.84C190.565 108.02 190.545 108.18 190.545 108.34C190.545 108.42 190.565 108.5 190.565 108.58L190.625 110.42C190.645 110.94 191.045 111.02 191.405 111.02C191.625 111.02 192.145 111.14 192.145 110.56C192.145 110.5 192.125 110.44 192.125 110.36C192.125 110.24 192.145 110.08 192.145 109.98ZM197.489 106.16H196.649C194.569 106.24 193.349 107.38 193.349 109.06C193.349 110.52 194.689 111.38 195.969 111.38C197.549 111.38 198.169 110.28 198.169 110.24C198.169 110.24 198.589 111.24 199.629 111.24C200.229 111.24 200.249 110.86 200.249 110.58C200.249 110.32 200.109 110.24 199.929 110.22C199.169 110.12 198.989 109.18 198.989 108.12C198.989 107.34 199.089 106.48 199.089 105.88C199.089 104.14 198.569 102.9 196.449 102.9C195.629 102.9 194.329 103.2 193.589 104.22C193.549 104.26 193.529 104.32 193.529 104.38C193.529 104.74 194.069 105.24 194.269 105.24C194.309 105.24 194.349 105.22 194.389 105.18C194.749 104.8 195.649 104.28 196.369 104.28C197.169 104.28 197.489 104.66 197.489 105.44V106.16ZM197.629 107.4C197.629 107.92 197.689 108.6 197.729 109.14C197.729 109.28 197.189 109.9 195.929 109.9C195.329 109.9 194.769 109.68 194.769 108.9C194.769 107.52 195.929 107.4 196.689 107.4H197.629ZM205.829 106.56C205.829 106.88 205.809 107.32 205.809 107.82C205.809 108.36 205.809 108.94 205.809 109.44C205.809 109.74 205.809 110.02 205.809 110.24C205.809 111.2 206.189 111.1 206.749 111.1C206.929 111.1 207.209 111.06 207.209 110.44L207.129 108.58C207.129 108.28 207.149 108.02 207.149 107.72V107C207.149 106.14 207.229 104.98 207.229 104.12C207.229 103.76 207.149 103.34 206.769 103.24H206.649C206.089 103.22 205.309 103.22 204.809 103.22H203.849C203.589 103.22 203.309 103.26 203.069 103.26H202.789C202.549 103.26 202.329 103.28 202.329 103.74V103.84C202.129 105.12 202.129 105.56 201.689 108.14C201.209 110.96 200.049 110.06 200.049 110.56C200.049 110.94 200.189 111.44 200.609 111.44C202.049 111.44 203.029 110.44 203.249 107.08C203.409 106.06 203.569 104.76 203.669 104.42H205.829V106.56ZM211.867 111.36C214.807 111.32 214.947 107.92 214.947 106.9C214.807 105.16 214.207 102.8 211.807 102.8C209.687 102.8 208.627 104.78 208.627 107.08C208.627 108.74 209.227 111.36 211.867 111.36ZM211.867 109.92C210.347 109.92 210.047 107.58 210.047 107.08C210.047 105.92 210.447 104.24 211.907 104.24C213.287 104.24 213.507 106.48 213.507 106.94C213.507 107.98 213.347 109.92 211.867 109.92ZM217.847 107.34L218.507 107.3C218.907 107.28 220.347 107.44 220.347 108.62C220.347 109.8 219.407 109.9 219.107 109.9L217.807 109.94C217.807 109.62 217.827 108.84 217.847 107.34ZM217.887 106.26C217.887 105.44 217.867 104.44 217.867 103.74L218.987 103.78C219.027 103.78 220.027 103.72 220.027 104.92C219.987 105.78 219.187 106.28 218.507 106.28L217.887 106.26ZM219.127 111.18C220.467 111.16 221.787 110.48 221.787 108.58C221.787 107.46 220.727 106.52 219.947 106.5C219.947 106.5 221.487 106.44 221.487 104.72C221.487 103.22 220.287 102.66 218.987 102.66H217.427C217.367 102.64 217.307 102.64 217.287 102.64C216.907 102.64 216.527 102.58 216.447 103.2C216.447 103.92 216.447 104.28 216.447 104.7C216.447 105.14 216.447 105.62 216.427 106.54L216.347 110.46C216.347 110.6 216.347 110.7 216.387 110.82V110.8C216.487 111.08 216.727 111.26 217.007 111.26C217.067 111.26 217.147 111.24 217.227 111.22L219.127 111.18ZM33.7295 128.1V127.82C33.7295 127.62 33.7095 127.44 33.7095 127.24V127C33.7095 126.42 33.6495 124.66 33.6495 124.18C33.6495 124.04 33.6495 123.92 33.6495 123.8C33.6495 123.24 33.5695 123.22 32.7295 123.22C32.1095 123.22 32.0695 123.42 32.0895 124.28L32.1295 128.46C32.1495 129.2 32.1695 128.86 32.1695 130.34C32.1695 131.14 33.2295 131 33.0895 131C33.2895 131 33.6095 130.92 33.9295 130.26C34.5295 129.02 35.6295 127.38 36.4695 125.54C36.5295 125.78 36.5495 126.18 36.5495 126.62C36.5495 127.06 36.5295 127.54 36.5295 127.94C36.5295 128.46 36.5695 129.26 36.5695 130.06C36.5695 130.24 36.5695 130.4 36.5695 130.54C36.5695 130.82 36.5895 131 36.8095 131C37.7495 130.9 38.0095 131.1 38.0095 130.34C38.0095 130.22 38.0095 130.08 38.0095 129.94C38.0095 129.86 38.0095 129.82 38.0095 129.76C38.0095 129.4 37.9495 127.88 37.9495 127.28V126.54C37.9495 126.44 37.9695 126.3 37.9695 126.2C37.9695 126.1 37.9495 126.02 37.9495 125.92C37.9495 125.54 37.9695 124.98 37.9695 124.48C37.9695 123.48 38.1095 123.3 37.3695 123.26L36.9895 123.24C36.9495 123.24 36.9095 123.24 36.8695 123.24C36.6695 123.24 36.3695 123.32 36.1295 123.76L33.7295 128.1ZM46.8917 123.1C46.5317 123.1 46.0117 123.12 45.5517 123.12C45.2117 123.12 44.5317 123.1 44.1517 123.1H43.2917C43.1717 123.1 43.0317 123.08 42.9117 123.08C41.9917 123.08 42.2517 123.58 42.2517 123.88C42.2517 124.18 42.2717 124.34 42.4517 124.34C43.1317 124.34 43.5717 124.38 44.6317 124.38C44.6517 125.26 44.6517 125.38 44.6517 125.38V125.36C44.6517 125.36 44.6517 125.5 44.6517 126.52C44.6517 127.3 44.6717 128.6 44.6717 130.8C44.6717 131.12 44.8717 131.1 44.9717 131.1H45.7317C45.8117 131.1 46.0317 131.12 46.0317 130.74C46.0317 129.52 45.9917 128.4 46.0117 127.3L45.9917 124.34L46.7317 124.3C46.8517 124.3 46.6917 124.36 47.7517 124.36C48.4117 124.36 48.5517 124.3 48.5517 123.7C48.5517 123.36 48.6117 123.08 48.2317 123.08C48.1317 123.08 48.0917 123.08 48.0717 123.08C48.0317 123.08 48.0717 123.08 47.9317 123.08C47.7917 123.08 47.5117 123.08 46.8917 123.1ZM52.6095 131.36C55.5495 131.32 55.6895 127.92 55.6895 126.9C55.5495 125.16 54.9495 122.8 52.5495 122.8C50.4295 122.8 49.3695 124.78 49.3695 127.08C49.3695 128.74 49.9695 131.36 52.6095 131.36ZM52.6095 129.92C51.0895 129.92 50.7895 127.58 50.7895 127.08C50.7895 125.92 51.1895 124.24 52.6495 124.24C54.0295 124.24 54.2495 126.48 54.2495 126.94C54.2495 127.98 54.0895 129.92 52.6095 129.92ZM61.2291 130.42C61.2491 130.94 61.6491 131.02 62.0091 131.02C62.2291 131.02 62.7491 131.14 62.7491 130.56C62.7491 130.5 62.7291 130.44 62.7291 130.36C62.7291 130.24 62.7491 130.08 62.7491 129.98C62.6891 129.34 62.6691 128.76 62.6691 128.22C62.6691 126.82 62.7891 125.62 62.7891 123.9C62.7891 123.44 62.7091 123.18 61.6891 123.18H60.7091C60.3891 123.18 59.9891 123.2 58.9491 123.2H57.7291C57.4491 123.2 57.0891 123.16 57.0891 123.68V124.66C57.0891 125 57.1091 125.36 57.1091 125.7V129.38C57.1091 129.52 57.0891 129.6 57.0891 129.68C57.0891 129.74 57.1091 129.78 57.1091 129.86C57.1091 130 57.0891 130.16 57.0891 130.3C57.0891 131.08 57.4091 130.92 58.2891 131C58.6491 130.96 58.6891 130.76 58.6891 130.42C58.6891 130.26 58.6891 130.04 58.6891 129.8C58.6891 129.56 58.6891 128.86 58.6891 127.9C58.6891 126.96 58.6891 125.74 58.6491 124.42H61.2491C61.2691 124.64 61.2691 125.02 61.2691 125.52C61.2691 126.92 61.2291 129.1 61.2291 130.08C61.2291 130.22 61.2291 130.34 61.2291 130.42ZM67.4338 131.36C70.3738 131.32 70.5138 127.92 70.5138 126.9C70.3738 125.16 69.7738 122.8 67.3738 122.8C65.2538 122.8 64.1938 124.78 64.1938 127.08C64.1938 128.74 64.7938 131.36 67.4338 131.36ZM67.4338 129.92C65.9138 129.92 65.6138 127.58 65.6138 127.08C65.6138 125.92 66.0138 124.24 67.4738 124.24C68.8538 124.24 69.0738 126.48 69.0738 126.94C69.0738 127.98 68.9138 129.92 67.4338 129.92ZM73.4133 127.34L74.0733 127.3C74.4733 127.28 75.9133 127.44 75.9133 128.62C75.9133 129.8 74.9733 129.9 74.6733 129.9L73.3733 129.94C73.3733 129.62 73.3933 128.84 73.4133 127.34ZM73.4533 126.26C73.4533 125.44 73.4333 124.44 73.4333 123.74L74.5533 123.78C74.5933 123.78 75.5933 123.72 75.5933 124.92C75.5533 125.78 74.7533 126.28 74.0733 126.28L73.4533 126.26ZM74.6933 131.18C76.0333 131.16 77.3533 130.48 77.3533 128.58C77.3533 127.46 76.2933 126.52 75.5133 126.5C75.5133 126.5 77.0533 126.44 77.0533 124.72C77.0533 123.22 75.8533 122.66 74.5533 122.66H72.9933C72.9333 122.64 72.8733 122.64 72.8533 122.64C72.4733 122.64 72.0933 122.58 72.0133 123.2C72.0133 123.92 72.0133 124.28 72.0133 124.7C72.0133 125.14 72.0133 125.62 71.9933 126.54L71.9133 130.46C71.9133 130.6 71.9133 130.7 71.9533 130.82V130.8C72.0533 131.08 72.2933 131.26 72.5733 131.26C72.6333 131.26 72.7133 131.24 72.7933 131.22L74.6933 131.18ZM85.2692 130.4C85.2892 130.92 85.6092 131 85.9092 131C86.1092 131 86.6292 131.12 86.6292 130.54C86.6292 130.48 86.6092 130.42 86.6092 130.34C86.6092 130.22 86.6292 130.06 86.6292 129.96L86.6092 123.68C86.6092 123.3 86.4492 123.22 86.1892 123.22C85.2292 123.22 85.1692 123.26 85.1692 123.74C85.1892 123.88 85.1892 124.14 85.1892 124.18C85.1692 124.42 85.1692 124.64 85.1692 124.86C85.1692 125.68 85.1892 126.48 85.1892 127.3L85.2692 130.4ZM80.3892 126.9L81.2492 126.88C82.8092 126.84 83.0492 127.82 83.0492 128.5C83.0492 129.78 81.8892 130 81.0292 130C80.7492 130 80.5092 129.98 80.3292 129.96L80.3892 126.9ZM80.9292 131.2C82.4292 131.08 84.3492 130.94 84.3492 128.4C84.3492 126.34 83.0892 125.74 81.4092 125.66H80.3892L80.4292 124.34C80.4292 124.1 80.4292 123.9 80.4292 123.72C80.4292 123.38 80.3892 123.18 80.0292 123.14C79.1492 123.22 78.8292 123.06 78.8292 123.86C78.8292 124 78.8492 124.14 78.8492 124.28C78.8492 124.36 78.8292 124.42 78.8292 124.46C78.8292 124.56 78.8492 124.62 78.8492 124.76L78.7692 130.38C78.7492 131.36 79.6492 131.14 80.9292 131.2ZM92.9419 127.48C93.0019 127.48 93.2219 127.52 93.4819 127.52C94.5219 127.52 94.2419 126.84 94.3019 126.22C94.3019 124.22 93.2819 122.78 91.1819 122.78C89.0419 122.78 88.0219 125.18 88.0219 126.88C88.0219 128.34 88.3819 131.4 91.6619 131.4C93.6819 131.4 94.0419 130.34 94.0419 130.28C94.0419 129.92 93.7419 129.42 93.4619 129.42C93.0619 129.42 93.2619 130.16 91.6619 130.16C90.1219 130.16 89.5619 128.6 89.5619 127.48C90.3219 127.48 91.0419 127.44 91.7819 127.44C92.1619 127.44 92.5419 127.46 92.9419 127.48ZM89.6619 126.24H89.5819C89.6419 125.16 90.1819 124.04 91.4019 124.04C92.6019 124.04 92.9819 125.06 93.0219 126.24H89.6619ZM100.565 128.1V127.82C100.565 127.62 100.545 127.44 100.545 127.24V127C100.545 126.42 100.485 124.66 100.485 124.18C100.485 124.04 100.485 123.92 100.485 123.8C100.485 123.24 100.405 123.22 99.5655 123.22C98.9455 123.22 98.9055 123.42 98.9255 124.28L98.9655 128.46C98.9855 129.2 99.0055 128.86 99.0055 130.34C99.0055 131.14 100.065 131 99.9255 131C100.125 131 100.445 130.92 100.765 130.26C101.365 129.02 102.465 127.38 103.305 125.54C103.365 125.78 103.385 126.18 103.385 126.62C103.385 127.06 103.365 127.54 103.365 127.94C103.365 128.46 103.405 129.26 103.405 130.06C103.405 130.24 103.405 130.4 103.405 130.54C103.405 130.82 103.425 131 103.645 131C104.585 130.9 104.845 131.1 104.845 130.34C104.845 130.22 104.845 130.08 104.845 129.94C104.845 129.86 104.845 129.82 104.845 129.76C104.845 129.4 104.785 127.88 104.785 127.28V126.54C104.785 126.44 104.805 126.3 104.805 126.2C104.805 126.1 104.785 126.02 104.785 125.92C104.785 125.54 104.805 124.98 104.805 124.48C104.805 123.48 104.945 123.3 104.205 123.26L103.825 123.24C103.785 123.24 103.745 123.24 103.705 123.24C103.505 123.24 103.205 123.32 102.965 123.76L100.565 128.1ZM106.605 130.4C106.625 130.92 107.045 131 107.405 131C107.645 131 108.165 131.12 108.165 130.54C108.165 130.48 108.145 130.42 108.145 130.34C108.145 130.22 108.165 130.06 108.165 129.96C108.165 129.92 108.085 127.74 108.085 127.18C108.085 127.02 108.105 126.82 108.105 126.56C108.105 126.22 108.065 125.78 108.065 125.4C108.065 125.14 108.085 124.94 108.085 124.62C108.385 124.62 108.625 124.6 108.965 124.6C109.525 124.6 110.285 124.66 110.845 124.66C111.345 124.66 111.405 124.42 111.405 124.02C111.405 123.4 111.485 123.2 110.825 123.2C110.645 123.22 110.425 123.22 110.205 123.22C109.565 123.22 108.685 123.18 107.185 123.18C106.845 123.18 106.445 123.22 106.445 123.9C106.445 123.92 106.525 125.02 106.525 125.7V126.48C106.625 128.8 106.565 129.68 106.605 130.4ZM113.866 136.18C113.866 134.42 113.906 132.82 113.906 131.68C113.906 131.26 113.846 130.68 113.846 130.26C114.086 130.64 114.606 131.12 115.726 131.12C117.686 131 118.506 129.04 118.506 127.22C118.506 125.5 118.326 122.78 115.746 122.78C114.706 122.78 114.026 123.72 113.806 124.16C113.806 124.02 113.846 123.76 113.846 123.52C113.846 123.06 113.626 123.1 113.266 123.1C112.326 123.1 112.226 122.98 112.226 124C112.226 128.06 112.406 132.64 112.406 135.96C112.406 136.94 112.866 136.84 113.406 136.84C113.586 136.84 113.866 136.8 113.866 136.18ZM115.606 129.8C114.546 129.8 114.166 129.34 113.946 128.78C113.946 127.52 113.946 126.04 113.926 125.16C114.066 124.76 114.546 124.04 115.446 124.04C116.786 124.04 117.146 125.5 117.146 126.82C117.146 128.38 116.646 129.76 115.606 129.8ZM122.942 131.36C125.882 131.32 126.022 127.92 126.022 126.9C125.882 125.16 125.282 122.8 122.882 122.8C120.762 122.8 119.702 124.78 119.702 127.08C119.702 128.74 120.302 131.36 122.942 131.36ZM122.942 129.92C121.422 129.92 121.122 127.58 121.122 127.08C121.122 125.92 121.522 124.24 122.982 124.24C124.362 124.24 124.582 126.48 124.582 126.94C124.582 127.98 124.422 129.92 122.942 129.92ZM128.921 127.34L129.581 127.3C129.981 127.28 131.421 127.44 131.421 128.62C131.421 129.8 130.481 129.9 130.181 129.9L128.881 129.94C128.881 129.62 128.901 128.84 128.921 127.34ZM128.961 126.26C128.961 125.44 128.941 124.44 128.941 123.74L130.061 123.78C130.101 123.78 131.101 123.72 131.101 124.92C131.061 125.78 130.261 126.28 129.581 126.28L128.961 126.26ZM130.201 131.18C131.541 131.16 132.861 130.48 132.861 128.58C132.861 127.46 131.801 126.52 131.021 126.5C131.021 126.5 132.561 126.44 132.561 124.72C132.561 123.22 131.361 122.66 130.061 122.66H128.501C128.441 122.64 128.381 122.64 128.361 122.64C127.981 122.64 127.601 122.58 127.521 123.2C127.521 123.92 127.521 124.28 127.521 124.7C127.521 125.14 127.521 125.62 127.501 126.54L127.421 130.46C127.421 130.6 127.421 130.7 127.461 130.82V130.8C127.561 131.08 127.801 131.26 128.081 131.26C128.141 131.26 128.221 131.24 128.301 131.22L130.201 131.18ZM140.777 130.4C140.797 130.92 141.117 131 141.417 131C141.617 131 142.137 131.12 142.137 130.54C142.137 130.48 142.117 130.42 142.117 130.34C142.117 130.22 142.137 130.06 142.137 129.96L142.117 123.68C142.117 123.3 141.957 123.22 141.697 123.22C140.737 123.22 140.677 123.26 140.677 123.74C140.697 123.88 140.697 124.14 140.697 124.18C140.677 124.42 140.677 124.64 140.677 124.86C140.677 125.68 140.697 126.48 140.697 127.3L140.777 130.4ZM135.897 126.9L136.757 126.88C138.317 126.84 138.557 127.82 138.557 128.5C138.557 129.78 137.397 130 136.537 130C136.257 130 136.017 129.98 135.837 129.96L135.897 126.9ZM136.437 131.2C137.937 131.08 139.857 130.94 139.857 128.4C139.857 126.34 138.597 125.74 136.917 125.66H135.897L135.937 124.34C135.937 124.1 135.937 123.9 135.937 123.72C135.937 123.38 135.897 123.18 135.537 123.14C134.657 123.22 134.337 123.06 134.337 123.86C134.337 124 134.357 124.14 134.357 124.28C134.357 124.36 134.337 124.42 134.337 124.46C134.337 124.56 134.357 124.62 134.357 124.76L134.277 130.38C134.257 131.36 135.157 131.14 136.437 131.2ZM148.45 127.48C148.51 127.48 148.73 127.52 148.99 127.52C150.03 127.52 149.75 126.84 149.81 126.22C149.81 124.22 148.79 122.78 146.69 122.78C144.55 122.78 143.53 125.18 143.53 126.88C143.53 128.34 143.89 131.4 147.17 131.4C149.19 131.4 149.55 130.34 149.55 130.28C149.55 129.92 149.25 129.42 148.97 129.42C148.57 129.42 148.77 130.16 147.17 130.16C145.63 130.16 145.07 128.6 145.07 127.48C145.83 127.48 146.55 127.44 147.29 127.44C147.67 127.44 148.05 127.46 148.45 127.48ZM145.17 126.24H145.09C145.15 125.16 145.69 124.04 146.91 124.04C148.11 124.04 148.49 125.06 148.53 126.24H145.17ZM155.913 127.38C155.913 127.38 155.993 127.36 156.113 127.36C156.693 127.36 158.233 127.56 158.233 129.48C158.453 130.76 159.273 131.24 160.213 131.24C160.793 131.24 160.833 130.62 160.833 130.48C160.833 130.32 159.533 130.2 159.493 128.66C159.453 127 158.373 126.8 157.373 126.68C157.433 126.68 158.873 126.68 159.093 125.18C159.153 124.74 159.213 123.88 159.953 123.88C160.233 123.88 160.333 123.74 160.333 123.56C160.333 122.98 160.073 122.8 159.813 122.8C159.173 122.8 157.893 122.98 157.793 124.44C157.673 126.2 156.353 126.1 156.213 126.1C156.073 126.1 155.933 126.08 155.853 126.08C155.833 125.06 155.833 124.46 155.833 124.14C155.833 123.86 155.833 123.78 155.853 123.78C155.853 123.78 155.853 124.04 155.873 124.04C155.873 124.04 155.873 123.98 155.873 123.82V123.26C155.833 122.76 155.693 122.8 154.833 122.8C154.573 122.8 154.413 122.92 154.413 123.2C154.413 124.82 154.453 126 154.453 126.96C154.453 128.4 154.433 129.26 154.433 130.14C154.433 131.12 154.933 131.02 155.493 131.02C155.653 131.02 155.933 130.98 155.933 130.48C155.933 129.88 155.913 128.02 155.913 127.38ZM164.68 131.36C167.62 131.32 167.76 127.92 167.76 126.9C167.62 125.16 167.02 122.8 164.62 122.8C162.5 122.8 161.44 124.78 161.44 127.08C161.44 128.74 162.04 131.36 164.68 131.36ZM164.68 129.92C163.16 129.92 162.86 127.58 162.86 127.08C162.86 125.92 163.26 124.24 164.72 124.24C166.1 124.24 166.32 126.48 166.32 126.94C166.32 127.98 166.16 129.92 164.68 129.92ZM174.859 129.98C174.859 129.42 174.799 127.86 174.799 127.34V126.58C174.799 126.5 174.819 126.4 174.819 126.3V125.98C174.819 125.5 174.799 124.66 174.799 124.16C174.799 124.04 174.799 123.7 174.819 123.46C174.819 123.1 174.559 123.12 174.459 123.12H173.779C173.679 123.12 173.239 123.12 173.239 123.7C173.239 123.96 173.259 124.44 173.259 124.92C173.259 125.06 173.259 125.18 173.259 125.3L173.279 126.58H172.199C171.659 126.58 171.079 126.56 170.699 126.56C170.699 126.44 170.679 126.32 170.679 126.2C170.679 124.76 170.719 123.2 170.199 123.2C169.379 123.2 169.159 123.24 169.159 123.78C169.159 123.98 169.179 124.18 169.179 124.36C169.179 124.42 169.159 124.48 169.159 124.54C169.159 124.64 169.179 124.74 169.179 124.88L169.219 125.78L169.179 129.38C169.179 129.52 169.159 129.6 169.159 129.68C169.159 129.74 169.179 129.78 169.179 129.86C169.179 130 169.159 130.16 169.159 130.3C169.159 131.08 169.479 130.92 170.359 131C170.719 130.96 170.759 130.76 170.759 130.42C170.759 130.06 170.779 129.24 170.739 127.82H173.259C173.279 127.82 173.279 127.82 173.279 127.84C173.279 128.02 173.259 128.18 173.259 128.34C173.259 128.42 173.279 128.5 173.279 128.58L173.339 130.42C173.359 130.94 173.759 131.02 174.119 131.02C174.339 131.02 174.859 131.14 174.859 130.56C174.859 130.5 174.839 130.44 174.839 130.36C174.839 130.24 174.859 130.08 174.859 129.98ZM176.264 127.32C176.264 129.52 177.244 131.38 179.784 131.38C181.004 131.34 181.644 130.98 181.644 130.66C181.644 130.54 181.604 129.84 181.304 129.84C181.044 129.84 180.844 130.14 180.044 130.14C178.324 130.14 177.724 128.4 177.724 127.2C177.724 125.72 178.524 124.18 180.224 124.18C180.544 124.18 180.724 124.26 180.924 124.26C181.284 124.26 181.244 123.74 181.244 123.5C181.244 123.14 180.584 122.76 179.684 122.76H179.544C178.364 122.76 177.524 123.54 177.164 124.1L177.084 124.2C176.524 125.04 176.264 126.2 176.264 127.32ZM185.676 131.36C188.616 131.32 188.756 127.92 188.756 126.9C188.616 125.16 188.016 122.8 185.616 122.8C183.496 122.8 182.436 124.78 182.436 127.08C182.436 128.74 183.036 131.36 185.676 131.36ZM185.676 129.92C184.156 129.92 183.856 127.58 183.856 127.08C183.856 125.92 184.256 124.24 185.716 124.24C187.096 124.24 187.316 126.48 187.316 126.94C187.316 127.98 187.156 129.92 185.676 129.92ZM194.735 126.56C194.735 126.88 194.715 127.32 194.715 127.82C194.715 128.36 194.715 128.94 194.715 129.44C194.715 129.74 194.715 130.02 194.715 130.24C194.715 131.2 195.095 131.1 195.655 131.1C195.835 131.1 196.115 131.06 196.115 130.44L196.035 128.58C196.035 128.28 196.055 128.02 196.055 127.72V127C196.055 126.14 196.135 124.98 196.135 124.12C196.135 123.76 196.055 123.34 195.675 123.24H195.555C194.995 123.22 194.215 123.22 193.715 123.22H192.755C192.495 123.22 192.215 123.26 191.975 123.26H191.695C191.455 123.26 191.235 123.28 191.235 123.74V123.84C191.035 125.12 191.035 125.56 190.595 128.14C190.115 130.96 188.955 130.06 188.955 130.56C188.955 130.94 189.095 131.44 189.515 131.44C190.955 131.44 191.935 130.44 192.155 127.08C192.315 126.06 192.475 124.76 192.575 124.42H194.735V126.56ZM199.394 128.1V127.82C199.394 127.62 199.374 127.44 199.374 127.24V127C199.374 126.42 199.314 124.66 199.314 124.18C199.314 124.04 199.314 123.92 199.314 123.8C199.314 123.24 199.234 123.22 198.394 123.22C197.774 123.22 197.734 123.42 197.754 124.28L197.794 128.46C197.814 129.2 197.834 128.86 197.834 130.34C197.834 131.14 198.894 131 198.754 131C198.954 131 199.274 130.92 199.594 130.26C200.194 129.02 201.294 127.38 202.134 125.54C202.194 125.78 202.214 126.18 202.214 126.62C202.214 127.06 202.194 127.54 202.194 127.94C202.194 128.46 202.234 129.26 202.234 130.06C202.234 130.24 202.234 130.4 202.234 130.54C202.234 130.82 202.254 131 202.474 131C203.414 130.9 203.674 131.1 203.674 130.34C203.674 130.22 203.674 130.08 203.674 129.94C203.674 129.86 203.674 129.82 203.674 129.76C203.674 129.4 203.614 127.88 203.614 127.28V126.54C203.614 126.44 203.634 126.3 203.634 126.2C203.634 126.1 203.614 126.02 203.614 125.92C203.614 125.54 203.634 124.98 203.634 124.48C203.634 123.48 203.774 123.3 203.034 123.26L202.654 123.24C202.614 123.24 202.574 123.24 202.534 123.24C202.334 123.24 202.034 123.32 201.794 123.76L199.394 128.1ZM207.533 117.6C207.533 117.16 207.293 117.18 207.193 117.18H206.253C206.133 117.18 205.913 117.16 205.913 117.54C205.913 117.74 205.933 118.02 205.933 118.12C205.913 118.32 205.913 118.54 205.913 118.76C205.913 118.76 205.913 118.8 205.913 118.9C205.913 119.9 206.053 125.8 206.053 126.66C206.053 126.94 205.933 127.44 206.553 127.44C207.133 127.44 207.193 127.52 207.193 126.82C207.213 126.66 207.173 126.44 207.193 126.18L207.293 123.96C207.313 123.52 207.313 123.06 207.313 122.64L207.353 122.1C207.393 121.56 207.393 121.02 207.413 120.5L207.533 117.6ZM205.673 130.42C205.673 130.96 206.153 131.2 206.593 131.2C207.053 131.2 207.353 130.96 207.453 130.42C207.453 129.94 207.253 129.36 206.593 129.36C205.853 129.36 205.673 129.94 205.673 130.42Z" fill="white"/>
</svg>
