<svg width="242" height="178" viewBox="0 0 242 178" fill="none" xmlns="http://www.w3.org/2000/svg">
<path d="M26.2559 150.98C26.2559 150.42 26.1959 148.86 26.1959 148.34V147.58C26.1959 147.5 26.2159 147.4 26.2159 147.3V146.98C26.2159 146.5 26.1959 145.66 26.1959 145.16C26.1959 145.04 26.1959 144.7 26.2159 144.46C26.2159 144.1 25.9559 144.12 25.8559 144.12H25.1759C25.0759 144.12 24.6359 144.12 24.6359 144.7C24.6359 144.96 24.6559 145.44 24.6559 145.92C24.6559 146.06 24.6559 146.18 24.6559 146.3L24.6759 147.58H23.5959C23.0559 147.58 22.4759 147.56 22.0959 147.56C22.0959 147.44 22.0759 147.32 22.0759 147.2C22.0759 145.76 22.1159 144.2 21.5959 144.2C20.7759 144.2 20.5559 144.24 20.5559 144.78C20.5559 144.98 20.5759 145.18 20.5759 145.36C20.5759 145.42 20.5559 145.48 20.5559 145.54C20.5559 145.64 20.5759 145.74 20.5759 145.88L20.6159 146.78L20.5759 150.38C20.5759 150.52 20.5559 150.6 20.5559 150.68C20.5559 150.74 20.5759 150.78 20.5759 150.86C20.5759 151 20.5559 151.16 20.5559 151.3C20.5559 152.08 20.8759 151.92 21.7559 152C22.1159 151.96 22.1559 151.76 22.1559 151.42C22.1559 151.06 22.1759 150.24 22.1359 148.82H24.6559C24.6759 148.82 24.6759 148.82 24.6759 148.84C24.6759 149.02 24.6559 149.18 24.6559 149.34C24.6559 149.42 24.6759 149.5 24.6759 149.58L24.7359 151.42C24.7559 151.94 25.1559 152.02 25.5159 152.02C25.7359 152.02 26.2559 152.14 26.2559 151.56C26.2559 151.5 26.2359 151.44 26.2359 151.36C26.2359 151.24 26.2559 151.08 26.2559 150.98ZM31.6005 147.16H30.7605C28.6805 147.24 27.4605 148.38 27.4605 150.06C27.4605 151.52 28.8005 152.38 30.0805 152.38C31.6605 152.38 32.2805 151.28 32.2805 151.24C32.2805 151.24 32.7005 152.24 33.7405 152.24C34.3405 152.24 34.3605 151.86 34.3605 151.58C34.3605 151.32 34.2205 151.24 34.0405 151.22C33.2805 151.12 33.1005 150.18 33.1005 149.12C33.1005 148.34 33.2005 147.48 33.2005 146.88C33.2005 145.14 32.6805 143.9 30.5605 143.9C29.7405 143.9 28.4405 144.2 27.7005 145.22C27.6605 145.26 27.6405 145.32 27.6405 145.38C27.6405 145.74 28.1805 146.24 28.3805 146.24C28.4205 146.24 28.4605 146.22 28.5005 146.18C28.8605 145.8 29.7605 145.28 30.4805 145.28C31.2805 145.28 31.6005 145.66 31.6005 146.44V147.16ZM31.7405 148.4C31.7405 148.92 31.8005 149.6 31.8405 150.14C31.8405 150.28 31.3005 150.9 30.0405 150.9C29.4405 150.9 28.8805 150.68 28.8805 149.9C28.8805 148.52 30.0405 148.4 30.8005 148.4H31.7405ZM42.7037 151.42C42.7237 151.94 43.1237 152.02 43.4837 152.02C43.7037 152.02 44.2237 152.14 44.2237 151.56C44.2237 151.5 44.2037 151.44 44.2037 151.36C44.2037 151.24 44.2237 151.08 44.2237 150.98C44.1637 150.34 44.1437 149.76 44.1437 149.22C44.1437 147.82 44.2637 146.62 44.2637 144.9C44.2637 144.44 44.1837 144.18 43.1637 144.18H42.1837C41.8637 144.18 41.4637 144.2 40.4237 144.2H39.2037C38.9237 144.2 38.5637 144.16 38.5637 144.68V145.66C38.5637 146 38.5837 146.36 38.5837 146.7V150.38C38.5837 150.52 38.5637 150.6 38.5637 150.68C38.5637 150.74 38.5837 150.78 38.5837 150.86C38.5837 151 38.5637 151.16 38.5637 151.3C38.5637 152.08 38.8837 151.92 39.7637 152C40.1237 151.96 40.1637 151.76 40.1637 151.42C40.1637 151.26 40.1637 151.04 40.1637 150.8C40.1637 150.56 40.1637 149.86 40.1637 148.9C40.1637 147.96 40.1637 146.74 40.1237 145.42H42.7237C42.7437 145.64 42.7437 146.02 42.7437 146.52C42.7437 147.92 42.7037 150.1 42.7037 151.08C42.7037 151.22 42.7037 151.34 42.7037 151.42ZM47.5084 157.18C47.5084 155.42 47.5484 153.82 47.5484 152.68C47.5484 152.26 47.4884 151.68 47.4884 151.26C47.7284 151.64 48.2484 152.12 49.3684 152.12C51.3284 152 52.1484 150.04 52.1484 148.22C52.1484 146.5 51.9684 143.78 49.3884 143.78C48.3484 143.78 47.6684 144.72 47.4484 145.16C47.4484 145.02 47.4884 144.76 47.4884 144.52C47.4884 144.06 47.2684 144.1 46.9084 144.1C45.9684 144.1 45.8684 143.98 45.8684 145C45.8684 149.06 46.0484 153.64 46.0484 156.96C46.0484 157.94 46.5084 157.84 47.0484 157.84C47.2284 157.84 47.5084 157.8 47.5084 157.18ZM49.2484 150.8C48.1884 150.8 47.8084 150.34 47.5884 149.78C47.5884 148.52 47.5884 147.04 47.5684 146.16C47.7084 145.76 48.1884 145.04 49.0884 145.04C50.4284 145.04 50.7884 146.5 50.7884 147.82C50.7884 149.38 50.2884 150.76 49.2484 150.8ZM58.2641 148.48C58.3241 148.48 58.5441 148.52 58.8041 148.52C59.8441 148.52 59.5641 147.84 59.6241 147.22C59.6241 145.22 58.6041 143.78 56.5041 143.78C54.3641 143.78 53.3441 146.18 53.3441 147.88C53.3441 149.34 53.7041 152.4 56.9841 152.4C59.0041 152.4 59.3641 151.34 59.3641 151.28C59.3641 150.92 59.0641 150.42 58.7841 150.42C58.3841 150.42 58.5841 151.16 56.9841 151.16C55.4441 151.16 54.8841 149.6 54.8841 148.48C55.6441 148.48 56.3641 148.44 57.1041 148.44C57.4841 148.44 57.8641 148.46 58.2641 148.48ZM54.9841 147.24H54.9041C54.9641 146.16 55.5041 145.04 56.7241 145.04C57.9241 145.04 58.3041 146.06 58.3441 147.24H54.9841ZM62.5246 148.34L63.1846 148.3C63.5846 148.28 65.0246 148.44 65.0246 149.62C65.0246 150.8 64.0846 150.9 63.7846 150.9L62.4846 150.94C62.4846 150.62 62.5046 149.84 62.5246 148.34ZM62.5646 147.26C62.5646 146.44 62.5446 145.44 62.5446 144.74L63.6646 144.78C63.7046 144.78 64.7046 144.72 64.7046 145.92C64.6646 146.78 63.8646 147.28 63.1846 147.28L62.5646 147.26ZM63.8046 152.18C65.1446 152.16 66.4646 151.48 66.4646 149.58C66.4646 148.46 65.4046 147.52 64.6246 147.5C64.6246 147.5 66.1646 147.44 66.1646 145.72C66.1646 144.22 64.9646 143.66 63.6646 143.66H62.1046C62.0446 143.64 61.9846 143.64 61.9646 143.64C61.5846 143.64 61.2046 143.58 61.1246 144.2C61.1246 144.92 61.1246 145.28 61.1246 145.7C61.1246 146.14 61.1246 146.62 61.1046 147.54L61.0246 151.46C61.0246 151.6 61.0246 151.7 61.0646 151.82V151.8C61.1646 152.08 61.4046 152.26 61.6846 152.26C61.7446 152.26 61.8246 152.24 61.9046 152.22L63.8046 152.18ZM69.5005 157.18C69.5005 155.42 69.5405 153.82 69.5405 152.68C69.5405 152.26 69.4805 151.68 69.4805 151.26C69.7205 151.64 70.2405 152.12 71.3605 152.12C73.3205 152 74.1405 150.04 74.1405 148.22C74.1405 146.5 73.9605 143.78 71.3805 143.78C70.3405 143.78 69.6605 144.72 69.4405 145.16C69.4405 145.02 69.4805 144.76 69.4805 144.52C69.4805 144.06 69.2605 144.1 68.9005 144.1C67.9605 144.1 67.8605 143.98 67.8605 145C67.8605 149.06 68.0405 153.64 68.0405 156.96C68.0405 157.94 68.5005 157.84 69.0405 157.84C69.2205 157.84 69.5005 157.8 69.5005 157.18ZM71.2405 150.8C70.1805 150.8 69.8005 150.34 69.5805 149.78C69.5805 148.52 69.5805 147.04 69.5605 146.16C69.7005 145.76 70.1805 145.04 71.0805 145.04C72.4205 145.04 72.7805 146.5 72.7805 147.82C72.7805 149.38 72.2805 150.76 71.2405 150.8ZM79.2763 147.16H78.4363C76.3563 147.24 75.1363 148.38 75.1363 150.06C75.1363 151.52 76.4763 152.38 77.7563 152.38C79.3363 152.38 79.9563 151.28 79.9563 151.24C79.9563 151.24 80.3763 152.24 81.4163 152.24C82.0163 152.24 82.0363 151.86 82.0363 151.58C82.0363 151.32 81.8963 151.24 81.7163 151.22C80.9563 151.12 80.7763 150.18 80.7763 149.12C80.7763 148.34 80.8763 147.48 80.8763 146.88C80.8763 145.14 80.3563 143.9 78.2363 143.9C77.4163 143.9 76.1163 144.2 75.3763 145.22C75.3363 145.26 75.3163 145.32 75.3163 145.38C75.3163 145.74 75.8563 146.24 76.0563 146.24C76.0963 146.24 76.1363 146.22 76.1763 146.18C76.5363 145.8 77.4363 145.28 78.1563 145.28C78.9563 145.28 79.2763 145.66 79.2763 146.44V147.16ZM79.4163 148.4C79.4163 148.92 79.4763 149.6 79.5163 150.14C79.5163 150.28 78.9763 150.9 77.7163 150.9C77.1163 150.9 76.5563 150.68 76.5563 149.9C76.5563 148.52 77.7163 148.4 78.4763 148.4H79.4163ZM86.5963 144.78C86.5963 146 86.5363 148.16 86.5563 148.44L86.6163 150.26C86.6163 150.32 86.5563 150.5 86.5563 150.64V150.92H84.5163C84.6163 148.14 84.6563 145.16 84.6563 144.66C84.6563 144.32 84.5563 144.1 84.1963 144.06C83.3163 144.16 83.0363 144.02 83.0363 144.78C83.0363 144.92 83.0563 145.06 83.0563 145.2L83.0363 145.9L83.0763 150.04C83.0763 150.18 83.0363 150.42 83.0363 150.7C83.0363 150.8 83.0363 150.88 83.0563 150.98C83.0563 151.04 83.0563 151.28 83.0363 151.42C83.0363 151.5 83.0763 151.6 83.0963 151.66V151.72C83.2763 152.28 86.8763 152.04 89.1763 152.04H90.3363C90.5563 152.04 90.8563 152.04 90.9963 152.04C91.0363 152.58 91.0763 152.58 91.0763 153.4C91.0763 153.9 91.5363 153.98 91.8763 153.98C92.1363 153.98 92.5563 154.08 92.5563 153.54C92.5563 153.48 92.5363 153.42 92.5363 153.36C92.5363 153.22 92.5563 153.08 92.5563 152.98L92.5763 151.4C92.5763 151.08 92.3563 151.1 92.2963 151.1H92.2163H92.1963H91.7363C91.7363 150.92 91.7363 150.72 91.7363 150.62L91.6563 146C91.6763 145.9 91.6963 145.46 91.6963 145.1C91.6963 145 91.6763 144.86 91.6763 144.72C91.6763 144.64 91.6963 144.58 91.6963 144.52C91.6963 143.94 91.1963 144.08 91.0363 144.08C90.6563 144.08 90.1563 144.14 90.1563 144.7C90.1563 145.52 90.1963 149.54 90.1963 150.52V150.9C89.4563 150.9 88.8563 150.92 88.1163 150.92C88.1363 150.82 88.1363 150.74 88.1363 150.64L88.0963 146.08C88.1163 145.98 88.1363 145.54 88.1363 145.18C88.1363 145.08 88.1163 144.94 88.1163 144.8C88.1163 144.72 88.1363 144.66 88.1363 144.6C88.1363 144.02 87.6363 144.16 87.4763 144.16C87.0963 144.16 86.6163 144.22 86.5963 144.78ZM98.4985 148.48C98.5585 148.48 98.7785 148.52 99.0385 148.52C100.079 148.52 99.7985 147.84 99.8585 147.22C99.8585 145.22 98.8385 143.78 96.7385 143.78C94.5985 143.78 93.5785 146.18 93.5785 147.88C93.5785 149.34 93.9385 152.4 97.2185 152.4C99.2385 152.4 99.5985 151.34 99.5985 151.28C99.5985 150.92 99.2985 150.42 99.0185 150.42C98.6185 150.42 98.8185 151.16 97.2185 151.16C95.6785 151.16 95.1185 149.6 95.1185 148.48C95.8785 148.48 96.5985 148.44 97.3385 148.44C97.7185 148.44 98.0985 148.46 98.4985 148.48ZM95.2185 147.24H95.1385C95.1985 146.16 95.7385 145.04 96.9585 145.04C98.1585 145.04 98.5385 146.06 98.5785 147.24H95.2185ZM106.959 150.98C106.959 150.42 106.899 148.86 106.899 148.34V147.58C106.899 147.5 106.919 147.4 106.919 147.3V146.98C106.919 146.5 106.899 145.66 106.899 145.16C106.899 145.04 106.899 144.7 106.919 144.46C106.919 144.1 106.659 144.12 106.559 144.12H105.879C105.779 144.12 105.339 144.12 105.339 144.7C105.339 144.96 105.359 145.44 105.359 145.92C105.359 146.06 105.359 146.18 105.359 146.3L105.379 147.58H104.299C103.759 147.58 103.179 147.56 102.799 147.56C102.799 147.44 102.779 147.32 102.779 147.2C102.779 145.76 102.819 144.2 102.299 144.2C101.479 144.2 101.259 144.24 101.259 144.78C101.259 144.98 101.279 145.18 101.279 145.36C101.279 145.42 101.259 145.48 101.259 145.54C101.259 145.64 101.279 145.74 101.279 145.88L101.319 146.78L101.279 150.38C101.279 150.52 101.259 150.6 101.259 150.68C101.259 150.74 101.279 150.78 101.279 150.86C101.279 151 101.259 151.16 101.259 151.3C101.259 152.08 101.579 151.92 102.459 152C102.819 151.96 102.859 151.76 102.859 151.42C102.859 151.06 102.879 150.24 102.839 148.82H105.359C105.379 148.82 105.379 148.82 105.379 148.84C105.379 149.02 105.359 149.18 105.359 149.34C105.359 149.42 105.379 149.5 105.379 149.58L105.439 151.42C105.459 151.94 105.859 152.02 106.219 152.02C106.439 152.02 106.959 152.14 106.959 151.56C106.959 151.5 106.939 151.44 106.939 151.36C106.939 151.24 106.959 151.08 106.959 150.98ZM110.224 149.1V148.82C110.224 148.62 110.204 148.44 110.204 148.24V148C110.204 147.42 110.144 145.66 110.144 145.18C110.144 145.04 110.144 144.92 110.144 144.8C110.144 144.24 110.064 144.22 109.224 144.22C108.604 144.22 108.564 144.42 108.584 145.28L108.624 149.46C108.644 150.2 108.664 149.86 108.664 151.34C108.664 152.14 109.724 152 109.584 152C109.784 152 110.104 151.92 110.424 151.26C111.024 150.02 112.124 148.38 112.964 146.54C113.024 146.78 113.044 147.18 113.044 147.62C113.044 148.06 113.024 148.54 113.024 148.94C113.024 149.46 113.064 150.26 113.064 151.06C113.064 151.24 113.064 151.4 113.064 151.54C113.064 151.82 113.084 152 113.304 152C114.244 151.9 114.504 152.1 114.504 151.34C114.504 151.22 114.504 151.08 114.504 150.94C114.504 150.86 114.504 150.82 114.504 150.76C114.504 150.4 114.444 148.88 114.444 148.28V147.54C114.444 147.44 114.464 147.3 114.464 147.2C114.464 147.1 114.444 147.02 114.444 146.92C114.444 146.54 114.464 145.98 114.464 145.48C114.464 144.48 114.604 144.3 113.864 144.26L113.484 144.24C113.444 144.24 113.404 144.24 113.364 144.24C113.164 144.24 112.864 144.32 112.624 144.76L110.224 149.1ZM120.823 148.48C120.883 148.48 121.103 148.52 121.363 148.52C122.403 148.52 122.123 147.84 122.183 147.22C122.183 145.22 121.163 143.78 119.063 143.78C116.923 143.78 115.903 146.18 115.903 147.88C115.903 149.34 116.263 152.4 119.543 152.4C121.563 152.4 121.923 151.34 121.923 151.28C121.923 150.92 121.623 150.42 121.343 150.42C120.943 150.42 121.143 151.16 119.543 151.16C118.003 151.16 117.443 149.6 117.443 148.48C118.203 148.48 118.923 148.44 119.663 148.44C120.043 148.44 120.423 148.46 120.823 148.48ZM117.543 147.24H117.463C117.523 146.16 118.063 145.04 119.283 145.04C120.483 145.04 120.863 146.06 120.903 147.24H117.543ZM130.866 144.1C130.506 144.1 129.986 144.12 129.526 144.12C129.186 144.12 128.506 144.1 128.126 144.1H127.266C127.146 144.1 127.006 144.08 126.886 144.08C125.966 144.08 126.226 144.58 126.226 144.88C126.226 145.18 126.246 145.34 126.426 145.34C127.106 145.34 127.546 145.38 128.606 145.38C128.626 146.26 128.626 146.38 128.626 146.38V146.36C128.626 146.36 128.626 146.5 128.626 147.52C128.626 148.3 128.646 149.6 128.646 151.8C128.646 152.12 128.846 152.1 128.946 152.1H129.706C129.786 152.1 130.006 152.12 130.006 151.74C130.006 150.52 129.966 149.4 129.986 148.3L129.966 145.34L130.706 145.3C130.826 145.3 130.666 145.36 131.726 145.36C132.386 145.36 132.526 145.3 132.526 144.7C132.526 144.36 132.586 144.08 132.206 144.08C132.106 144.08 132.066 144.08 132.046 144.08C132.006 144.08 132.046 144.08 131.906 144.08C131.766 144.08 131.486 144.08 130.866 144.1ZM135.044 148.34L135.704 148.3C136.104 148.28 137.544 148.44 137.544 149.62C137.544 150.8 136.604 150.9 136.304 150.9L135.004 150.94C135.004 150.62 135.024 149.84 135.044 148.34ZM135.084 147.26C135.084 146.44 135.064 145.44 135.064 144.74L136.184 144.78C136.224 144.78 137.224 144.72 137.224 145.92C137.184 146.78 136.384 147.28 135.704 147.28L135.084 147.26ZM136.324 152.18C137.664 152.16 138.984 151.48 138.984 149.58C138.984 148.46 137.924 147.52 137.144 147.5C137.144 147.5 138.684 147.44 138.684 145.72C138.684 144.22 137.484 143.66 136.184 143.66H134.624C134.564 143.64 134.504 143.64 134.484 143.64C134.104 143.64 133.724 143.58 133.644 144.2C133.644 144.92 133.644 145.28 133.644 145.7C133.644 146.14 133.644 146.62 133.624 147.54L133.544 151.46C133.544 151.6 133.544 151.7 133.584 151.82V151.8C133.684 152.08 133.924 152.26 134.204 152.26C134.264 152.26 134.344 152.24 134.424 152.22L136.324 152.18ZM143.42 152.36C146.36 152.32 146.5 148.92 146.5 147.9C146.36 146.16 145.76 143.8 143.36 143.8C141.24 143.8 140.18 145.78 140.18 148.08C140.18 149.74 140.78 152.36 143.42 152.36ZM143.42 150.92C141.9 150.92 141.6 148.58 141.6 148.08C141.6 146.92 142 145.24 143.46 145.24C144.84 145.24 145.06 147.48 145.06 147.94C145.06 148.98 144.9 150.92 143.42 150.92ZM152.62 148.48C152.68 148.48 152.9 148.52 153.16 148.52C154.2 148.52 153.92 147.84 153.98 147.22C153.98 145.22 152.96 143.78 150.86 143.78C148.72 143.78 147.7 146.18 147.7 147.88C147.7 149.34 148.06 152.4 151.34 152.4C153.36 152.4 153.72 151.34 153.72 151.28C153.72 150.92 153.42 150.42 153.14 150.42C152.74 150.42 152.94 151.16 151.34 151.16C149.8 151.16 149.24 149.6 149.24 148.48C150 148.48 150.72 148.44 151.46 148.44C151.84 148.44 152.22 148.46 152.62 148.48ZM149.34 147.24H149.26C149.32 146.16 149.86 145.04 151.08 145.04C152.28 145.04 152.66 146.06 152.7 147.24H149.34ZM158.34 142.46C159.24 142.46 160.6 142.04 160.6 140.12C160.6 139.98 160.46 139.86 160.34 139.86H159.66C159.2 139.86 159.7 141.38 158.52 141.38C158.04 141.38 157.6 141.36 157.36 140.1C157.34 139.92 157.26 139.86 157.14 139.84C156.82 139.86 156.22 139.76 156.22 140.24C156.22 141.44 156.88 142.4 158.34 142.46ZM157.04 149.1V148.82C157.04 148.62 157.02 148.44 157.02 148.24V148C157.02 147.42 156.96 145.66 156.96 145.18C156.96 145.04 156.96 144.92 156.96 144.8C156.96 144.24 156.88 144.22 156.04 144.22C155.42 144.22 155.38 144.42 155.4 145.28L155.44 149.46C155.46 150.2 155.48 149.86 155.48 151.34C155.48 152.14 156.54 152 156.4 152C156.6 152 156.92 151.92 157.24 151.26C157.84 150.02 158.94 148.38 159.78 146.54C159.84 146.78 159.86 147.18 159.86 147.62C159.86 148.06 159.84 148.54 159.84 148.94C159.84 149.46 159.88 150.26 159.88 151.06C159.88 151.24 159.88 151.4 159.88 151.54C159.88 151.82 159.9 152 160.12 152C161.06 151.9 161.32 152.1 161.32 151.34C161.32 151.22 161.32 151.08 161.32 150.94C161.32 150.86 161.32 150.82 161.32 150.76C161.32 150.4 161.26 148.88 161.26 148.28V147.54C161.26 147.44 161.28 147.3 161.28 147.2C161.28 147.1 161.26 147.02 161.26 146.92C161.26 146.54 161.28 145.98 161.28 145.48C161.28 144.48 161.42 144.3 160.68 144.26L160.3 144.24C160.26 144.24 160.22 144.24 160.18 144.24C159.98 144.24 159.68 144.32 159.44 144.76L157.04 149.1ZM167.622 148.38C167.622 148.38 167.702 148.36 167.822 148.36C168.402 148.36 169.942 148.56 169.942 150.48C170.162 151.76 170.982 152.24 171.922 152.24C172.502 152.24 172.542 151.62 172.542 151.48C172.542 151.32 171.242 151.2 171.202 149.66C171.162 148 170.082 147.8 169.082 147.68C169.142 147.68 170.582 147.68 170.802 146.18C170.862 145.74 170.922 144.88 171.662 144.88C171.942 144.88 172.042 144.74 172.042 144.56C172.042 143.98 171.782 143.8 171.522 143.8C170.882 143.8 169.602 143.98 169.502 145.44C169.382 147.2 168.062 147.1 167.922 147.1C167.782 147.1 167.642 147.08 167.562 147.08C167.542 146.06 167.542 145.46 167.542 145.14C167.542 144.86 167.542 144.78 167.562 144.78C167.562 144.78 167.562 145.04 167.582 145.04C167.582 145.04 167.582 144.98 167.582 144.82V144.26C167.542 143.76 167.402 143.8 166.542 143.8C166.282 143.8 166.122 143.92 166.122 144.2C166.122 145.82 166.162 147 166.162 147.96C166.162 149.4 166.142 150.26 166.142 151.14C166.142 152.12 166.642 152.02 167.202 152.02C167.362 152.02 167.642 151.98 167.642 151.48C167.642 150.88 167.622 149.02 167.622 148.38ZM176.389 152.36C179.329 152.32 179.469 148.92 179.469 147.9C179.329 146.16 178.729 143.8 176.329 143.8C174.209 143.8 173.149 145.78 173.149 148.08C173.149 149.74 173.749 152.36 176.389 152.36ZM176.389 150.92C174.869 150.92 174.569 148.58 174.569 148.08C174.569 146.92 174.969 145.24 176.429 145.24C177.809 145.24 178.029 147.48 178.029 147.94C178.029 148.98 177.869 150.92 176.389 150.92ZM186.708 144.9C186.208 145.86 185.148 147.56 184.648 148.54L182.548 144.66C182.308 144.14 181.868 144.26 181.608 144.26C181.068 144.26 180.868 144.48 180.868 145.04C180.868 145.28 180.888 145.52 180.908 145.68C180.908 145.7 180.908 145.76 180.908 145.86C180.908 147.98 181.008 150.06 180.988 149.9V150.26C180.988 150.36 181.008 150.5 181.008 150.62V151.22C181.008 151.92 181.168 152.02 181.628 152.02C182.528 152.02 182.528 151.74 182.528 150.98C182.528 149.82 182.508 148.8 182.488 147.5V147.26C182.488 147.26 182.488 147.26 182.508 147.26L184.048 150.12C184.108 150.3 184.328 150.56 184.648 150.56C185.128 150.56 186.188 148.32 186.848 147.14L186.828 149.68C186.828 150.12 186.828 150.88 186.808 150.9C186.808 150.94 186.828 151 186.828 151.06C186.828 151.18 186.808 151.32 186.808 151.46C186.808 152.12 186.928 151.92 187.948 152.04C188.408 152.04 188.388 151.6 188.388 151C188.388 150.38 188.348 148.92 188.348 148.32V148C188.368 147.84 188.348 147.7 188.368 147.58V147.26C188.368 147.12 188.388 147 188.388 146.88L188.328 145.64C188.328 145.46 188.348 145.2 188.348 144.96C188.348 144.58 188.288 144.22 187.988 144.22H187.368C187.068 144.22 186.868 144.54 186.708 144.9ZM195.709 150.98C195.709 150.42 195.649 148.86 195.649 148.34V147.58C195.649 147.5 195.669 147.4 195.669 147.3V146.98C195.669 146.5 195.649 145.66 195.649 145.16C195.649 145.04 195.649 144.7 195.669 144.46C195.669 144.1 195.409 144.12 195.309 144.12H194.629C194.529 144.12 194.089 144.12 194.089 144.7C194.089 144.96 194.109 145.44 194.109 145.92C194.109 146.06 194.109 146.18 194.109 146.3L194.129 147.58H193.049C192.509 147.58 191.929 147.56 191.549 147.56C191.549 147.44 191.529 147.32 191.529 147.2C191.529 145.76 191.569 144.2 191.049 144.2C190.229 144.2 190.009 144.24 190.009 144.78C190.009 144.98 190.029 145.18 190.029 145.36C190.029 145.42 190.009 145.48 190.009 145.54C190.009 145.64 190.029 145.74 190.029 145.88L190.069 146.78L190.029 150.38C190.029 150.52 190.009 150.6 190.009 150.68C190.009 150.74 190.029 150.78 190.029 150.86C190.029 151 190.009 151.16 190.009 151.3C190.009 152.08 190.329 151.92 191.209 152C191.569 151.96 191.609 151.76 191.609 151.42C191.609 151.06 191.629 150.24 191.589 148.82H194.109C194.129 148.82 194.129 148.82 194.129 148.84C194.129 149.02 194.109 149.18 194.109 149.34C194.109 149.42 194.129 149.5 194.129 149.58L194.189 151.42C194.209 151.94 194.609 152.02 194.969 152.02C195.189 152.02 195.709 152.14 195.709 151.56C195.709 151.5 195.689 151.44 195.689 151.36C195.689 151.24 195.709 151.08 195.709 150.98ZM201.054 147.16H200.214C198.134 147.24 196.914 148.38 196.914 150.06C196.914 151.52 198.254 152.38 199.534 152.38C201.114 152.38 201.734 151.28 201.734 151.24C201.734 151.24 202.154 152.24 203.194 152.24C203.794 152.24 203.814 151.86 203.814 151.58C203.814 151.32 203.674 151.24 203.494 151.22C202.734 151.12 202.554 150.18 202.554 149.12C202.554 148.34 202.654 147.48 202.654 146.88C202.654 145.14 202.134 143.9 200.014 143.9C199.194 143.9 197.894 144.2 197.154 145.22C197.114 145.26 197.094 145.32 197.094 145.38C197.094 145.74 197.634 146.24 197.834 146.24C197.874 146.24 197.914 146.22 197.954 146.18C198.314 145.8 199.214 145.28 199.934 145.28C200.734 145.28 201.054 145.66 201.054 146.44V147.16ZM201.194 148.4C201.194 148.92 201.254 149.6 201.294 150.14C201.294 150.28 200.754 150.9 199.494 150.9C198.894 150.9 198.334 150.68 198.334 149.9C198.334 148.52 199.494 148.4 200.254 148.4H201.194ZM208.894 144.1C208.534 144.1 208.014 144.12 207.554 144.12C207.214 144.12 206.534 144.1 206.154 144.1H205.294C205.174 144.1 205.034 144.08 204.914 144.08C203.994 144.08 204.254 144.58 204.254 144.88C204.254 145.18 204.274 145.34 204.454 145.34C205.134 145.34 205.574 145.38 206.634 145.38C206.654 146.26 206.654 146.38 206.654 146.38V146.36C206.654 146.36 206.654 146.5 206.654 147.52C206.654 148.3 206.674 149.6 206.674 151.8C206.674 152.12 206.874 152.1 206.974 152.1H207.734C207.814 152.1 208.034 152.12 208.034 151.74C208.034 150.52 207.994 149.4 208.014 148.3L207.994 145.34L208.734 145.3C208.854 145.3 208.694 145.36 209.754 145.36C210.414 145.36 210.554 145.3 210.554 144.7C210.554 144.36 210.614 144.08 210.234 144.08C210.134 144.08 210.094 144.08 210.074 144.08C210.034 144.08 210.074 144.08 209.934 144.08C209.794 144.08 209.514 144.08 208.894 144.1ZM218.091 151.4C218.111 151.92 218.431 152 218.731 152C218.931 152 219.451 152.12 219.451 151.54C219.451 151.48 219.431 151.42 219.431 151.34C219.431 151.22 219.451 151.06 219.451 150.96L219.431 144.68C219.431 144.3 219.271 144.22 219.011 144.22C218.051 144.22 217.991 144.26 217.991 144.74C218.011 144.88 218.011 145.14 218.011 145.18C217.991 145.42 217.991 145.64 217.991 145.86C217.991 146.68 218.011 147.48 218.011 148.3L218.091 151.4ZM213.211 147.9L214.071 147.88C215.631 147.84 215.871 148.82 215.871 149.5C215.871 150.78 214.711 151 213.851 151C213.571 151 213.331 150.98 213.151 150.96L213.211 147.9ZM213.751 152.2C215.251 152.08 217.171 151.94 217.171 149.4C217.171 147.34 215.911 146.74 214.231 146.66H213.211L213.251 145.34C213.251 145.1 213.251 144.9 213.251 144.72C213.251 144.38 213.211 144.18 212.851 144.14C211.971 144.22 211.651 144.06 211.651 144.86C211.651 145 211.671 145.14 211.671 145.28C211.671 145.36 211.651 145.42 211.651 145.46C211.651 145.56 211.671 145.62 211.671 145.76L211.591 151.38C211.571 152.36 212.471 152.14 213.751 152.2ZM88.8039 168.34L89.4639 168.3C89.8639 168.28 91.3039 168.44 91.3039 169.62C91.3039 170.8 90.3639 170.9 90.0639 170.9L88.7639 170.94C88.7639 170.62 88.7839 169.84 88.8039 168.34ZM88.8439 167.26C88.8439 166.44 88.8239 165.44 88.8239 164.74L89.9439 164.78C89.9839 164.78 90.9839 164.72 90.9839 165.92C90.9439 166.78 90.1439 167.28 89.4639 167.28L88.8439 167.26ZM90.0839 172.18C91.4239 172.16 92.7439 171.48 92.7439 169.58C92.7439 168.46 91.6839 167.52 90.9039 167.5C90.9039 167.5 92.4439 167.44 92.4439 165.72C92.4439 164.22 91.2439 163.66 89.9439 163.66H88.3839C88.3239 163.64 88.2639 163.64 88.2439 163.64C87.8639 163.64 87.4839 163.58 87.4039 164.2C87.4039 164.92 87.4039 165.28 87.4039 165.7C87.4039 166.14 87.4039 166.62 87.3839 167.54L87.3039 171.46C87.3039 171.6 87.3039 171.7 87.3439 171.82V171.8C87.4439 172.08 87.6839 172.26 87.9639 172.26C88.0239 172.26 88.1039 172.24 88.1839 172.22L90.0839 172.18ZM99.003 169.1V168.82C99.003 168.62 98.983 168.44 98.983 168.24V168C98.983 167.42 98.923 165.66 98.923 165.18C98.923 165.04 98.923 164.92 98.923 164.8C98.923 164.24 98.843 164.22 98.003 164.22C97.383 164.22 97.343 164.42 97.363 165.28L97.403 169.46C97.423 170.2 97.443 169.86 97.443 171.34C97.443 172.14 98.503 172 98.363 172C98.563 172 98.883 171.92 99.203 171.26C99.803 170.02 100.903 168.38 101.743 166.54C101.803 166.78 101.823 167.18 101.823 167.62C101.823 168.06 101.803 168.54 101.803 168.94C101.803 169.46 101.843 170.26 101.843 171.06C101.843 171.24 101.843 171.4 101.843 171.54C101.843 171.82 101.863 172 102.083 172C103.023 171.9 103.283 172.1 103.283 171.34C103.283 171.22 103.283 171.08 103.283 170.94C103.283 170.86 103.283 170.82 103.283 170.76C103.283 170.4 103.223 168.88 103.223 168.28V167.54C103.223 167.44 103.243 167.3 103.243 167.2C103.243 167.1 103.223 167.02 103.223 166.92C103.223 166.54 103.243 165.98 103.243 165.48C103.243 164.48 103.383 164.3 102.643 164.26L102.263 164.24C102.223 164.24 102.183 164.24 102.143 164.24C101.943 164.24 101.643 164.32 101.403 164.76L99.003 169.1ZM105.042 171.4C105.062 171.92 105.482 172 105.842 172C106.082 172 106.602 172.12 106.602 171.54C106.602 171.48 106.582 171.42 106.582 171.34C106.582 171.22 106.602 171.06 106.602 170.96C106.602 170.92 106.522 168.74 106.522 168.18C106.522 168.02 106.542 167.82 106.542 167.56C106.542 167.22 106.502 166.78 106.502 166.4C106.502 166.14 106.522 165.94 106.522 165.62C106.822 165.62 107.062 165.6 107.402 165.6C107.962 165.6 108.722 165.66 109.282 165.66C109.782 165.66 109.842 165.42 109.842 165.02C109.842 164.4 109.922 164.2 109.262 164.2C109.082 164.22 108.862 164.22 108.642 164.22C108.002 164.22 107.122 164.18 105.622 164.18C105.282 164.18 104.882 164.22 104.882 164.9C104.882 164.92 104.962 166.02 104.962 166.7V167.48C105.062 169.8 105.002 170.68 105.042 171.4ZM112.303 177.18C112.303 175.42 112.343 173.82 112.343 172.68C112.343 172.26 112.283 171.68 112.283 171.26C112.523 171.64 113.043 172.12 114.163 172.12C116.123 172 116.943 170.04 116.943 168.22C116.943 166.5 116.763 163.78 114.183 163.78C113.143 163.78 112.463 164.72 112.243 165.16C112.243 165.02 112.283 164.76 112.283 164.52C112.283 164.06 112.063 164.1 111.703 164.1C110.763 164.1 110.663 163.98 110.663 165C110.663 169.06 110.843 173.64 110.843 176.96C110.843 177.94 111.303 177.84 111.843 177.84C112.023 177.84 112.303 177.8 112.303 177.18ZM114.043 170.8C112.983 170.8 112.603 170.34 112.383 169.78C112.383 168.52 112.383 167.04 112.363 166.16C112.503 165.76 112.983 165.04 113.883 165.04C115.223 165.04 115.583 166.5 115.583 167.82C115.583 169.38 115.083 170.76 114.043 170.8ZM121.379 172.36C124.319 172.32 124.459 168.92 124.459 167.9C124.319 166.16 123.719 163.8 121.319 163.8C119.199 163.8 118.139 165.78 118.139 168.08C118.139 169.74 118.739 172.36 121.379 172.36ZM121.379 170.92C119.859 170.92 119.559 168.58 119.559 168.08C119.559 166.92 119.959 165.24 121.419 165.24C122.799 165.24 123.019 167.48 123.019 167.94C123.019 168.98 122.859 170.92 121.379 170.92ZM127.359 168.34L128.019 168.3C128.419 168.28 129.859 168.44 129.859 169.62C129.859 170.8 128.919 170.9 128.619 170.9L127.319 170.94C127.319 170.62 127.339 169.84 127.359 168.34ZM127.399 167.26C127.399 166.44 127.379 165.44 127.379 164.74L128.499 164.78C128.539 164.78 129.539 164.72 129.539 165.92C129.499 166.78 128.699 167.28 128.019 167.28L127.399 167.26ZM128.639 172.18C129.979 172.16 131.299 171.48 131.299 169.58C131.299 168.46 130.239 167.52 129.459 167.5C129.459 167.5 130.999 167.44 130.999 165.72C130.999 164.22 129.799 163.66 128.499 163.66H126.939C126.879 163.64 126.819 163.64 126.799 163.64C126.419 163.64 126.039 163.58 125.959 164.2C125.959 164.92 125.959 165.28 125.959 165.7C125.959 166.14 125.959 166.62 125.939 167.54L125.859 171.46C125.859 171.6 125.859 171.7 125.899 171.82V171.8C125.999 172.08 126.239 172.26 126.519 172.26C126.579 172.26 126.659 172.24 126.739 172.22L128.639 172.18ZM134.795 177.16C139.055 164.94 138.995 165.38 139.195 164.64C139.195 164.64 139.195 164.62 139.195 164.6C139.195 164.42 138.855 164.24 138.175 164.24C137.895 164.24 137.655 164.32 137.555 164.6L135.655 170.06H135.575C134.175 165.72 134.035 165.46 133.855 164.92C133.695 164.42 133.555 164.36 133.335 164.36C133.115 164.36 132.095 164.26 132.095 164.64C132.095 164.9 132.275 165.26 132.295 165.32C132.795 166.68 133.215 167.88 134.975 172.12C134.435 173.58 133.835 175.26 133.315 176.72C133.315 176.76 133.115 177.1 133.115 177.36C133.115 177.74 133.755 177.72 134.255 177.72C134.455 177.72 134.575 177.68 134.795 177.16ZM148.635 167.92C148.435 165.26 147.535 163.8 145.615 163.8C143.935 163.8 142.855 165.6 142.815 167.28H141.655C141.635 167.28 141.635 167.28 141.635 167.28C141.635 166.4 141.655 165.7 141.655 164.84L141.615 164.42C141.575 164.12 141.375 164.1 141.215 164.1C140.395 164.12 140.215 164.1 140.215 164.44V165.18C140.215 165.38 140.195 165.58 140.195 165.78C140.195 167.7 140.295 169.64 140.295 171.56C140.295 171.94 140.495 171.96 141.195 171.96C141.515 171.96 141.635 171.64 141.635 171.16V168.7H141.855C142.015 168.7 142.135 168.7 142.275 168.7C142.415 168.7 142.555 168.7 142.755 168.68C142.755 170.36 143.535 172.34 145.595 172.34C148.335 172.34 148.635 169.72 148.635 167.92ZM144.015 168.08C144.015 166.48 144.275 165.22 145.675 165.22C146.875 165.22 147.135 167.16 147.135 167.98C147.135 169.06 146.975 171.04 145.675 171.04H145.695C144.235 170.92 144.015 169.16 144.015 168.08ZM152.298 158.6C152.298 158.16 152.058 158.18 151.958 158.18H151.018C150.898 158.18 150.678 158.16 150.678 158.54C150.678 158.74 150.698 159.02 150.698 159.12C150.678 159.32 150.678 159.54 150.678 159.76C150.678 159.76 150.678 159.8 150.678 159.9C150.678 160.9 150.818 166.8 150.818 167.66C150.818 167.94 150.698 168.44 151.318 168.44C151.898 168.44 151.958 168.52 151.958 167.82C151.978 167.66 151.938 167.44 151.958 167.18L152.058 164.96C152.078 164.52 152.078 164.06 152.078 163.64L152.118 163.1C152.158 162.56 152.158 162.02 152.178 161.5L152.298 158.6ZM150.438 171.42C150.438 171.96 150.918 172.2 151.358 172.2C151.818 172.2 152.118 171.96 152.218 171.42C152.218 170.94 152.018 170.36 151.358 170.36C150.618 170.36 150.438 170.94 150.438 171.42Z" fill="white"/>
<path d="M92 56H88V60H92V56Z" fill="#184A9C"/>
<path d="M88 56H84V60H88V56Z" fill="#184A9C"/>
<path d="M84 56H80V60H84V56Z" fill="#184A9C"/>
<path d="M80 56H76V60H80V56Z" fill="#184A9C"/>
<path d="M76 56H72V60H76V56Z" fill="#184A9C"/>
<path d="M96 52H92V56H96V52Z" fill="#184A9C"/>
<path d="M100 52H96V56H100V52Z" fill="#184A9C"/>
<path d="M92 52H88V56H92V52Z" fill="#EB7017"/>
<path d="M88 52H84V56H88V52Z" fill="#EB7017"/>
<path d="M84 52H80V56H84V52Z" fill="#EB7017"/>
<path d="M80 52H76V56H80V52Z" fill="#EB7017"/>
<path d="M76 52H72V56H76V52Z" fill="#EB7017"/>
<path d="M72 52H68V56H72V52Z" fill="#184A9C"/>
<path d="M68 52H64V56H68V52Z" fill="#184A9C"/>
<path d="M100 48H96V52H100V48Z" fill="#EB7017"/>
<path d="M96 48H92V52H96V48Z" fill="#EB7017"/>
<path d="M92 48H88V52H92V48Z" fill="#FFC213"/>
<path d="M88 48H84V52H88V48Z" fill="#FFC213"/>
<path d="M84 48H80V52H84V48Z" fill="#FFC213"/>
<path d="M80 48H76V52H80V48Z" fill="#FFC213"/>
<path d="M76 48H72V52H76V48Z" fill="#FFC213"/>
<path d="M72 48H68V52H72V48Z" fill="#F8960C"/>
<path d="M68 48H64V52H68V48Z" fill="#F8960C"/>
<path d="M104 44H100V48H104V44Z" fill="#184A9C"/>
<path d="M104 48H100V52H104V48Z" fill="#184A9C"/>
<path d="M100 44H96V48H100V44Z" fill="#EB7017"/>
<path d="M96 44H92V48H96V44Z" fill="#FFC213"/>
<path d="M92 44H88V48H92V44Z" fill="#FFC213"/>
<path d="M88 44H84V48H88V44Z" fill="#EB7017"/>
<path d="M84 44H80V48H84V44Z" fill="#E88C0C"/>
<path d="M80 44H76V48H80V44Z" fill="#E88C0C"/>
<path d="M76 44H72V48H76V44Z" fill="#FFC213"/>
<path d="M72 44H68V48H72V44Z" fill="#FFC213"/>
<path d="M68 44H64V48H68V44Z" fill="#F8960C"/>
<path d="M64 44H60V48H64V44Z" fill="#184A9C"/>
<path d="M64 48H60V52H64V48Z" fill="#184A9C"/>
<path d="M108 40H104V44H108V40Z" fill="#184A9C"/>
<path d="M104 40H100V44H104V40Z" fill="#EB7017"/>
<path d="M100 40H96V44H100V40Z" fill="#FFC213"/>
<path d="M96 40H92V44H96V40Z" fill="#FFC213"/>
<path d="M92 40H88V44H92V40Z" fill="#EB7017"/>
<path d="M88 40H84V44H88V40Z" fill="#FFE246"/>
<path d="M84 40H80V44H84V40Z" fill="#FFE246"/>
<path d="M80 40H76V44H80V40Z" fill="#FFE246"/>
<path d="M76 40H72V44H76V40Z" fill="#E88C0C"/>
<path d="M72 40H68V44H72V40Z" fill="#FFC213"/>
<path d="M68 40H64V44H68V40Z" fill="#FFC213"/>
<path d="M64 40H60V44H64V40Z" fill="#F8960C"/>
<path d="M60 40H56V44H60V40Z" fill="#184A9C"/>
<path d="M108 36H104V40H108V36Z" fill="#184A9C"/>
<path d="M104 36H100V40H104V36Z" fill="#EB7017"/>
<path d="M100 36H96V40H100V36Z" fill="#FFC213"/>
<path d="M96 36H92V40H96V36Z" fill="#EB7017"/>
<path d="M92 36H88V40H92V36Z" fill="#FFE246"/>
<path d="M88 36H84V40H88V36Z" fill="#FFE246"/>
<path d="M84 36H80V40H84V36Z" fill="#FFE246"/>
<path d="M80 36H76V40H80V36Z" fill="#FFC213"/>
<path d="M76 36H72V40H76V36Z" fill="#F8960C"/>
<path d="M72 36H68V40H72V36Z" fill="#E88C0C"/>
<path d="M68 36H64V40H68V36Z" fill="#FFC213"/>
<path d="M64 36H60V40H64V36Z" fill="#F8960C"/>
<path d="M60 36H56V40H60V36Z" fill="#184A9C"/>
<path d="M108 32H104V36H108V32Z" fill="#184A9C"/>
<path d="M104 32H100V36H104V32Z" fill="#EB7017"/>
<path d="M100 32H96V36H100V32Z" fill="#FFC213"/>
<path d="M96 32H92V36H96V32Z" fill="#E88C0C"/>
<path d="M92 32H88V36H92V32Z" fill="#FFE246"/>
<path d="M88 32H84V36H88V32Z" fill="#FFE246"/>
<path d="M84 32H80V36H84V32Z" fill="#FFC213"/>
<path d="M80 32H76V36H80V32Z" fill="#FFC213"/>
<path d="M76 32H72V36H76V32Z" fill="#F8960C"/>
<path d="M72 32H68V36H72V32Z" fill="#E88C0C"/>
<path d="M68 32H64V36H68V32Z" fill="#FFC213"/>
<path d="M64 32H60V36H64V32Z" fill="#FBED9D"/>
<path d="M60 32H56V36H60V32Z" fill="#184A9C"/>
<path d="M108 28H104V32H108V28Z" fill="#184A9C"/>
<path d="M104 28H100V32H104V28Z" fill="#EB7017"/>
<path d="M100 28H96V32H100V28Z" fill="#FFC213"/>
<path d="M96 28H92V32H96V28Z" fill="#E88C0C"/>
<path d="M92 28H88V32H92V28Z" fill="#FFE246"/>
<path d="M88 28H84V32H88V28Z" fill="#FFC213"/>
<path d="M84 28H80V32H84V28Z" fill="#FFC213"/>
<path d="M80 28H76V32H80V28Z" fill="#F8960C"/>
<path d="M76 28H72V32H76V28Z" fill="#F8960C"/>
<path d="M72 28H68V32H72V28Z" fill="#EB7017"/>
<path d="M68 28H64V32H68V28Z" fill="#FBED9D"/>
<path d="M64 28H60V32H64V28Z" fill="#FBED9D"/>
<path d="M60 28H56V32H60V28Z" fill="#184A9C"/>
<path d="M108 24H104V28H108V24Z" fill="#184A9C"/>
<path d="M104 24H100V28H104V24Z" fill="#EB7017"/>
<path d="M100 24H96V28H100V24Z" fill="#FFC213"/>
<path d="M96 24H92V28H96V24Z" fill="#E88C0C"/>
<path d="M92 24H88V28H92V24Z" fill="#FFC213"/>
<path d="M88 24H84V28H88V24Z" fill="#FFC213"/>
<path d="M84 24H80V28H84V24Z" fill="#F8960C"/>
<path d="M80 24H76V28H80V24Z" fill="#F8960C"/>
<path d="M76 24H72V28H76V24Z" fill="#F8960C"/>
<path d="M72 24H68V28H72V24Z" fill="#FBED9D"/>
<path d="M68 24H64V28H68V24Z" fill="#FBED9D"/>
<path d="M64 24H60V28H64V24Z" fill="#FBED9D"/>
<path d="M60 24H56V28H60V24Z" fill="#184A9C"/>
<path d="M108 20H104V24H108V20Z" fill="#184A9C"/>
<path d="M104 20H100V24H104V20Z" fill="#EB7017"/>
<path d="M100 20H96V24H100V20Z" fill="#FFC213"/>
<path d="M96 20H92V24H96V20Z" fill="#E88C0C"/>
<path d="M92 20H88V24H92V20Z" fill="#FFC213"/>
<path d="M88 20H84V24H88V20Z" fill="#F8960C"/>
<path d="M84 20H80V24H84V20Z" fill="#F8960C"/>
<path d="M80 20H76V24H80V20Z" fill="#F8960C"/>
<path d="M76 20H72V24H76V20Z" fill="#FBED9D"/>
<path d="M72 20H68V24H72V20Z" fill="#FBED9D"/>
<path d="M68 20H64V24H68V20Z" fill="#FBED9D"/>
<path d="M64 20H60V24H64V20Z" fill="#F8960C"/>
<path d="M60 20H56V24H60V20Z" fill="#184A9C"/>
<path d="M108 16H104V20H108V16Z" fill="#184A9C"/>
<path d="M104 16H100V20H104V16Z" fill="#EB7017"/>
<path d="M100 16H96V20H100V16Z" fill="#FFC213"/>
<path d="M96 16H92V20H96V16Z" fill="#FFC213"/>
<path d="M92 16H88V20H92V16Z" fill="#E88C0C"/>
<path d="M88 16H84V20H88V16Z" fill="#F8960C"/>
<path d="M84 16H80V20H84V16Z" fill="#F8960C"/>
<path d="M80 16H76V20H80V16Z" fill="#FBED9D"/>
<path d="M76 16H72V20H76V16Z" fill="#FBED9D"/>
<path d="M72 16H68V20H72V16Z" fill="#FBED9D"/>
<path d="M68 16H64V20H68V16Z" fill="#FFC213"/>
<path d="M64 16H60V20H64V16Z" fill="#F8960C"/>
<path d="M60 16H56V20H60V16Z" fill="#184A9C"/>
<path d="M104 12H100V16H104V12Z" fill="#184A9C"/>
<path d="M104 8H100V12H104V8Z" fill="#184A9C"/>
<path d="M100 12H96V16H100V12Z" fill="#EB7017"/>
<path d="M96 12H92V16H96V12Z" fill="#FFC213"/>
<path d="M92 12H88V16H92V12Z" fill="#FFC213"/>
<path d="M88 12H84V16H88V12Z" fill="#EB7017"/>
<path d="M84 12H80V16H84V12Z" fill="#FBED9D"/>
<path d="M80 12H76V16H80V12Z" fill="#FBED9D"/>
<path d="M76 12H72V16H76V12Z" fill="#FBED9D"/>
<path d="M72 12H68V16H72V12Z" fill="#FFC213"/>
<path d="M68 12H64V16H68V12Z" fill="#F8960C"/>
<path d="M64 12H60V16H64V12Z" fill="#184A9C"/>
<path d="M64 8H60V12H64V8Z" fill="#184A9C"/>
<path d="M100 8H96V12H100V8Z" fill="#EB7017"/>
<path d="M96 8H92V12H96V8Z" fill="#F8960C"/>
<path d="M92 8H88V12H92V8Z" fill="#FFC213"/>
<path d="M88 8H84V12H88V8Z" fill="#FBED9D"/>
<path d="M84 8H80V12H84V8Z" fill="#FBED9D"/>
<path d="M80 8H76V12H80V8Z" fill="#FBED9D"/>
<path d="M76 8H72V12H76V8Z" fill="#FFC213"/>
<path d="M72 8H68V12H72V8Z" fill="#F8960C"/>
<path d="M68 8H64V12H68V8Z" fill="#F8960C"/>
<path d="M96 4H92V8H96V4Z" fill="#184A9C"/>
<path d="M100 4H96V8H100V4Z" fill="#184A9C"/>
<path d="M92 4H88V8H92V4Z" fill="#FBED9D"/>
<path d="M88 4H84V8H88V4Z" fill="#FBED9D"/>
<path d="M84 4H80V8H84V4Z" fill="#FBED9D"/>
<path d="M80 4H76V8H80V4Z" fill="#F8960C"/>
<path d="M76 4H72V8H76V4Z" fill="#F8960C"/>
<path d="M72 4H68V8H72V4Z" fill="#184A9C"/>
<path d="M68 4H64V8H68V4Z" fill="#184A9C"/>
<path d="M92 0H88V4H92V0Z" fill="#184A9C"/>
<path d="M88 0H84V4H88V0Z" fill="#184A9C"/>
<path d="M84 0H80V4H84V0Z" fill="#184A9C"/>
<path d="M80 0H76V4H80V0Z" fill="#184A9C"/>
<path d="M76 0H72V4H76V0Z" fill="#184A9C"/>
<path d="M132 56H128V60H132V56Z" fill="#184A9C"/>
<path d="M128 56H124V60H128V56Z" fill="#184A9C"/>
<path d="M124 56H120V60H124V56Z" fill="#184A9C"/>
<path d="M120 56H116V60H120V56Z" fill="#184A9C"/>
<path d="M116 56H112V60H116V56Z" fill="#184A9C"/>
<path d="M136 52H132V56H136V52Z" fill="#184A9C"/>
<path d="M140 52H136V56H140V52Z" fill="#184A9C"/>
<path d="M132 52H128V56H132V52Z" fill="#EB7017"/>
<path d="M128 52H124V56H128V52Z" fill="#EB7017"/>
<path d="M124 52H120V56H124V52Z" fill="#EB7017"/>
<path d="M120 52H116V56H120V52Z" fill="#EB7017"/>
<path d="M116 52H112V56H116V52Z" fill="#EB7017"/>
<path d="M112 52H108V56H112V52Z" fill="#184A9C"/>
<path d="M108 52H104V56H108V52Z" fill="#184A9C"/>
<path d="M140 48H136V52H140V48Z" fill="#EB7017"/>
<path d="M136 48H132V52H136V48Z" fill="#EB7017"/>
<path d="M132 48H128V52H132V48Z" fill="#FFC213"/>
<path d="M128 48H124V52H128V48Z" fill="#FFC213"/>
<path d="M124 48H120V52H124V48Z" fill="#FFC213"/>
<path d="M120 48H116V52H120V48Z" fill="#FFC213"/>
<path d="M116 48H112V52H116V48Z" fill="#FFC213"/>
<path d="M112 48H108V52H112V48Z" fill="#F8960C"/>
<path d="M108 48H104V52H108V48Z" fill="#F8960C"/>
<path d="M144 44H140V48H144V44Z" fill="#184A9C"/>
<path d="M144 48H140V52H144V48Z" fill="#184A9C"/>
<path d="M140 44H136V48H140V44Z" fill="#EB7017"/>
<path d="M136 44H132V48H136V44Z" fill="#FFC213"/>
<path d="M132 44H128V48H132V44Z" fill="#FFC213"/>
<path d="M128 44H124V48H128V44Z" fill="#EB7017"/>
<path d="M124 44H120V48H124V44Z" fill="#E88C0C"/>
<path d="M120 44H116V48H120V44Z" fill="#E88C0C"/>
<path d="M116 44H112V48H116V44Z" fill="#FFC213"/>
<path d="M112 44H108V48H112V44Z" fill="#FFC213"/>
<path d="M108 44H104V48H108V44Z" fill="#F8960C"/>
<path d="M104 44H100V48H104V44Z" fill="#184A9C"/>
<path d="M104 48H100V52H104V48Z" fill="#184A9C"/>
<path d="M148 40H144V44H148V40Z" fill="#184A9C"/>
<path d="M144 40H140V44H144V40Z" fill="#EB7017"/>
<path d="M140 40H136V44H140V40Z" fill="#FFC213"/>
<path d="M136 40H132V44H136V40Z" fill="#FFC213"/>
<path d="M132 40H128V44H132V40Z" fill="#EB7017"/>
<path d="M128 40H124V44H128V40Z" fill="#FFE246"/>
<path d="M124 40H120V44H124V40Z" fill="#FFE246"/>
<path d="M120 40H116V44H120V40Z" fill="#FFE246"/>
<path d="M116 40H112V44H116V40Z" fill="#E88C0C"/>
<path d="M112 40H108V44H112V40Z" fill="#FFC213"/>
<path d="M108 40H104V44H108V40Z" fill="#FFC213"/>
<path d="M104 40H100V44H104V40Z" fill="#F8960C"/>
<path d="M100 40H96V44H100V40Z" fill="#184A9C"/>
<path d="M148 36H144V40H148V36Z" fill="#184A9C"/>
<path d="M144 36H140V40H144V36Z" fill="#EB7017"/>
<path d="M140 36H136V40H140V36Z" fill="#FFC213"/>
<path d="M136 36H132V40H136V36Z" fill="#EB7017"/>
<path d="M132 36H128V40H132V36Z" fill="#FFE246"/>
<path d="M128 36H124V40H128V36Z" fill="#FFE246"/>
<path d="M124 36H120V40H124V36Z" fill="#FFE246"/>
<path d="M120 36H116V40H120V36Z" fill="#FFC213"/>
<path d="M116 36H112V40H116V36Z" fill="#F8960C"/>
<path d="M112 36H108V40H112V36Z" fill="#E88C0C"/>
<path d="M108 36H104V40H108V36Z" fill="#FFC213"/>
<path d="M104 36H100V40H104V36Z" fill="#F8960C"/>
<path d="M100 36H96V40H100V36Z" fill="#184A9C"/>
<path d="M148 32H144V36H148V32Z" fill="#184A9C"/>
<path d="M144 32H140V36H144V32Z" fill="#EB7017"/>
<path d="M140 32H136V36H140V32Z" fill="#FFC213"/>
<path d="M136 32H132V36H136V32Z" fill="#E88C0C"/>
<path d="M132 32H128V36H132V32Z" fill="#FFE246"/>
<path d="M128 32H124V36H128V32Z" fill="#FFE246"/>
<path d="M124 32H120V36H124V32Z" fill="#FFC213"/>
<path d="M120 32H116V36H120V32Z" fill="#FFC213"/>
<path d="M116 32H112V36H116V32Z" fill="#F8960C"/>
<path d="M112 32H108V36H112V32Z" fill="#E88C0C"/>
<path d="M108 32H104V36H108V32Z" fill="#FFC213"/>
<path d="M104 32H100V36H104V32Z" fill="#FBED9D"/>
<path d="M100 32H96V36H100V32Z" fill="#184A9C"/>
<path d="M148 28H144V32H148V28Z" fill="#184A9C"/>
<path d="M144 28H140V32H144V28Z" fill="#EB7017"/>
<path d="M140 28H136V32H140V28Z" fill="#FFC213"/>
<path d="M136 28H132V32H136V28Z" fill="#E88C0C"/>
<path d="M132 28H128V32H132V28Z" fill="#FFE246"/>
<path d="M128 28H124V32H128V28Z" fill="#FFC213"/>
<path d="M124 28H120V32H124V28Z" fill="#FFC213"/>
<path d="M120 28H116V32H120V28Z" fill="#F8960C"/>
<path d="M116 28H112V32H116V28Z" fill="#F8960C"/>
<path d="M112 28H108V32H112V28Z" fill="#EB7017"/>
<path d="M108 28H104V32H108V28Z" fill="#FBED9D"/>
<path d="M104 28H100V32H104V28Z" fill="#FBED9D"/>
<path d="M100 28H96V32H100V28Z" fill="#184A9C"/>
<path d="M148 24H144V28H148V24Z" fill="#184A9C"/>
<path d="M144 24H140V28H144V24Z" fill="#EB7017"/>
<path d="M140 24H136V28H140V24Z" fill="#FFC213"/>
<path d="M136 24H132V28H136V24Z" fill="#E88C0C"/>
<path d="M132 24H128V28H132V24Z" fill="#FFC213"/>
<path d="M128 24H124V28H128V24Z" fill="#FFC213"/>
<path d="M124 24H120V28H124V24Z" fill="#F8960C"/>
<path d="M120 24H116V28H120V24Z" fill="#F8960C"/>
<path d="M116 24H112V28H116V24Z" fill="#F8960C"/>
<path d="M112 24H108V28H112V24Z" fill="#FBED9D"/>
<path d="M108 24H104V28H108V24Z" fill="#FBED9D"/>
<path d="M104 24H100V28H104V24Z" fill="#FBED9D"/>
<path d="M100 24H96V28H100V24Z" fill="#184A9C"/>
<path d="M148 20H144V24H148V20Z" fill="#184A9C"/>
<path d="M144 20H140V24H144V20Z" fill="#EB7017"/>
<path d="M140 20H136V24H140V20Z" fill="#FFC213"/>
<path d="M136 20H132V24H136V20Z" fill="#E88C0C"/>
<path d="M132 20H128V24H132V20Z" fill="#FFC213"/>
<path d="M128 20H124V24H128V20Z" fill="#F8960C"/>
<path d="M124 20H120V24H124V20Z" fill="#F8960C"/>
<path d="M120 20H116V24H120V20Z" fill="#F8960C"/>
<path d="M116 20H112V24H116V20Z" fill="#FBED9D"/>
<path d="M112 20H108V24H112V20Z" fill="#FBED9D"/>
<path d="M108 20H104V24H108V20Z" fill="#FBED9D"/>
<path d="M104 20H100V24H104V20Z" fill="#F8960C"/>
<path d="M100 20H96V24H100V20Z" fill="#184A9C"/>
<path d="M148 16H144V20H148V16Z" fill="#184A9C"/>
<path d="M144 16H140V20H144V16Z" fill="#EB7017"/>
<path d="M140 16H136V20H140V16Z" fill="#FFC213"/>
<path d="M136 16H132V20H136V16Z" fill="#FFC213"/>
<path d="M132 16H128V20H132V16Z" fill="#E88C0C"/>
<path d="M128 16H124V20H128V16Z" fill="#F8960C"/>
<path d="M124 16H120V20H124V16Z" fill="#F8960C"/>
<path d="M120 16H116V20H120V16Z" fill="#FBED9D"/>
<path d="M116 16H112V20H116V16Z" fill="#FBED9D"/>
<path d="M112 16H108V20H112V16Z" fill="#FBED9D"/>
<path d="M108 16H104V20H108V16Z" fill="#FFC213"/>
<path d="M104 16H100V20H104V16Z" fill="#F8960C"/>
<path d="M100 16H96V20H100V16Z" fill="#184A9C"/>
<path d="M144 12H140V16H144V12Z" fill="#184A9C"/>
<path d="M144 8H140V12H144V8Z" fill="#184A9C"/>
<path d="M140 12H136V16H140V12Z" fill="#EB7017"/>
<path d="M136 12H132V16H136V12Z" fill="#FFC213"/>
<path d="M132 12H128V16H132V12Z" fill="#FFC213"/>
<path d="M128 12H124V16H128V12Z" fill="#EB7017"/>
<path d="M124 12H120V16H124V12Z" fill="#FBED9D"/>
<path d="M120 12H116V16H120V12Z" fill="#FBED9D"/>
<path d="M116 12H112V16H116V12Z" fill="#FBED9D"/>
<path d="M112 12H108V16H112V12Z" fill="#FFC213"/>
<path d="M108 12H104V16H108V12Z" fill="#F8960C"/>
<path d="M104 12H100V16H104V12Z" fill="#184A9C"/>
<path d="M104 8H100V12H104V8Z" fill="#184A9C"/>
<path d="M140 8H136V12H140V8Z" fill="#EB7017"/>
<path d="M136 8H132V12H136V8Z" fill="#F8960C"/>
<path d="M132 8H128V12H132V8Z" fill="#FFC213"/>
<path d="M128 8H124V12H128V8Z" fill="#FBED9D"/>
<path d="M124 8H120V12H124V8Z" fill="#FBED9D"/>
<path d="M120 8H116V12H120V8Z" fill="#FBED9D"/>
<path d="M116 8H112V12H116V8Z" fill="#FFC213"/>
<path d="M112 8H108V12H112V8Z" fill="#F8960C"/>
<path d="M108 8H104V12H108V8Z" fill="#F8960C"/>
<path d="M136 4H132V8H136V4Z" fill="#184A9C"/>
<path d="M140 4H136V8H140V4Z" fill="#184A9C"/>
<path d="M132 4H128V8H132V4Z" fill="#FBED9D"/>
<path d="M128 4H124V8H128V4Z" fill="#FBED9D"/>
<path d="M124 4H120V8H124V4Z" fill="#FBED9D"/>
<path d="M120 4H116V8H120V4Z" fill="#F8960C"/>
<path d="M116 4H112V8H116V4Z" fill="#F8960C"/>
<path d="M112 4H108V8H112V4Z" fill="#184A9C"/>
<path d="M108 4H104V8H108V4Z" fill="#184A9C"/>
<path d="M132 0H128V4H132V0Z" fill="#184A9C"/>
<path d="M128 0H124V4H128V0Z" fill="#184A9C"/>
<path d="M124 0H120V4H124V0Z" fill="#184A9C"/>
<path d="M120 0H116V4H120V0Z" fill="#184A9C"/>
<path d="M116 0H112V4H116V0Z" fill="#184A9C"/>
<path d="M172 56H168V60H172V56Z" fill="#184A9C"/>
<path d="M168 56H164V60H168V56Z" fill="#184A9C"/>
<path d="M164 56H160V60H164V56Z" fill="#184A9C"/>
<path d="M160 56H156V60H160V56Z" fill="#184A9C"/>
<path d="M156 56H152V60H156V56Z" fill="#184A9C"/>
<path d="M176 52H172V56H176V52Z" fill="#184A9C"/>
<path d="M180 52H176V56H180V52Z" fill="#184A9C"/>
<path d="M172 52H168V56H172V52Z" fill="#EB7017"/>
<path d="M168 52H164V56H168V52Z" fill="#EB7017"/>
<path d="M164 52H160V56H164V52Z" fill="#EB7017"/>
<path d="M160 52H156V56H160V52Z" fill="#EB7017"/>
<path d="M156 52H152V56H156V52Z" fill="#EB7017"/>
<path d="M152 52H148V56H152V52Z" fill="#184A9C"/>
<path d="M148 52H144V56H148V52Z" fill="#184A9C"/>
<path d="M180 48H176V52H180V48Z" fill="#EB7017"/>
<path d="M176 48H172V52H176V48Z" fill="#EB7017"/>
<path d="M172 48H168V52H172V48Z" fill="#FFC213"/>
<path d="M168 48H164V52H168V48Z" fill="#FFC213"/>
<path d="M164 48H160V52H164V48Z" fill="#FFC213"/>
<path d="M160 48H156V52H160V48Z" fill="#FFC213"/>
<path d="M156 48H152V52H156V48Z" fill="#FFC213"/>
<path d="M152 48H148V52H152V48Z" fill="#F8960C"/>
<path d="M148 48H144V52H148V48Z" fill="#F8960C"/>
<path d="M184 44H180V48H184V44Z" fill="#184A9C"/>
<path d="M184 48H180V52H184V48Z" fill="#184A9C"/>
<path d="M180 44H176V48H180V44Z" fill="#EB7017"/>
<path d="M176 44H172V48H176V44Z" fill="#FFC213"/>
<path d="M172 44H168V48H172V44Z" fill="#FFC213"/>
<path d="M168 44H164V48H168V44Z" fill="#EB7017"/>
<path d="M164 44H160V48H164V44Z" fill="#E88C0C"/>
<path d="M160 44H156V48H160V44Z" fill="#E88C0C"/>
<path d="M156 44H152V48H156V44Z" fill="#FFC213"/>
<path d="M152 44H148V48H152V44Z" fill="#FFC213"/>
<path d="M148 44H144V48H148V44Z" fill="#F8960C"/>
<path d="M144 44H140V48H144V44Z" fill="#184A9C"/>
<path d="M144 48H140V52H144V48Z" fill="#184A9C"/>
<path d="M188 40H184V44H188V40Z" fill="#184A9C"/>
<path d="M184 40H180V44H184V40Z" fill="#EB7017"/>
<path d="M180 40H176V44H180V40Z" fill="#FFC213"/>
<path d="M176 40H172V44H176V40Z" fill="#FFC213"/>
<path d="M172 40H168V44H172V40Z" fill="#EB7017"/>
<path d="M168 40H164V44H168V40Z" fill="#FFE246"/>
<path d="M164 40H160V44H164V40Z" fill="#FFE246"/>
<path d="M160 40H156V44H160V40Z" fill="#FFE246"/>
<path d="M156 40H152V44H156V40Z" fill="#E88C0C"/>
<path d="M152 40H148V44H152V40Z" fill="#FFC213"/>
<path d="M148 40H144V44H148V40Z" fill="#FFC213"/>
<path d="M144 40H140V44H144V40Z" fill="#F8960C"/>
<path d="M140 40H136V44H140V40Z" fill="#184A9C"/>
<path d="M188 36H184V40H188V36Z" fill="#184A9C"/>
<path d="M184 36H180V40H184V36Z" fill="#EB7017"/>
<path d="M180 36H176V40H180V36Z" fill="#FFC213"/>
<path d="M176 36H172V40H176V36Z" fill="#EB7017"/>
<path d="M172 36H168V40H172V36Z" fill="#FFE246"/>
<path d="M168 36H164V40H168V36Z" fill="#FFE246"/>
<path d="M164 36H160V40H164V36Z" fill="#FFE246"/>
<path d="M160 36H156V40H160V36Z" fill="#FFC213"/>
<path d="M156 36H152V40H156V36Z" fill="#F8960C"/>
<path d="M152 36H148V40H152V36Z" fill="#E88C0C"/>
<path d="M148 36H144V40H148V36Z" fill="#FFC213"/>
<path d="M144 36H140V40H144V36Z" fill="#F8960C"/>
<path d="M140 36H136V40H140V36Z" fill="#184A9C"/>
<path d="M188 32H184V36H188V32Z" fill="#184A9C"/>
<path d="M184 32H180V36H184V32Z" fill="#EB7017"/>
<path d="M180 32H176V36H180V32Z" fill="#FFC213"/>
<path d="M176 32H172V36H176V32Z" fill="#E88C0C"/>
<path d="M172 32H168V36H172V32Z" fill="#FFE246"/>
<path d="M168 32H164V36H168V32Z" fill="#FFE246"/>
<path d="M164 32H160V36H164V32Z" fill="#FFC213"/>
<path d="M160 32H156V36H160V32Z" fill="#FFC213"/>
<path d="M156 32H152V36H156V32Z" fill="#F8960C"/>
<path d="M152 32H148V36H152V32Z" fill="#E88C0C"/>
<path d="M148 32H144V36H148V32Z" fill="#FFC213"/>
<path d="M144 32H140V36H144V32Z" fill="#FBED9D"/>
<path d="M140 32H136V36H140V32Z" fill="#184A9C"/>
<path d="M188 28H184V32H188V28Z" fill="#184A9C"/>
<path d="M184 28H180V32H184V28Z" fill="#EB7017"/>
<path d="M180 28H176V32H180V28Z" fill="#FFC213"/>
<path d="M176 28H172V32H176V28Z" fill="#E88C0C"/>
<path d="M172 28H168V32H172V28Z" fill="#FFE246"/>
<path d="M168 28H164V32H168V28Z" fill="#FFC213"/>
<path d="M164 28H160V32H164V28Z" fill="#FFC213"/>
<path d="M160 28H156V32H160V28Z" fill="#F8960C"/>
<path d="M156 28H152V32H156V28Z" fill="#F8960C"/>
<path d="M152 28H148V32H152V28Z" fill="#EB7017"/>
<path d="M148 28H144V32H148V28Z" fill="#FBED9D"/>
<path d="M144 28H140V32H144V28Z" fill="#FBED9D"/>
<path d="M140 28H136V32H140V28Z" fill="#184A9C"/>
<path d="M188 24H184V28H188V24Z" fill="#184A9C"/>
<path d="M184 24H180V28H184V24Z" fill="#EB7017"/>
<path d="M180 24H176V28H180V24Z" fill="#FFC213"/>
<path d="M176 24H172V28H176V24Z" fill="#E88C0C"/>
<path d="M172 24H168V28H172V24Z" fill="#FFC213"/>
<path d="M168 24H164V28H168V24Z" fill="#FFC213"/>
<path d="M164 24H160V28H164V24Z" fill="#F8960C"/>
<path d="M160 24H156V28H160V24Z" fill="#F8960C"/>
<path d="M156 24H152V28H156V24Z" fill="#F8960C"/>
<path d="M152 24H148V28H152V24Z" fill="#FBED9D"/>
<path d="M148 24H144V28H148V24Z" fill="#FBED9D"/>
<path d="M144 24H140V28H144V24Z" fill="#FBED9D"/>
<path d="M140 24H136V28H140V24Z" fill="#184A9C"/>
<path d="M188 20H184V24H188V20Z" fill="#184A9C"/>
<path d="M184 20H180V24H184V20Z" fill="#EB7017"/>
<path d="M180 20H176V24H180V20Z" fill="#FFC213"/>
<path d="M176 20H172V24H176V20Z" fill="#E88C0C"/>
<path d="M172 20H168V24H172V20Z" fill="#FFC213"/>
<path d="M168 20H164V24H168V20Z" fill="#F8960C"/>
<path d="M164 20H160V24H164V20Z" fill="#F8960C"/>
<path d="M160 20H156V24H160V20Z" fill="#F8960C"/>
<path d="M156 20H152V24H156V20Z" fill="#FBED9D"/>
<path d="M152 20H148V24H152V20Z" fill="#FBED9D"/>
<path d="M148 20H144V24H148V20Z" fill="#FBED9D"/>
<path d="M144 20H140V24H144V20Z" fill="#F8960C"/>
<path d="M140 20H136V24H140V20Z" fill="#184A9C"/>
<path d="M188 16H184V20H188V16Z" fill="#184A9C"/>
<path d="M184 16H180V20H184V16Z" fill="#EB7017"/>
<path d="M180 16H176V20H180V16Z" fill="#FFC213"/>
<path d="M176 16H172V20H176V16Z" fill="#FFC213"/>
<path d="M172 16H168V20H172V16Z" fill="#E88C0C"/>
<path d="M168 16H164V20H168V16Z" fill="#F8960C"/>
<path d="M164 16H160V20H164V16Z" fill="#F8960C"/>
<path d="M160 16H156V20H160V16Z" fill="#FBED9D"/>
<path d="M156 16H152V20H156V16Z" fill="#FBED9D"/>
<path d="M152 16H148V20H152V16Z" fill="#FBED9D"/>
<path d="M148 16H144V20H148V16Z" fill="#FFC213"/>
<path d="M144 16H140V20H144V16Z" fill="#F8960C"/>
<path d="M140 16H136V20H140V16Z" fill="#184A9C"/>
<path d="M184 12H180V16H184V12Z" fill="#184A9C"/>
<path d="M184 8H180V12H184V8Z" fill="#184A9C"/>
<path d="M180 12H176V16H180V12Z" fill="#EB7017"/>
<path d="M176 12H172V16H176V12Z" fill="#FFC213"/>
<path d="M172 12H168V16H172V12Z" fill="#FFC213"/>
<path d="M168 12H164V16H168V12Z" fill="#EB7017"/>
<path d="M164 12H160V16H164V12Z" fill="#FBED9D"/>
<path d="M160 12H156V16H160V12Z" fill="#FBED9D"/>
<path d="M156 12H152V16H156V12Z" fill="#FBED9D"/>
<path d="M152 12H148V16H152V12Z" fill="#FFC213"/>
<path d="M148 12H144V16H148V12Z" fill="#F8960C"/>
<path d="M144 12H140V16H144V12Z" fill="#184A9C"/>
<path d="M144 8H140V12H144V8Z" fill="#184A9C"/>
<path d="M180 8H176V12H180V8Z" fill="#EB7017"/>
<path d="M176 8H172V12H176V8Z" fill="#F8960C"/>
<path d="M172 8H168V12H172V8Z" fill="#FFC213"/>
<path d="M168 8H164V12H168V8Z" fill="#FBED9D"/>
<path d="M164 8H160V12H164V8Z" fill="#FBED9D"/>
<path d="M160 8H156V12H160V8Z" fill="#FBED9D"/>
<path d="M156 8H152V12H156V8Z" fill="#FFC213"/>
<path d="M152 8H148V12H152V8Z" fill="#F8960C"/>
<path d="M148 8H144V12H148V8Z" fill="#F8960C"/>
<path d="M176 4H172V8H176V4Z" fill="#184A9C"/>
<path d="M180 4H176V8H180V4Z" fill="#184A9C"/>
<path d="M172 4H168V8H172V4Z" fill="#FBED9D"/>
<path d="M168 4H164V8H168V4Z" fill="#FBED9D"/>
<path d="M164 4H160V8H164V4Z" fill="#FBED9D"/>
<path d="M160 4H156V8H160V4Z" fill="#F8960C"/>
<path d="M156 4H152V8H156V4Z" fill="#F8960C"/>
<path d="M152 4H148V8H152V4Z" fill="#184A9C"/>
<path d="M148 4H144V8H148V4Z" fill="#184A9C"/>
<path d="M172 0H168V4H172V0Z" fill="#184A9C"/>
<path d="M168 0H164V4H168V0Z" fill="#184A9C"/>
<path d="M164 0H160V4H164V0Z" fill="#184A9C"/>
<path d="M160 0H156V4H160V0Z" fill="#184A9C"/>
<path d="M156 0H152V4H156V0Z" fill="#184A9C"/>
<path d="M33 31.5166L213 31.5166L213 71.5166L33 71.5166L33 31.5166Z" fill="#FFEB03"/>
<path d="M57.1797 43.0166V62.5166H54.1797V40.0166H61.6797V43.0166H57.1797ZM64.668 41.5166H66.168V40.0166H73.668V62.5166H70.668V43.0166H67.668V61.0166H66.168V62.5166H63.1914L63.168 59.5166H64.668V41.5166ZM76.6797 41.5166V40.0166H82.6797V41.5166H84.1797V62.5166H81.1797V53.5166H78.1797V62.5166H75.1797V41.5166H76.6797ZM78.1797 43.0166V50.5166H81.1797V43.0166H78.1797ZM88.6797 43.0166V49.0166H91.6797V43.0166H88.6797ZM93.1797 41.5166H94.6797V49.0166H93.1797V50.5166H94.6797V61.0166H93.1797V62.5166H85.6797V40.0166H93.1797V41.5166ZM88.6797 52.0166V59.5166H91.6797V52.0166H88.6797ZM99.1797 49.0166H102.18V40.0166H105.18V62.5166H102.18V52.0166H99.1797V62.5166H96.1797V40.0166H99.1797V49.0166ZM106.68 40.0166H109.68V49.0166H114.18V50.5166H115.68V61.0166H114.18V62.5166H106.68V40.0166ZM112.68 59.5166V52.0166H109.68V59.5166H112.68ZM120.18 62.5166H117.18V40.0166H120.18V62.5166ZM123.297 35.5752H126.285V37.0752H127.785V38.5752H124.797V37.0752H123.297V35.5752ZM127.785 35.5752H129.285V37.0752H127.785V35.5752ZM132.32 62.5166H129.32V49.0166H127.82V53.5166H126.32V58.0166H124.82V62.5166H121.82V40.0166H124.82V52.0166H126.32V47.5166H127.82V43.0166H129.32V40.0166H132.32V62.5166ZM148.82 40.0166V62.5166H145.82V43.0166H142.82V62.5166H139.82V40.0166H148.82ZM150.32 40.0166H157.82V41.5166H159.32V52.0166H157.82V53.5166H153.32V62.5166H150.32V40.0166ZM153.32 43.0166V50.5166H156.32V43.0166H153.32ZM171.32 62.5166H168.32V49.0166H166.82V53.5166H165.32V58.0166H163.82V62.5166H160.82V40.0166H163.82V52.0166H165.32V47.5166H166.82V43.0166H168.32V40.0166H171.32V62.5166ZM174.32 41.5166V40.0166H180.32V41.5166H181.82V49.0166H180.32V50.5166H181.82V61.0166H180.32V62.5166H174.32V61.0166H172.82V58.0166H175.82V59.5166H178.82V52.0166H175.82V49.0166H178.82V43.0166H175.82V44.5166H172.82V41.5166H174.32ZM183.32 62.5166V59.5166H186.32V62.5166H183.32ZM183.32 58.0166V40.0166H186.32V58.0166H183.32Z" fill="#184A9C"/>
<rect x="12" y="71" width="220" height="60" fill="#184A9C"/>
<rect x="2" y="71" width="10" height="50" fill="#184A9C"/>
<rect x="232" y="91" width="10" height="40" fill="#184A9C"/>
<path d="M62.5529 81V86.5176H51.5176V94.7941H57.0352V97.5529H59.7941V100.312H62.5529V116.865H59.7941V119.623H57.0352V122.382H48.7588V119.623H46V114.106H51.5176V116.865H54.2764V114.106H57.0352V103.07H54.2764V100.312H46V81H62.5529Z" fill="white"/>
<path d="M117.729 83.7588V81H128.764V83.7588H131.523V119.623H128.764V122.382H117.729V119.623H114.97V83.7588H117.729ZM120.488 86.5176V116.865H126.006V86.5176H120.488Z" fill="white"/>
<path d="M137.041 83.7588V81H148.076V83.7588H150.835V119.623H148.076V122.382H137.041V119.623H134.282V83.7588H137.041ZM139.8 86.5176V116.865H145.317V86.5176H139.8Z" fill="white"/>
<path d="M156.352 83.7588V81H167.388V83.7588H170.147V119.623H167.388V122.382H156.352V119.623H153.594V83.7588H156.352ZM159.111 86.5176V116.865H164.629V86.5176H159.111Z" fill="white"/>
<path d="M181.947 81H195.741V83.7588H198.5V103.07H195.741V105.829H187.465V122.382H181.947V81ZM187.465 86.5176V100.312H192.982V86.5176H187.465Z" fill="white"/>
<path d="M179.078 114.437H193.203V117.085H179.078V114.437Z" fill="white"/>
<path d="M179.078 111.788H193.203V114.437H179.078V111.788Z" fill="white"/>
<path d="M82.8577 81V86.5176H71.8225V94.7941H77.3401V97.5529H80.0989V100.312H82.8577V116.865H80.0989V119.623H77.3401V122.382H69.0637V119.623H66.3049V114.106H71.8225V116.865H74.5813V114.106H77.3401V103.07H74.5813V100.312H66.3049V81H82.8577Z" fill="white"/>
<path d="M103.163 81V86.5176H92.1273V94.7941H97.645V97.5529H100.404V100.312H103.163V116.865H100.404V119.623H97.645V122.382H89.3685V119.623H86.6097V114.106H92.1273V116.865H94.8861V114.106H97.645V103.07H94.8861V100.312H86.6097V81H103.163Z" fill="white"/>
</svg>
