<svg width="90" height="68" viewBox="0 0 90 68" fill="none" xmlns="http://www.w3.org/2000/svg">
<path d="M75 30V45L15 45L15 30H22.5V22.5L67.5 22.5V30L75 30Z" fill="#F11485"/>
<path d="M67.5 30H60V37.5H67.5V30Z" fill="#184A9C"/>
<path d="M30 30H22.5V37.5H30V30Z" fill="#184A9C"/>
<path d="M60 7.5L52.5 7.5V15H60V7.5Z" fill="#EB7017"/>
<path d="M82.5 30H75V37.5H82.5V30Z" fill="#EB7017"/>
<path d="M15 45L15 52.5H22.5L22.5 60H30V52.5L60 52.5V60H67.5V52.5H75V45L15 45Z" fill="#EB7017"/>
<path d="M37.5 7.5L30 7.5V15H37.5V7.5Z" fill="#EB7017"/>
<path d="M15 30H7.5L7.5 37.5H15V30Z" fill="#EB7017"/>
<path d="M90 15L82.5 15V37.5H90V15Z" fill="#FAF11A"/>
<path d="M75 22.5H67.5V30H75V22.5Z" fill="#FAF11A"/>
<path d="M67.5 15L22.5 15V22.5L67.5 22.5V15Z" fill="#FAF11A"/>
<path d="M75 0L60 0V7.5L75 7.5V0Z" fill="#FAF11A"/>
<path d="M82.5 37.5H75V45H82.5V37.5Z" fill="#FAF11A"/>
<path d="M7.5 15L0 15L0 37.5H7.5L7.5 15Z" fill="#FAF11A"/>
<path d="M22.5 22.5H15L15 30H22.5V22.5Z" fill="#FAF11A"/>
<path d="M30 0L15 0L15 7.5L30 7.5V0Z" fill="#FAF11A"/>
<path d="M15 37.5H7.5L7.5 45H15V37.5Z" fill="#FAF11A"/>
</svg>
