<svg width="161" height="117" viewBox="0 0 161 117" fill="none" xmlns="http://www.w3.org/2000/svg">
<g opacity="0.5">
<path d="M16.6256 61.3059H27.7093V72.3897H16.6256V61.3059Z" fill="#184A9C"/>
<path d="M27.7093 61.3059H38.793V72.3897H27.7093V61.3059Z" fill="#184A9C"/>
<path d="M38.793 61.3059H49.8768V72.3897H38.793V61.3059Z" fill="#184A9C"/>
<path d="M72.0443 61.3059H83.128V72.3897H72.0443V61.3059Z" fill="#184A9C"/>
<path d="M83.128 61.3059H94.2118V72.3897H83.128V61.3059Z" fill="#184A9C"/>
<path d="M94.2118 61.3059H105.296V72.3897H94.2118V61.3059Z" fill="#184A9C"/>
<path d="M105.296 61.3059H116.379V72.3897H105.296V61.3059Z" fill="#184A9C"/>
<path d="M116.379 61.3059H127.463V72.3897H116.379V61.3059Z" fill="#184A9C"/>
<path d="M127.463 61.3059H138.547V72.3897H127.463V61.3059Z" fill="#184A9C"/>
<path d="M138.547 61.3059H149.63V72.3897H138.547V61.3059Z" fill="#184A9C"/>
<path d="M149.63 61.3059H160.714V72.3897H149.63V61.3059Z" fill="#184A9C"/>
<path d="M5.54181 72.3897H16.6256V83.4734H5.54181V72.3897Z" fill="#184A9C"/>
<path d="M16.6256 72.3897H27.7093V83.4734H16.6256V72.3897Z" fill="#184A9C"/>
<path d="M27.7093 72.3897H38.793V83.4734H27.7093V72.3897Z" fill="#184A9C"/>
<path d="M38.793 72.3897H49.8768V83.4734H38.793V72.3897Z" fill="#184A9C"/>
<path d="M72.0443 72.3897H83.128V83.4734H72.0443V72.3897Z" fill="#184A9C"/>
<path d="M83.128 72.3897H94.2118V83.4734H83.128V72.3897Z" fill="#184A9C"/>
<path d="M94.2118 72.3897H105.296V83.4734H94.2118V72.3897Z" fill="#184A9C"/>
<path d="M105.296 72.3897H116.379V83.4734H105.296V72.3897Z" fill="#184A9C"/>
<path d="M116.379 72.3897H127.463V83.4734H116.379V72.3897Z" fill="#184A9C"/>
<path d="M127.463 72.3897H138.547V83.4734H127.463V72.3897Z" fill="#184A9C"/>
<path d="M138.547 72.3897H149.63V83.4734H138.547V72.3897Z" fill="#184A9C"/>
<path d="M149.63 72.3897H160.714V83.4734H149.63V72.3897Z" fill="#184A9C"/>
<path d="M5.54181 83.4734H16.6256V94.5571H5.54181V83.4734Z" fill="#184A9C"/>
<path d="M16.6256 83.4734H27.7093V94.5571H16.6256V83.4734Z" fill="#184A9C"/>
<path d="M27.7093 83.4734H38.793V94.5571H27.7093V83.4734Z" fill="#184A9C"/>
<path d="M38.793 83.4734H49.8768V94.5571H38.793V83.4734Z" fill="#184A9C"/>
<path d="M72.0443 83.4734H83.128V94.5571H72.0443V83.4734Z" fill="#184A9C"/>
<path d="M83.128 83.4734H94.2118V94.5571H83.128V83.4734Z" fill="#184A9C"/>
<path d="M94.2118 83.4734H105.296V94.5571H94.2118V83.4734Z" fill="#184A9C"/>
<path d="M105.296 83.4734H116.379V94.5571H105.296V83.4734Z" fill="#184A9C"/>
<path d="M116.379 83.4734H127.463V94.5571H116.379V83.4734Z" fill="#184A9C"/>
<path d="M127.463 83.4734H138.547V94.5571H127.463V83.4734Z" fill="#184A9C"/>
<path d="M138.547 83.4734H149.63V94.5571H138.547V83.4734Z" fill="#184A9C"/>
<path d="M149.63 83.4734H160.714V94.5571H149.63V83.4734Z" fill="#184A9C"/>
<path d="M16.6256 94.5571H27.7093V105.641H16.6256V94.5571Z" fill="#184A9C"/>
<path d="M27.7093 94.5571H38.793V105.641H27.7093V94.5571Z" fill="#184A9C"/>
<path d="M38.793 94.5571H49.8768V105.641H38.793V94.5571Z" fill="#184A9C"/>
<path d="M72.0443 94.5571H83.128V105.641H72.0443V94.5571Z" fill="#184A9C"/>
<path d="M83.128 94.5571H94.2118V105.641H83.128V94.5571Z" fill="#184A9C"/>
<path d="M94.2118 94.5571H105.296V105.641H94.2118V94.5571Z" fill="#184A9C"/>
<path d="M105.296 94.5571H116.379V105.641H105.296V94.5571Z" fill="#184A9C"/>
<path d="M116.379 94.5571H127.463V105.641H116.379V94.5571Z" fill="#184A9C"/>
<path d="M127.463 94.5571H138.547V105.641H127.463V94.5571Z" fill="#184A9C"/>
<path d="M138.547 94.5571H149.63V105.641H138.547V94.5571Z" fill="#184A9C"/>
<path d="M16.6256 105.641H27.7093V116.725H16.6256V105.641Z" fill="#184A9C"/>
<path d="M27.7093 105.641H38.793V116.725H27.7093V105.641Z" fill="#184A9C"/>
<path d="M38.793 105.641H49.8768V116.725H38.793V105.641Z" fill="#184A9C"/>
<path d="M72.0443 105.641H83.128V116.725H72.0443V105.641Z" fill="#184A9C"/>
<path d="M83.128 105.641H94.2118V116.725H83.128V105.641Z" fill="#184A9C"/>
<path d="M49.8768 61.3059H60.9605V72.3897H49.8768V61.3059Z" fill="#184A9C"/>
<path d="M60.9605 61.3059H72.0443V72.3897H60.9605V61.3059Z" fill="#184A9C"/>
<path d="M49.8768 72.3897H60.9605V83.4734H49.8768V72.3897Z" fill="#184A9C"/>
<path d="M60.9605 72.3897H72.0443V83.4734H60.9605V72.3897Z" fill="#184A9C"/>
<path d="M49.8768 83.4734H60.9605V94.5571H49.8768V83.4734Z" fill="#184A9C"/>
<path d="M60.9605 83.4734H72.0443V94.5571H60.9605V83.4734Z" fill="#184A9C"/>
<path d="M49.8768 94.5571H60.9605V105.641H49.8768V94.5571Z" fill="#184A9C"/>
<path d="M60.9605 94.5571H72.0443V105.641H60.9605V94.5571Z" fill="#184A9C"/>
<path d="M49.8768 105.641H60.9605V116.725H49.8768V105.641Z" fill="#184A9C"/>
<path d="M60.9605 105.641H72.0443V116.725H60.9605V105.641Z" fill="#184A9C"/>
<path d="M94.2118 105.641H105.296V116.725H94.2118V105.641Z" fill="#184A9C"/>
<path d="M105.296 105.641H116.379V116.725H105.296V105.641Z" fill="#184A9C"/>
<path d="M116.379 105.641H127.463V116.725H116.379V105.641Z" fill="#184A9C"/>
<path d="M127.463 105.641H138.547V116.725H127.463V105.641Z" fill="#184A9C"/>
<path d="M138.547 105.641H149.63V116.725H138.547V105.641Z" fill="#184A9C"/>
</g>
<path d="M11.0837 55.764H22.1675V66.8478H11.0837V55.764Z" fill="#184A9C"/>
<path d="M22.1675 55.764H33.2512V66.8478H22.1675V55.764Z" fill="#184A9C"/>
<path d="M33.2512 55.764H44.335V66.8478H33.2512V55.764Z" fill="#184A9C"/>
<path d="M66.5025 55.764H77.5862V66.8478H66.5025V55.764Z" fill="#184A9C"/>
<path d="M77.5862 55.764H88.67V66.8478H77.5862V55.764Z" fill="#184A9C"/>
<path d="M88.67 55.764H99.7537V66.8478H88.67V55.764Z" fill="#184A9C"/>
<path d="M99.7537 55.764H110.837V66.8478H99.7537V55.764Z" fill="#184A9C"/>
<path d="M110.837 55.764H121.921V66.8478H110.837V55.764Z" fill="#184A9C"/>
<path d="M121.921 55.764H133.005V66.8478H121.921V55.764Z" fill="#184A9C"/>
<path d="M133.005 55.764H144.089V66.8478H133.005V55.764Z" fill="#184A9C"/>
<path d="M144.089 55.764H155.172V66.8478H144.089V55.764Z" fill="#184A9C"/>
<path d="M0 66.8478H11.0837V77.9315H0V66.8478Z" fill="#184A9C"/>
<path d="M11.0837 66.8478H22.1675V77.9315H11.0837V66.8478Z" fill="#184A9C"/>
<path d="M22.1675 66.8478H33.2512V77.9315H22.1675V66.8478Z" fill="#184A9C"/>
<path d="M33.2512 66.8478H44.335V77.9315H33.2512V66.8478Z" fill="#184A9C"/>
<path d="M66.5025 66.8478H77.5862V77.9315H66.5025V66.8478Z" fill="#184A9C"/>
<path d="M77.5862 66.8478H88.67V77.9315H77.5862V66.8478Z" fill="#184A9C"/>
<path d="M88.67 66.8478H99.7537V77.9315H88.67V66.8478Z" fill="#184A9C"/>
<path d="M99.7537 66.8478H110.837V77.9315H99.7537V66.8478Z" fill="#184A9C"/>
<path d="M110.837 66.8478H121.921V77.9315H110.837V66.8478Z" fill="#184A9C"/>
<path d="M121.921 66.8478H133.005V77.9315H121.921V66.8478Z" fill="#184A9C"/>
<path d="M133.005 66.8478H144.089V77.9315H133.005V66.8478Z" fill="#184A9C"/>
<path d="M144.089 66.8478H155.172V77.9315H144.089V66.8478Z" fill="#184A9C"/>
<path d="M0 77.9315H11.0837V89.0153H0V77.9315Z" fill="#184A9C"/>
<path d="M11.0837 77.9315H22.1675V89.0153H11.0837V77.9315Z" fill="#184A9C"/>
<path d="M22.1675 77.9315H33.2512V89.0153H22.1675V77.9315Z" fill="#184A9C"/>
<path d="M33.2512 77.9315H44.335V89.0153H33.2512V77.9315Z" fill="#184A9C"/>
<path d="M66.5025 77.9315H77.5862V89.0153H66.5025V77.9315Z" fill="#184A9C"/>
<path d="M77.5862 77.9315H88.67V89.0153H77.5862V77.9315Z" fill="#184A9C"/>
<path d="M88.67 77.9315H99.7537V89.0153H88.67V77.9315Z" fill="#184A9C"/>
<path d="M99.7537 77.9315H110.837V89.0153H99.7537V77.9315Z" fill="#184A9C"/>
<path d="M110.837 77.9315H121.921V89.0153H110.837V77.9315Z" fill="#184A9C"/>
<path d="M121.921 77.9315H133.005V89.0153H121.921V77.9315Z" fill="#184A9C"/>
<path d="M133.005 77.9315H144.089V89.0153H133.005V77.9315Z" fill="#184A9C"/>
<path d="M144.089 77.9315H155.172V89.0153H144.089V77.9315Z" fill="#184A9C"/>
<path d="M11.0837 89.0153H22.1675V100.099H11.0837V89.0153Z" fill="#184A9C"/>
<path d="M22.1675 89.0153H33.2512V100.099H22.1675V89.0153Z" fill="#184A9C"/>
<path d="M33.2512 89.0153H44.335V100.099H33.2512V89.0153Z" fill="#184A9C"/>
<path d="M66.5025 89.0153H77.5862V100.099H66.5025V89.0153Z" fill="#184A9C"/>
<path d="M77.5862 89.0153H88.67V100.099H77.5862V89.0153Z" fill="#184A9C"/>
<path d="M88.67 89.0153H99.7537V100.099H88.67V89.0153Z" fill="#184A9C"/>
<path d="M99.7537 89.0153H110.837V100.099H99.7537V89.0153Z" fill="#184A9C"/>
<path d="M110.837 89.0153H121.921V100.099H110.837V89.0153Z" fill="#184A9C"/>
<path d="M121.921 89.0153H133.005V100.099H121.921V89.0153Z" fill="#184A9C"/>
<path d="M133.005 89.0153H144.089V100.099H133.005V89.0153Z" fill="#184A9C"/>
<path d="M11.0837 100.099H22.1675V111.183H11.0837V100.099Z" fill="#184A9C"/>
<path d="M22.1675 100.099H33.2512V111.183H22.1675V100.099Z" fill="#184A9C"/>
<path d="M33.2512 100.099H44.335V111.183H33.2512V100.099Z" fill="#184A9C"/>
<path d="M66.5025 100.099H77.5862V111.183H66.5025V100.099Z" fill="#184A9C"/>
<path d="M77.5862 100.099H88.67V111.183H77.5862V100.099Z" fill="#184A9C"/>
<path d="M44.335 55.764H55.4187V66.8478H44.335V55.764Z" fill="#184A9C"/>
<path d="M55.4187 55.764H66.5025V66.8478H55.4187V55.764Z" fill="#184A9C"/>
<path d="M44.335 66.8478H55.4187V77.9315H44.335V66.8478Z" fill="#184A9C"/>
<path d="M55.4187 66.8478H66.5025V77.9315H55.4187V66.8478Z" fill="#184A9C"/>
<path d="M44.335 77.9315H55.4187V89.0153H44.335V77.9315Z" fill="#184A9C"/>
<path d="M55.4187 77.9315H66.5025V89.0153H55.4187V77.9315Z" fill="#184A9C"/>
<path d="M44.335 89.0153H55.4187V100.099H44.335V89.0153Z" fill="#184A9C"/>
<path d="M55.4187 89.0153H66.5025V100.099H55.4187V89.0153Z" fill="#184A9C"/>
<path d="M44.335 100.099H55.4187V111.183H44.335V100.099Z" fill="#184A9C"/>
<path d="M55.4187 100.099H66.5025V111.183H55.4187V100.099Z" fill="#184A9C"/>
<path d="M88.67 100.099H99.7537V111.183H88.67V100.099Z" fill="#184A9C"/>
<path d="M99.7537 100.099H110.837V111.183H99.7537V100.099Z" fill="#184A9C"/>
<path d="M110.837 100.099H121.921V111.183H110.837V100.099Z" fill="#184A9C"/>
<path d="M121.921 100.099H133.005V111.183H121.921V100.099Z" fill="#184A9C"/>
<path d="M133.005 100.099H144.089V111.183H133.005V100.099Z" fill="#184A9C"/>
<path d="M36.4386 71.9402V76.0306H28.2578V82.1663H32.3482V84.2115H34.3934V86.2567H36.4386V98.528H34.3934V100.573H32.3482V102.618H26.2126V100.573H24.1674V96.4828H28.2578V98.528H30.303V96.4828H32.3482V88.3019H30.303V86.2567H24.1674V71.9402H36.4386Z" fill="white"/>
<path d="M77.3429 73.9854V71.9402H85.5238V73.9854H87.569V100.573H85.5238V102.618H77.3429V100.573H75.2977V73.9854H77.3429ZM79.3881 76.0306V98.528H83.4786V76.0306H79.3881Z" fill="white"/>
<path d="M91.6594 73.9854V71.9402H99.8403V73.9854H101.885V100.573H99.8403V102.618H91.6594V100.573H89.6142V73.9854H91.6594ZM93.7046 76.0306V98.528H97.7951V76.0306H93.7046Z" fill="white"/>
<path d="M105.976 73.9854V71.9402H114.157V73.9854H116.202V100.573H114.157V102.618H105.976V100.573H103.931V73.9854H105.976ZM108.021 76.0306V98.528H112.112V76.0306H108.021Z" fill="white"/>
<path d="M124.95 71.9402H135.176V73.9854H137.222V88.3019H135.176V90.3471H129.041V102.618H124.95V71.9402ZM129.041 76.0306V86.2567H133.131V76.0306H129.041Z" fill="white"/>
<path d="M122.823 96.7282H133.295V98.6916H122.823V96.7282Z" fill="white"/>
<path d="M122.823 94.7648H133.295V96.7282H122.823V94.7648Z" fill="white"/>
<path d="M51.4914 71.9402V76.0306H43.3106V82.1663H47.401V84.2115H49.4462V86.2567H51.4914V98.528H49.4462V100.573H47.401V102.618H41.2653V100.573H39.2201V96.4828H43.3106V98.528H45.3558V96.4828H47.401V88.3019H45.3558V86.2567H39.2201V71.9402H51.4914Z" fill="white"/>
<path d="M66.5442 71.9402V76.0306H58.3633V82.1663H62.4538V84.2115H64.499V86.2567H66.5442V98.528H64.499V100.573H62.4538V102.618H56.3181V100.573H54.2729V96.4828H58.3633V98.528H60.4086V96.4828H62.4538V88.3019H60.4086V86.2567H54.2729V71.9402H66.5442Z" fill="white"/>
<path d="M49 64H45V68H49V64Z" fill="#184A9C"/>
<path d="M45 64H41V68H45V64Z" fill="#184A9C"/>
<path d="M41 64H37V68H41V64Z" fill="#184A9C"/>
<path d="M37 64H33V68H37V64Z" fill="#184A9C"/>
<path d="M33 64H29V68H33V64Z" fill="#184A9C"/>
<path d="M53 60H49V64H53V60Z" fill="#184A9C"/>
<path d="M57 60H53V64H57V60Z" fill="#184A9C"/>
<path d="M49 60H45V64H49V60Z" fill="#EB7017"/>
<path d="M45 60H41V64H45V60Z" fill="#EB7017"/>
<path d="M41 60H37V64H41V60Z" fill="#EB7017"/>
<path d="M37 60H33V64H37V60Z" fill="#EB7017"/>
<path d="M33 60H29V64H33V60Z" fill="#EB7017"/>
<path d="M29 60H25V64H29V60Z" fill="#184A9C"/>
<path d="M25 60H21V64H25V60Z" fill="#184A9C"/>
<path d="M57 56H53V60H57V56Z" fill="#EB7017"/>
<path d="M53 56H49V60H53V56Z" fill="#EB7017"/>
<path d="M49 56H45V60H49V56Z" fill="#FFC213"/>
<path d="M45 56H41V60H45V56Z" fill="#FFC213"/>
<path d="M41 56H37V60H41V56Z" fill="#FFC213"/>
<path d="M37 56H33V60H37V56Z" fill="#FFC213"/>
<path d="M33 56H29V60H33V56Z" fill="#FFC213"/>
<path d="M29 56H25V60H29V56Z" fill="#F8960C"/>
<path d="M25 56H21V60H25V56Z" fill="#F8960C"/>
<path d="M61 52H57V56H61V52Z" fill="#184A9C"/>
<path d="M61 56H57V60H61V56Z" fill="#184A9C"/>
<path d="M57 52H53V56H57V52Z" fill="#EB7017"/>
<path d="M53 52H49V56H53V52Z" fill="#FFC213"/>
<path d="M49 52H45V56H49V52Z" fill="#FFC213"/>
<path d="M45 52H41V56H45V52Z" fill="#EB7017"/>
<path d="M41 52H37V56H41V52Z" fill="#E88C0C"/>
<path d="M37 52H33V56H37V52Z" fill="#E88C0C"/>
<path d="M33 52H29V56H33V52Z" fill="#FFC213"/>
<path d="M29 52H25V56H29V52Z" fill="#FFC213"/>
<path d="M25 52H21V56H25V52Z" fill="#F8960C"/>
<path d="M21 52H17V56H21V52Z" fill="#184A9C"/>
<path d="M21 56H17V60H21V56Z" fill="#184A9C"/>
<path d="M65 48H61V52H65V48Z" fill="#184A9C"/>
<path d="M61 48H57V52H61V48Z" fill="#EB7017"/>
<path d="M57 48H53V52H57V48Z" fill="#FFC213"/>
<path d="M53 48H49V52H53V48Z" fill="#FFC213"/>
<path d="M49 48H45V52H49V48Z" fill="#EB7017"/>
<path d="M45 48H41V52H45V48Z" fill="#FFE246"/>
<path d="M41 48H37V52H41V48Z" fill="#FFE246"/>
<path d="M37 48H33V52H37V48Z" fill="#FFE246"/>
<path d="M33 48H29V52H33V48Z" fill="#E88C0C"/>
<path d="M29 48H25V52H29V48Z" fill="#FFC213"/>
<path d="M25 48H21V52H25V48Z" fill="#FFC213"/>
<path d="M21 48H17V52H21V48Z" fill="#F8960C"/>
<path d="M17 48H13V52H17V48Z" fill="#184A9C"/>
<path d="M65 44H61V48H65V44Z" fill="#184A9C"/>
<path d="M61 44H57V48H61V44Z" fill="#EB7017"/>
<path d="M57 44H53V48H57V44Z" fill="#FFC213"/>
<path d="M53 44H49V48H53V44Z" fill="#EB7017"/>
<path d="M49 44H45V48H49V44Z" fill="#FFE246"/>
<path d="M45 44H41V48H45V44Z" fill="#FFE246"/>
<path d="M41 44H37V48H41V44Z" fill="#FFE246"/>
<path d="M37 44H33V48H37V44Z" fill="#FFC213"/>
<path d="M33 44H29V48H33V44Z" fill="#F8960C"/>
<path d="M29 44H25V48H29V44Z" fill="#E88C0C"/>
<path d="M25 44H21V48H25V44Z" fill="#FFC213"/>
<path d="M21 44H17V48H21V44Z" fill="#F8960C"/>
<path d="M17 44H13V48H17V44Z" fill="#184A9C"/>
<path d="M65 40H61V44H65V40Z" fill="#184A9C"/>
<path d="M61 40H57V44H61V40Z" fill="#EB7017"/>
<path d="M57 40H53V44H57V40Z" fill="#FFC213"/>
<path d="M53 40H49V44H53V40Z" fill="#E88C0C"/>
<path d="M49 40H45V44H49V40Z" fill="#FFE246"/>
<path d="M45 40H41V44H45V40Z" fill="#FFE246"/>
<path d="M41 40H37V44H41V40Z" fill="#FFC213"/>
<path d="M37 40H33V44H37V40Z" fill="#FFC213"/>
<path d="M33 40H29V44H33V40Z" fill="#F8960C"/>
<path d="M29 40H25V44H29V40Z" fill="#E88C0C"/>
<path d="M25 40H21V44H25V40Z" fill="#FFC213"/>
<path d="M21 40H17V44H21V40Z" fill="#FBED9D"/>
<path d="M17 40H13V44H17V40Z" fill="#184A9C"/>
<path d="M65 36H61V40H65V36Z" fill="#184A9C"/>
<path d="M61 36H57V40H61V36Z" fill="#EB7017"/>
<path d="M57 36H53V40H57V36Z" fill="#FFC213"/>
<path d="M53 36H49V40H53V36Z" fill="#E88C0C"/>
<path d="M49 36H45V40H49V36Z" fill="#FFE246"/>
<path d="M45 36H41V40H45V36Z" fill="#FFC213"/>
<path d="M41 36H37V40H41V36Z" fill="#FFC213"/>
<path d="M37 36H33V40H37V36Z" fill="#F8960C"/>
<path d="M33 36H29V40H33V36Z" fill="#F8960C"/>
<path d="M29 36H25V40H29V36Z" fill="#EB7017"/>
<path d="M25 36H21V40H25V36Z" fill="#FBED9D"/>
<path d="M21 36H17V40H21V36Z" fill="#FBED9D"/>
<path d="M17 36H13V40H17V36Z" fill="#184A9C"/>
<path d="M65 32H61V36H65V32Z" fill="#184A9C"/>
<path d="M61 32H57V36H61V32Z" fill="#EB7017"/>
<path d="M57 32H53V36H57V32Z" fill="#FFC213"/>
<path d="M53 32H49V36H53V32Z" fill="#E88C0C"/>
<path d="M49 32H45V36H49V32Z" fill="#FFC213"/>
<path d="M45 32H41V36H45V32Z" fill="#FFC213"/>
<path d="M41 32H37V36H41V32Z" fill="#F8960C"/>
<path d="M37 32H33V36H37V32Z" fill="#F8960C"/>
<path d="M33 32H29V36H33V32Z" fill="#F8960C"/>
<path d="M29 32H25V36H29V32Z" fill="#FBED9D"/>
<path d="M25 32H21V36H25V32Z" fill="#FBED9D"/>
<path d="M21 32H17V36H21V32Z" fill="#FBED9D"/>
<path d="M17 32H13V36H17V32Z" fill="#184A9C"/>
<path d="M65 28H61V32H65V28Z" fill="#184A9C"/>
<path d="M61 28H57V32H61V28Z" fill="#EB7017"/>
<path d="M57 28H53V32H57V28Z" fill="#FFC213"/>
<path d="M53 28H49V32H53V28Z" fill="#E88C0C"/>
<path d="M49 28H45V32H49V28Z" fill="#FFC213"/>
<path d="M45 28H41V32H45V28Z" fill="#F8960C"/>
<path d="M41 28H37V32H41V28Z" fill="#F8960C"/>
<path d="M37 28H33V32H37V28Z" fill="#F8960C"/>
<path d="M33 28H29V32H33V28Z" fill="#FBED9D"/>
<path d="M29 28H25V32H29V28Z" fill="#FBED9D"/>
<path d="M25 28H21V32H25V28Z" fill="#FBED9D"/>
<path d="M21 28H17V32H21V28Z" fill="#F8960C"/>
<path d="M17 28H13V32H17V28Z" fill="#184A9C"/>
<path d="M65 24H61V28H65V24Z" fill="#184A9C"/>
<path d="M61 24H57V28H61V24Z" fill="#EB7017"/>
<path d="M57 24H53V28H57V24Z" fill="#FFC213"/>
<path d="M53 24H49V28H53V24Z" fill="#FFC213"/>
<path d="M49 24H45V28H49V24Z" fill="#E88C0C"/>
<path d="M45 24H41V28H45V24Z" fill="#F8960C"/>
<path d="M41 24H37V28H41V24Z" fill="#F8960C"/>
<path d="M37 24H33V28H37V24Z" fill="#FBED9D"/>
<path d="M33 24H29V28H33V24Z" fill="#FBED9D"/>
<path d="M29 24H25V28H29V24Z" fill="#FBED9D"/>
<path d="M25 24H21V28H25V24Z" fill="#FFC213"/>
<path d="M21 24H17V28H21V24Z" fill="#F8960C"/>
<path d="M17 24H13V28H17V24Z" fill="#184A9C"/>
<path d="M61 20H57V24H61V20Z" fill="#184A9C"/>
<path d="M61 16H57V20H61V16Z" fill="#184A9C"/>
<path d="M57 20H53V24H57V20Z" fill="#EB7017"/>
<path d="M53 20H49V24H53V20Z" fill="#FFC213"/>
<path d="M49 20H45V24H49V20Z" fill="#FFC213"/>
<path d="M45 20H41V24H45V20Z" fill="#EB7017"/>
<path d="M41 20H37V24H41V20Z" fill="#FBED9D"/>
<path d="M37 20H33V24H37V20Z" fill="#FBED9D"/>
<path d="M33 20H29V24H33V20Z" fill="#FBED9D"/>
<path d="M29 20H25V24H29V20Z" fill="#FFC213"/>
<path d="M25 20H21V24H25V20Z" fill="#F8960C"/>
<path d="M21 20H17V24H21V20Z" fill="#184A9C"/>
<path d="M21 16H17V20H21V16Z" fill="#184A9C"/>
<path d="M57 16H53V20H57V16Z" fill="#EB7017"/>
<path d="M53 16H49V20H53V16Z" fill="#F8960C"/>
<path d="M49 16H45V20H49V16Z" fill="#FFC213"/>
<path d="M45 16H41V20H45V16Z" fill="#FBED9D"/>
<path d="M41 16H37V20H41V16Z" fill="#FBED9D"/>
<path d="M37 16H33V20H37V16Z" fill="#FBED9D"/>
<path d="M33 16H29V20H33V16Z" fill="#FFC213"/>
<path d="M29 16H25V20H29V16Z" fill="#F8960C"/>
<path d="M25 16H21V20H25V16Z" fill="#F8960C"/>
<path d="M53 12H49V16H53V12Z" fill="#184A9C"/>
<path d="M57 12H53V16H57V12Z" fill="#184A9C"/>
<path d="M49 12H45V16H49V12Z" fill="#FBED9D"/>
<path d="M45 12H41V16H45V12Z" fill="#FBED9D"/>
<path d="M41 12H37V16H41V12Z" fill="#FBED9D"/>
<path d="M37 12H33V16H37V12Z" fill="#F8960C"/>
<path d="M33 12H29V16H33V12Z" fill="#F8960C"/>
<path d="M29 12H25V16H29V12Z" fill="#184A9C"/>
<path d="M25 12H21V16H25V12Z" fill="#184A9C"/>
<path d="M49 8H45V12H49V8Z" fill="#184A9C"/>
<path d="M45 8H41V12H45V8Z" fill="#184A9C"/>
<path d="M41 8H37V12H41V8Z" fill="#184A9C"/>
<path d="M37 8H33V12H37V8Z" fill="#184A9C"/>
<path d="M33 8H29V12H33V8Z" fill="#184A9C"/>
<path d="M137 64H133V68H137V64Z" fill="#184A9C"/>
<path d="M133 64H129V68H133V64Z" fill="#184A9C"/>
<path d="M129 64H125V68H129V64Z" fill="#184A9C"/>
<path d="M125 64H121V68H125V64Z" fill="#184A9C"/>
<path d="M121 64H117V68H121V64Z" fill="#184A9C"/>
<path d="M141 60H137V64H141V60Z" fill="#184A9C"/>
<path d="M145 60H141V64H145V60Z" fill="#184A9C"/>
<path d="M137 60H133V64H137V60Z" fill="#EB7017"/>
<path d="M133 60H129V64H133V60Z" fill="#EB7017"/>
<path d="M129 60H125V64H129V60Z" fill="#EB7017"/>
<path d="M125 60H121V64H125V60Z" fill="#EB7017"/>
<path d="M121 60H117V64H121V60Z" fill="#EB7017"/>
<path d="M117 60H113V64H117V60Z" fill="#184A9C"/>
<path d="M113 60H109V64H113V60Z" fill="#184A9C"/>
<path d="M145 56H141V60H145V56Z" fill="#EB7017"/>
<path d="M141 56H137V60H141V56Z" fill="#EB7017"/>
<path d="M137 56H133V60H137V56Z" fill="#FFC213"/>
<path d="M133 56H129V60H133V56Z" fill="#FFC213"/>
<path d="M129 56H125V60H129V56Z" fill="#FFC213"/>
<path d="M125 56H121V60H125V56Z" fill="#FFC213"/>
<path d="M121 56H117V60H121V56Z" fill="#FFC213"/>
<path d="M117 56H113V60H117V56Z" fill="#F8960C"/>
<path d="M113 56H109V60H113V56Z" fill="#F8960C"/>
<path d="M149 52H145V56H149V52Z" fill="#184A9C"/>
<path d="M149 56H145V60H149V56Z" fill="#184A9C"/>
<path d="M145 52H141V56H145V52Z" fill="#EB7017"/>
<path d="M141 52H137V56H141V52Z" fill="#FFC213"/>
<path d="M137 52H133V56H137V52Z" fill="#FFC213"/>
<path d="M133 52H129V56H133V52Z" fill="#EB7017"/>
<path d="M129 52H125V56H129V52Z" fill="#E88C0C"/>
<path d="M125 52H121V56H125V52Z" fill="#E88C0C"/>
<path d="M121 52H117V56H121V52Z" fill="#FFC213"/>
<path d="M117 52H113V56H117V52Z" fill="#FFC213"/>
<path d="M113 52H109V56H113V52Z" fill="#F8960C"/>
<path d="M109 52H105V56H109V52Z" fill="#184A9C"/>
<path d="M109 56H105V60H109V56Z" fill="#184A9C"/>
<path d="M153 48H149V52H153V48Z" fill="#184A9C"/>
<path d="M149 48H145V52H149V48Z" fill="#EB7017"/>
<path d="M145 48H141V52H145V48Z" fill="#FFC213"/>
<path d="M141 48H137V52H141V48Z" fill="#FFC213"/>
<path d="M137 48H133V52H137V48Z" fill="#EB7017"/>
<path d="M133 48H129V52H133V48Z" fill="#FFE246"/>
<path d="M129 48H125V52H129V48Z" fill="#FFE246"/>
<path d="M125 48H121V52H125V48Z" fill="#FFE246"/>
<path d="M121 48H117V52H121V48Z" fill="#E88C0C"/>
<path d="M117 48H113V52H117V48Z" fill="#FFC213"/>
<path d="M113 48H109V52H113V48Z" fill="#FFC213"/>
<path d="M109 48H105V52H109V48Z" fill="#F8960C"/>
<path d="M105 48H101V52H105V48Z" fill="#184A9C"/>
<path d="M153 44H149V48H153V44Z" fill="#184A9C"/>
<path d="M149 44H145V48H149V44Z" fill="#EB7017"/>
<path d="M145 44H141V48H145V44Z" fill="#FFC213"/>
<path d="M141 44H137V48H141V44Z" fill="#EB7017"/>
<path d="M137 44H133V48H137V44Z" fill="#FFE246"/>
<path d="M133 44H129V48H133V44Z" fill="#FFE246"/>
<path d="M129 44H125V48H129V44Z" fill="#FFE246"/>
<path d="M125 44H121V48H125V44Z" fill="#FFC213"/>
<path d="M121 44H117V48H121V44Z" fill="#F8960C"/>
<path d="M117 44H113V48H117V44Z" fill="#E88C0C"/>
<path d="M113 44H109V48H113V44Z" fill="#FFC213"/>
<path d="M109 44H105V48H109V44Z" fill="#F8960C"/>
<path d="M105 44H101V48H105V44Z" fill="#184A9C"/>
<path d="M153 40H149V44H153V40Z" fill="#184A9C"/>
<path d="M149 40H145V44H149V40Z" fill="#EB7017"/>
<path d="M145 40H141V44H145V40Z" fill="#FFC213"/>
<path d="M141 40H137V44H141V40Z" fill="#E88C0C"/>
<path d="M137 40H133V44H137V40Z" fill="#FFE246"/>
<path d="M133 40H129V44H133V40Z" fill="#FFE246"/>
<path d="M129 40H125V44H129V40Z" fill="#FFC213"/>
<path d="M125 40H121V44H125V40Z" fill="#FFC213"/>
<path d="M121 40H117V44H121V40Z" fill="#F8960C"/>
<path d="M117 40H113V44H117V40Z" fill="#E88C0C"/>
<path d="M113 40H109V44H113V40Z" fill="#FFC213"/>
<path d="M109 40H105V44H109V40Z" fill="#FBED9D"/>
<path d="M105 40H101V44H105V40Z" fill="#184A9C"/>
<path d="M153 36H149V40H153V36Z" fill="#184A9C"/>
<path d="M149 36H145V40H149V36Z" fill="#EB7017"/>
<path d="M145 36H141V40H145V36Z" fill="#FFC213"/>
<path d="M141 36H137V40H141V36Z" fill="#E88C0C"/>
<path d="M137 36H133V40H137V36Z" fill="#FFE246"/>
<path d="M133 36H129V40H133V36Z" fill="#FFC213"/>
<path d="M129 36H125V40H129V36Z" fill="#FFC213"/>
<path d="M125 36H121V40H125V36Z" fill="#F8960C"/>
<path d="M121 36H117V40H121V36Z" fill="#F8960C"/>
<path d="M117 36H113V40H117V36Z" fill="#EB7017"/>
<path d="M113 36H109V40H113V36Z" fill="#FBED9D"/>
<path d="M109 36H105V40H109V36Z" fill="#FBED9D"/>
<path d="M105 36H101V40H105V36Z" fill="#184A9C"/>
<path d="M153 32H149V36H153V32Z" fill="#184A9C"/>
<path d="M149 32H145V36H149V32Z" fill="#EB7017"/>
<path d="M145 32H141V36H145V32Z" fill="#FFC213"/>
<path d="M141 32H137V36H141V32Z" fill="#E88C0C"/>
<path d="M137 32H133V36H137V32Z" fill="#FFC213"/>
<path d="M133 32H129V36H133V32Z" fill="#FFC213"/>
<path d="M129 32H125V36H129V32Z" fill="#F8960C"/>
<path d="M125 32H121V36H125V32Z" fill="#F8960C"/>
<path d="M121 32H117V36H121V32Z" fill="#F8960C"/>
<path d="M117 32H113V36H117V32Z" fill="#FBED9D"/>
<path d="M113 32H109V36H113V32Z" fill="#FBED9D"/>
<path d="M109 32H105V36H109V32Z" fill="#FBED9D"/>
<path d="M105 32H101V36H105V32Z" fill="#184A9C"/>
<path d="M153 28H149V32H153V28Z" fill="#184A9C"/>
<path d="M149 28H145V32H149V28Z" fill="#EB7017"/>
<path d="M145 28H141V32H145V28Z" fill="#FFC213"/>
<path d="M141 28H137V32H141V28Z" fill="#E88C0C"/>
<path d="M137 28H133V32H137V28Z" fill="#FFC213"/>
<path d="M133 28H129V32H133V28Z" fill="#F8960C"/>
<path d="M129 28H125V32H129V28Z" fill="#F8960C"/>
<path d="M125 28H121V32H125V28Z" fill="#F8960C"/>
<path d="M121 28H117V32H121V28Z" fill="#FBED9D"/>
<path d="M117 28H113V32H117V28Z" fill="#FBED9D"/>
<path d="M113 28H109V32H113V28Z" fill="#FBED9D"/>
<path d="M109 28H105V32H109V28Z" fill="#F8960C"/>
<path d="M105 28H101V32H105V28Z" fill="#184A9C"/>
<path d="M153 24H149V28H153V24Z" fill="#184A9C"/>
<path d="M149 24H145V28H149V24Z" fill="#EB7017"/>
<path d="M145 24H141V28H145V24Z" fill="#FFC213"/>
<path d="M141 24H137V28H141V24Z" fill="#FFC213"/>
<path d="M137 24H133V28H137V24Z" fill="#E88C0C"/>
<path d="M133 24H129V28H133V24Z" fill="#F8960C"/>
<path d="M129 24H125V28H129V24Z" fill="#F8960C"/>
<path d="M125 24H121V28H125V24Z" fill="#FBED9D"/>
<path d="M121 24H117V28H121V24Z" fill="#FBED9D"/>
<path d="M117 24H113V28H117V24Z" fill="#FBED9D"/>
<path d="M113 24H109V28H113V24Z" fill="#FFC213"/>
<path d="M109 24H105V28H109V24Z" fill="#F8960C"/>
<path d="M105 24H101V28H105V24Z" fill="#184A9C"/>
<path d="M149 20H145V24H149V20Z" fill="#184A9C"/>
<path d="M149 16H145V20H149V16Z" fill="#184A9C"/>
<path d="M145 20H141V24H145V20Z" fill="#EB7017"/>
<path d="M141 20H137V24H141V20Z" fill="#FFC213"/>
<path d="M137 20H133V24H137V20Z" fill="#FFC213"/>
<path d="M133 20H129V24H133V20Z" fill="#EB7017"/>
<path d="M129 20H125V24H129V20Z" fill="#FBED9D"/>
<path d="M125 20H121V24H125V20Z" fill="#FBED9D"/>
<path d="M121 20H117V24H121V20Z" fill="#FBED9D"/>
<path d="M117 20H113V24H117V20Z" fill="#FFC213"/>
<path d="M113 20H109V24H113V20Z" fill="#F8960C"/>
<path d="M109 20H105V24H109V20Z" fill="#184A9C"/>
<path d="M109 16H105V20H109V16Z" fill="#184A9C"/>
<path d="M145 16H141V20H145V16Z" fill="#EB7017"/>
<path d="M141 16H137V20H141V16Z" fill="#F8960C"/>
<path d="M137 16H133V20H137V16Z" fill="#FFC213"/>
<path d="M133 16H129V20H133V16Z" fill="#FBED9D"/>
<path d="M129 16H125V20H129V16Z" fill="#FBED9D"/>
<path d="M125 16H121V20H125V16Z" fill="#FBED9D"/>
<path d="M121 16H117V20H121V16Z" fill="#FFC213"/>
<path d="M117 16H113V20H117V16Z" fill="#F8960C"/>
<path d="M113 16H109V20H113V16Z" fill="#F8960C"/>
<path d="M141 12H137V16H141V12Z" fill="#184A9C"/>
<path d="M145 12H141V16H145V12Z" fill="#184A9C"/>
<path d="M137 12H133V16H137V12Z" fill="#FBED9D"/>
<path d="M133 12H129V16H133V12Z" fill="#FBED9D"/>
<path d="M129 12H125V16H129V12Z" fill="#FBED9D"/>
<path d="M125 12H121V16H125V12Z" fill="#F8960C"/>
<path d="M121 12H117V16H121V12Z" fill="#F8960C"/>
<path d="M117 12H113V16H117V12Z" fill="#184A9C"/>
<path d="M113 12H109V16H113V12Z" fill="#184A9C"/>
<path d="M137 8H133V12H137V8Z" fill="#184A9C"/>
<path d="M133 8H129V12H133V8Z" fill="#184A9C"/>
<path d="M129 8H125V12H129V8Z" fill="#184A9C"/>
<path d="M125 8H121V12H125V8Z" fill="#184A9C"/>
<path d="M121 8H117V12H121V8Z" fill="#184A9C"/>
<path d="M93 56H89V60H93V56Z" fill="#184A9C"/>
<path d="M89 56H85V60H89V56Z" fill="#184A9C"/>
<path d="M85 56H81V60H85V56Z" fill="#184A9C"/>
<path d="M81 56H77V60H81V56Z" fill="#184A9C"/>
<path d="M77 56H73V60H77V56Z" fill="#184A9C"/>
<path d="M97 52H93V56H97V52Z" fill="#184A9C"/>
<path d="M101 52H97V56H101V52Z" fill="#184A9C"/>
<path d="M93 52H89V56H93V52Z" fill="#EB7017"/>
<path d="M89 52H85V56H89V52Z" fill="#EB7017"/>
<path d="M85 52H81V56H85V52Z" fill="#EB7017"/>
<path d="M81 52H77V56H81V52Z" fill="#EB7017"/>
<path d="M77 52H73V56H77V52Z" fill="#EB7017"/>
<path d="M73 52H69V56H73V52Z" fill="#184A9C"/>
<path d="M69 52H65V56H69V52Z" fill="#184A9C"/>
<path d="M101 48H97V52H101V48Z" fill="#EB7017"/>
<path d="M97 48H93V52H97V48Z" fill="#EB7017"/>
<path d="M93 48H89V52H93V48Z" fill="#FFC213"/>
<path d="M89 48H85V52H89V48Z" fill="#FFC213"/>
<path d="M85 48H81V52H85V48Z" fill="#FFC213"/>
<path d="M81 48H77V52H81V48Z" fill="#FFC213"/>
<path d="M77 48H73V52H77V48Z" fill="#FFC213"/>
<path d="M73 48H69V52H73V48Z" fill="#F8960C"/>
<path d="M69 48H65V52H69V48Z" fill="#F8960C"/>
<path d="M105 44H101V48H105V44Z" fill="#184A9C"/>
<path d="M105 48H101V52H105V48Z" fill="#184A9C"/>
<path d="M101 44H97V48H101V44Z" fill="#EB7017"/>
<path d="M97 44H93V48H97V44Z" fill="#FFC213"/>
<path d="M93 44H89V48H93V44Z" fill="#FFC213"/>
<path d="M89 44H85V48H89V44Z" fill="#EB7017"/>
<path d="M85 44H81V48H85V44Z" fill="#E88C0C"/>
<path d="M81 44H77V48H81V44Z" fill="#E88C0C"/>
<path d="M77 44H73V48H77V44Z" fill="#FFC213"/>
<path d="M73 44H69V48H73V44Z" fill="#FFC213"/>
<path d="M69 44H65V48H69V44Z" fill="#F8960C"/>
<path d="M65 44H61V48H65V44Z" fill="#184A9C"/>
<path d="M65 48H61V52H65V48Z" fill="#184A9C"/>
<path d="M109 40H105V44H109V40Z" fill="#184A9C"/>
<path d="M105 40H101V44H105V40Z" fill="#EB7017"/>
<path d="M101 40H97V44H101V40Z" fill="#FFC213"/>
<path d="M97 40H93V44H97V40Z" fill="#FFC213"/>
<path d="M93 40H89V44H93V40Z" fill="#EB7017"/>
<path d="M89 40H85V44H89V40Z" fill="#FFE246"/>
<path d="M85 40H81V44H85V40Z" fill="#FFE246"/>
<path d="M81 40H77V44H81V40Z" fill="#FFE246"/>
<path d="M77 40H73V44H77V40Z" fill="#E88C0C"/>
<path d="M73 40H69V44H73V40Z" fill="#FFC213"/>
<path d="M69 40H65V44H69V40Z" fill="#FFC213"/>
<path d="M65 40H61V44H65V40Z" fill="#F8960C"/>
<path d="M61 40H57V44H61V40Z" fill="#184A9C"/>
<path d="M109 36H105V40H109V36Z" fill="#184A9C"/>
<path d="M105 36H101V40H105V36Z" fill="#EB7017"/>
<path d="M101 36H97V40H101V36Z" fill="#FFC213"/>
<path d="M97 36H93V40H97V36Z" fill="#EB7017"/>
<path d="M93 36H89V40H93V36Z" fill="#FFE246"/>
<path d="M89 36H85V40H89V36Z" fill="#FFE246"/>
<path d="M85 36H81V40H85V36Z" fill="#FFE246"/>
<path d="M81 36H77V40H81V36Z" fill="#FFC213"/>
<path d="M77 36H73V40H77V36Z" fill="#F8960C"/>
<path d="M73 36H69V40H73V36Z" fill="#E88C0C"/>
<path d="M69 36H65V40H69V36Z" fill="#FFC213"/>
<path d="M65 36H61V40H65V36Z" fill="#F8960C"/>
<path d="M61 36H57V40H61V36Z" fill="#184A9C"/>
<path d="M109 32H105V36H109V32Z" fill="#184A9C"/>
<path d="M105 32H101V36H105V32Z" fill="#EB7017"/>
<path d="M101 32H97V36H101V32Z" fill="#FFC213"/>
<path d="M97 32H93V36H97V32Z" fill="#E88C0C"/>
<path d="M93 32H89V36H93V32Z" fill="#FFE246"/>
<path d="M89 32H85V36H89V32Z" fill="#FFE246"/>
<path d="M85 32H81V36H85V32Z" fill="#FFC213"/>
<path d="M81 32H77V36H81V32Z" fill="#FFC213"/>
<path d="M77 32H73V36H77V32Z" fill="#F8960C"/>
<path d="M73 32H69V36H73V32Z" fill="#E88C0C"/>
<path d="M69 32H65V36H69V32Z" fill="#FFC213"/>
<path d="M65 32H61V36H65V32Z" fill="#FBED9D"/>
<path d="M61 32H57V36H61V32Z" fill="#184A9C"/>
<path d="M109 28H105V32H109V28Z" fill="#184A9C"/>
<path d="M105 28H101V32H105V28Z" fill="#EB7017"/>
<path d="M101 28H97V32H101V28Z" fill="#FFC213"/>
<path d="M97 28H93V32H97V28Z" fill="#E88C0C"/>
<path d="M93 28H89V32H93V28Z" fill="#FFE246"/>
<path d="M89 28H85V32H89V28Z" fill="#FFC213"/>
<path d="M85 28H81V32H85V28Z" fill="#FFC213"/>
<path d="M81 28H77V32H81V28Z" fill="#F8960C"/>
<path d="M77 28H73V32H77V28Z" fill="#F8960C"/>
<path d="M73 28H69V32H73V28Z" fill="#EB7017"/>
<path d="M69 28H65V32H69V28Z" fill="#FBED9D"/>
<path d="M65 28H61V32H65V28Z" fill="#FBED9D"/>
<path d="M61 28H57V32H61V28Z" fill="#184A9C"/>
<path d="M109 24H105V28H109V24Z" fill="#184A9C"/>
<path d="M105 24H101V28H105V24Z" fill="#EB7017"/>
<path d="M101 24H97V28H101V24Z" fill="#FFC213"/>
<path d="M97 24H93V28H97V24Z" fill="#E88C0C"/>
<path d="M93 24H89V28H93V24Z" fill="#FFC213"/>
<path d="M89 24H85V28H89V24Z" fill="#FFC213"/>
<path d="M85 24H81V28H85V24Z" fill="#F8960C"/>
<path d="M81 24H77V28H81V24Z" fill="#F8960C"/>
<path d="M77 24H73V28H77V24Z" fill="#F8960C"/>
<path d="M73 24H69V28H73V24Z" fill="#FBED9D"/>
<path d="M69 24H65V28H69V24Z" fill="#FBED9D"/>
<path d="M65 24H61V28H65V24Z" fill="#FBED9D"/>
<path d="M61 24H57V28H61V24Z" fill="#184A9C"/>
<path d="M109 20H105V24H109V20Z" fill="#184A9C"/>
<path d="M105 20H101V24H105V20Z" fill="#EB7017"/>
<path d="M101 20H97V24H101V20Z" fill="#FFC213"/>
<path d="M97 20H93V24H97V20Z" fill="#E88C0C"/>
<path d="M93 20H89V24H93V20Z" fill="#FFC213"/>
<path d="M89 20H85V24H89V20Z" fill="#F8960C"/>
<path d="M85 20H81V24H85V20Z" fill="#F8960C"/>
<path d="M81 20H77V24H81V20Z" fill="#F8960C"/>
<path d="M77 20H73V24H77V20Z" fill="#FBED9D"/>
<path d="M73 20H69V24H73V20Z" fill="#FBED9D"/>
<path d="M69 20H65V24H69V20Z" fill="#FBED9D"/>
<path d="M65 20H61V24H65V20Z" fill="#F8960C"/>
<path d="M61 20H57V24H61V20Z" fill="#184A9C"/>
<path d="M109 16H105V20H109V16Z" fill="#184A9C"/>
<path d="M105 16H101V20H105V16Z" fill="#EB7017"/>
<path d="M101 16H97V20H101V16Z" fill="#FFC213"/>
<path d="M97 16H93V20H97V16Z" fill="#FFC213"/>
<path d="M93 16H89V20H93V16Z" fill="#E88C0C"/>
<path d="M89 16H85V20H89V16Z" fill="#F8960C"/>
<path d="M85 16H81V20H85V16Z" fill="#F8960C"/>
<path d="M81 16H77V20H81V16Z" fill="#FBED9D"/>
<path d="M77 16H73V20H77V16Z" fill="#FBED9D"/>
<path d="M73 16H69V20H73V16Z" fill="#FBED9D"/>
<path d="M69 16H65V20H69V16Z" fill="#FFC213"/>
<path d="M65 16H61V20H65V16Z" fill="#F8960C"/>
<path d="M61 16H57V20H61V16Z" fill="#184A9C"/>
<path d="M105 12H101V16H105V12Z" fill="#184A9C"/>
<path d="M105 8H101V12H105V8Z" fill="#184A9C"/>
<path d="M101 12H97V16H101V12Z" fill="#EB7017"/>
<path d="M97 12H93V16H97V12Z" fill="#FFC213"/>
<path d="M93 12H89V16H93V12Z" fill="#FFC213"/>
<path d="M89 12H85V16H89V12Z" fill="#EB7017"/>
<path d="M85 12H81V16H85V12Z" fill="#FBED9D"/>
<path d="M81 12H77V16H81V12Z" fill="#FBED9D"/>
<path d="M77 12H73V16H77V12Z" fill="#FBED9D"/>
<path d="M73 12H69V16H73V12Z" fill="#FFC213"/>
<path d="M69 12H65V16H69V12Z" fill="#F8960C"/>
<path d="M65 12H61V16H65V12Z" fill="#184A9C"/>
<path d="M65 8H61V12H65V8Z" fill="#184A9C"/>
<path d="M101 8H97V12H101V8Z" fill="#EB7017"/>
<path d="M97 8H93V12H97V8Z" fill="#F8960C"/>
<path d="M93 8H89V12H93V8Z" fill="#FFC213"/>
<path d="M89 8H85V12H89V8Z" fill="#FBED9D"/>
<path d="M85 8H81V12H85V8Z" fill="#FBED9D"/>
<path d="M81 8H77V12H81V8Z" fill="#FBED9D"/>
<path d="M77 8H73V12H77V8Z" fill="#FFC213"/>
<path d="M73 8H69V12H73V8Z" fill="#F8960C"/>
<path d="M69 8H65V12H69V8Z" fill="#F8960C"/>
<path d="M97 4H93V8H97V4Z" fill="#184A9C"/>
<path d="M101 4H97V8H101V4Z" fill="#184A9C"/>
<path d="M93 4H89V8H93V4Z" fill="#FBED9D"/>
<path d="M89 4H85V8H89V4Z" fill="#FBED9D"/>
<path d="M85 4H81V8H85V4Z" fill="#FBED9D"/>
<path d="M81 4H77V8H81V4Z" fill="#F8960C"/>
<path d="M77 4H73V8H77V4Z" fill="#F8960C"/>
<path d="M73 4H69V8H73V4Z" fill="#184A9C"/>
<path d="M69 4H65V8H69V4Z" fill="#184A9C"/>
<path d="M93 0H89V4H93V0Z" fill="#184A9C"/>
<path d="M89 0H85V4H89V0Z" fill="#184A9C"/>
<path d="M85 0H81V4H85V0Z" fill="#184A9C"/>
<path d="M81 0H77V4H81V0Z" fill="#184A9C"/>
<path d="M77 0H73V4H77V0Z" fill="#184A9C"/>
</svg>
