<svg width="20" height="20" viewBox="0 0 20 20" fill="none" xmlns="http://www.w3.org/2000/svg">
<rect width="20" height="20" fill="#27C2EE"/>
<path d="M4 9H16V11H4V9Z" fill="white"/>
<path d="M11 4L11 16L9 16L9 4L11 4Z" fill="white"/>
</svg>
