<svg width="110" height="100" viewBox="0 0 110 100" fill="none" xmlns="http://www.w3.org/2000/svg">
<g opacity="0.4">
<path d="M30 60H20V70L30.6667 70.6667L30 60Z" fill="#2A4C8A"/>
<path d="M40 50H30V60L40 60V50Z" fill="#2A4C8A"/>
<path d="M30.0372 60V70H0V80H40V60L30.0372 60Z" fill="#2A4C8A"/>
<path d="M60 20H50V30H60V20Z" fill="#2A4C8A"/>
<path d="M60 10H50V20H60V10Z" fill="#2A4C8A"/>
<path d="M50 39.3333V70H60V39.3333H50Z" fill="#2A4C8A"/>
<path d="M60 90H50V100H60V90Z" fill="#2A4C8A"/>
<path d="M60 30H50L40 30V60L50 60V39.9505H60V60H70V30L60 30Z" fill="#2A4C8A"/>
<path d="M80 50H70V60L80 60V50Z" fill="#2A4C8A"/>
<path d="M90 60L80 60V70H90V60Z" fill="#2A4C8A"/>
<path d="M40 80H50V70V60L40 60V80Z" fill="#2A4C8A"/>
<path d="M60 60V70V80H70L70 60H60Z" fill="#2A4C8A"/>
<path d="M20 80V90H40V80H20Z" fill="#2A4C8A"/>
<path d="M70 80L70 90H90V80H70Z" fill="#2A4C8A"/>
<path d="M80.1115 70V60H70L70 80H110V70H80.1115Z" fill="#2A4C8A"/>
<path d="M60 80V70H50V80H40V90H50H60H70L70 80H60Z" fill="#2A4C8A"/>
</g>
<path d="M30 50H20V60H30V50Z" fill="#184A9C"/>
<path d="M40 40H30V50H40V40Z" fill="#184A9C"/>
<path d="M30.0372 50V60H19.9257H9.96283H0V70H9.96283H19.9257H30.0372H40V60V50H30.0372Z" fill="white"/>
<path d="M60 10H50V20H60V10Z" fill="#F40091"/>
<path d="M60 0H50V10H60V0Z" fill="white"/>
<path d="M50 30V39.9505V50.0495V60H60V50.0495V39.9505V30H50Z" fill="#FFE246"/>
<path d="M60 80H50V90H60V80Z" fill="#27C2EE"/>
<path d="M60 20H50H40V29.9505V39.901V50H50V39.901V30H60V39.901V50H70V39.901V29.9505V20H60Z" fill="white"/>
<path d="M80 40H70V50H80V40Z" fill="#184A9C"/>
<path d="M90 50H80V60H90V50Z" fill="#184A9C"/>
<path d="M40 60V70H50V60V50H40V60Z" fill="#27C2EE"/>
<path d="M60 50V60V70H70V60V50H60Z" fill="#27C2EE"/>
<path d="M20 70V80H29.9259H40V70H29.9259H20Z" fill="#E21283"/>
<path d="M80 70H70V80H80H90V70H80Z" fill="#E21283"/>
<path d="M100.037 60H90.0743H80.1115V50H70V60V70H80.1115H90.0743H100.037H110V60H100.037Z" fill="white"/>
<path d="M60 70V60H50V70H40V80H50H60H70V70H60Z" fill="#184A9C"/>
</svg>
