<svg width="8" height="8" viewBox="0 0 8 8" fill="none" xmlns="http://www.w3.org/2000/svg">
<path fill-rule="evenodd" clip-rule="evenodd" d="M4 0L2.76422 2.50481L0 2.90639L2 4.85608L1.528 7.60849L4 6.30927L6.47244 7.60849L6 4.85608L8 2.90639L5.23622 2.50481L4 0Z" fill="white"/>
</svg>
