<svg width="40" height="40" viewBox="0 0 40 40" fill="none" xmlns="http://www.w3.org/2000/svg">
<path fill-rule="evenodd" clip-rule="evenodd" d="M0.411133 19.8531C0.411133 9.12806 9.11413 0.435059 19.8511 0.435059C30.5881 0.435059 39.2911 9.12806 39.2911 19.8521C39.2911 30.5771 30.5881 39.2721 19.8511 39.2721C9.11413 39.2721 0.411133 30.5771 0.411133 19.8531ZM27.1373 21.0979C27.7974 20.2096 29.9537 17.3075 30.2131 16.2151C30.3791 15.7391 30.2131 15.3931 29.4791 15.3931H27.0411C26.4251 15.3931 26.1411 15.6961 25.9751 16.0211C25.9751 16.0211 24.7211 18.7871 22.9691 20.5821C22.4011 21.1011 22.1401 21.2731 21.8331 21.2731C21.6671 21.2731 21.4531 21.1011 21.4531 20.6251V16.1931C21.4531 15.6311 21.2641 15.3711 20.7431 15.3711H16.9081C16.5301 15.3711 16.2931 15.6311 16.2931 15.8911C16.2931 16.0977 16.4215 16.2444 16.5852 16.4314C16.8493 16.7332 17.2055 17.1402 17.2641 18.0741V21.3601C17.2641 22.0731 17.1221 22.2031 16.8141 22.2031C15.9851 22.2031 13.9731 19.4141 12.7661 16.2371C12.5291 15.6101 12.2921 15.3721 11.6761 15.3721H9.21513C8.50513 15.3721 8.38513 15.6751 8.38513 15.9991C8.38513 16.5831 9.21513 19.5231 12.2451 23.4131C14.2571 26.0731 17.1221 27.4991 19.7021 27.4991C21.2641 27.4991 21.4531 27.1751 21.4531 26.6341V24.6241C21.4531 23.9761 21.5961 23.8671 22.0931 23.8671C22.4481 23.8671 23.0871 24.0401 24.5311 25.3161C25.0269 25.769 25.3997 26.1482 25.7035 26.4572C26.4153 27.1812 26.7486 27.5201 27.3961 27.5201H29.8341C30.5441 27.5201 30.8761 27.1971 30.6861 26.5701C30.4731 25.9431 29.6681 25.0341 28.6261 23.9541C28.339 23.6476 27.9784 23.3246 27.6587 23.0381C27.3472 22.7589 27.0745 22.5145 26.9461 22.3541C26.5911 21.9221 26.6861 21.7501 26.9461 21.3601C26.9425 21.3601 27.0136 21.2643 27.1373 21.0979Z" fill="#023F85"/>
</svg>
